%YAML 1.1
%TAG !u! tag:unity3d.com,2011:
--- !u!1 &100000
GameObject:
  m_ObjectHideFlags: 0
  m_PrefabParentObject: {fileID: 0}
  m_PrefabInternal: {fileID: 100100000}
  serializedVersion: 4
  m_Component:
  - 4: {fileID: 400000}
  - 114: {fileID: 11400000}
  m_Layer: 0
  m_Name: new_big_coin
  m_TagString: Untagged
  m_Icon: {fileID: 0}
  m_NavMeshLayer: 0
  m_StaticEditorFlags: 0
  m_IsActive: 1
--- !u!4 &400000
Transform:
  m_ObjectHideFlags: 1
  m_PrefabParentObject: {fileID: 0}
  m_PrefabInternal: {fileID: 100100000}
  m_GameObject: {fileID: 100000}
  m_LocalRotation: {x: 0, y: 0, z: 0, w: 1}
  m_LocalPosition: {x: -17.5731621, y: 33.6811867, z: 0}
  m_LocalScale: {x: 1, y: 1, z: 1}
  m_Children: []
  m_Father: {fileID: 0}
  m_RootOrder: 0
--- !u!114 &11400000
MonoBehaviour:
  m_ObjectHideFlags: 1
  m_PrefabParentObject: {fileID: 0}
  m_PrefabInternal: {fileID: 100100000}
  m_GameObject: {fileID: 100000}
  m_Enabled: 1
  m_EditorHideFlags: 0
  m_Script: {fileID: 11500000, guid: 642bdf68095743e4698ab210b1fddfce, type: 3}
  m_Name: 
  m_EditorClassIdentifier: 
  AnimationXML: {fileID: 4900000, guid: f108f86616beb8349bea977a72420c16, type: 3}
  FPS: 60
  TargetHeight: 960
  AnimationHeight: 960
  SpriteCollection: {fileID: 11400000, guid: a9dc516d987783b4a98021c62eff1bf4, type: 2}
  VariantAliases: []
  _frameCount: 28
  _frameList:
  - Layers:
    - Variants:
      - vertices:
        - {x: -11.1490002, y: -12.0010004, z: 0}
        - {x: -3.14900017, y: -12.0010004, z: 0}
        - {x: -11.1490002, y: 11.9989996, z: 0}
        - {x: -3.14900017, y: 11.9989996, z: 0}
        triangles: 000000000300000001000000020000000300000000000000
        uv:
        - {x: .799805641, y: .541993141}
        - {x: .799805641, y: .549803734}
        - {x: .823241234, y: .541993141}
        - {x: .823241234, y: .549803734}
        colors:
        - {r: 1, g: 1, b: 1, a: 1}
        - {r: 1, g: 1, b: 1, a: 1}
        - {r: 1, g: 1, b: 1, a: 1}
        - {r: 1, g: 1, b: 1, a: 1}
    - Variants:
      - vertices:
        - {x: -11.099, y: -12.0010004, z: -.00100000005}
        - {x: 10.901, y: -12.0010004, z: -.00100000005}
        - {x: -11.099, y: 11.9989996, z: -.00100000005}
        - {x: 10.901, y: 11.9989996, z: -.00100000005}
        triangles: 000000000300000001000000020000000300000000000000
        uv:
        - {x: .729493141, y: .339844733}
        - {x: .750975609, y: .339844733}
        - {x: .729493141, y: .363280267}
        - {x: .750975609, y: .363280267}
        colors:
        - {r: 1, g: 1, b: 1, a: 1}
        - {r: 1, g: 1, b: 1, a: 1}
        - {r: 1, g: 1, b: 1, a: 1}
        - {r: 1, g: 1, b: 1, a: 1}
  - Layers:
    - Variants:
      - vertices:
        - {x: -10.6990004, y: -12.0010004, z: 0}
        - {x: -2.69900036, y: -12.0010004, z: 0}
        - {x: -10.6990004, y: 11.9989996, z: 0}
        - {x: -2.69900036, y: 11.9989996, z: 0}
        triangles: 000000000300000001000000020000000300000000000000
        uv:
        - {x: .799805641, y: .541993141}
        - {x: .799805641, y: .549803734}
        - {x: .823241234, y: .541993141}
        - {x: .823241234, y: .549803734}
        colors:
        - {r: 1, g: 1, b: 1, a: 1}
        - {r: 1, g: 1, b: 1, a: 1}
        - {r: 1, g: 1, b: 1, a: 1}
        - {r: 1, g: 1, b: 1, a: 1}
    - Variants:
      - vertices:
        - {x: -9.39900017, y: -12.0010004, z: -.00100000005}
        - {x: 9.27763557, y: -12.0010004, z: -.00100000005}
        - {x: -9.39900017, y: 11.9989996, z: -.00100000005}
        - {x: 9.27763557, y: 11.9989996, z: -.00100000005}
        triangles: 000000000300000001000000020000000300000000000000
        uv:
        - {x: .729493141, y: .339844733}
        - {x: .750975609, y: .339844733}
        - {x: .729493141, y: .363280267}
        - {x: .750975609, y: .363280267}
        colors:
        - {r: 1, g: 1, b: 1, a: 1}
        - {r: 1, g: 1, b: 1, a: 1}
        - {r: 1, g: 1, b: 1, a: 1}
        - {r: 1, g: 1, b: 1, a: 1}
  - Layers:
    - Variants:
      - vertices:
        - {x: -10.2489996, y: -12.0010004, z: 0}
        - {x: -2.2489996, y: -12.0010004, z: 0}
        - {x: -10.2489996, y: 11.9989996, z: 0}
        - {x: -2.2489996, y: 11.9989996, z: 0}
        triangles: 000000000300000001000000020000000300000000000000
        uv:
        - {x: .799805641, y: .541993141}
        - {x: .799805641, y: .549803734}
        - {x: .823241234, y: .541993141}
        - {x: .823241234, y: .549803734}
        colors:
        - {r: 1, g: 1, b: 1, a: 1}
        - {r: 1, g: 1, b: 1, a: 1}
        - {r: 1, g: 1, b: 1, a: 1}
        - {r: 1, g: 1, b: 1, a: 1}
    - Variants:
      - vertices:
        - {x: -7.84899998, y: -12.0010004, z: -.00100000005}
        - {x: 7.62847805, y: -12.0010004, z: -.00100000005}
        - {x: -7.84899998, y: 11.9989996, z: -.00100000005}
        - {x: 7.62847805, y: 11.9989996, z: -.00100000005}
        triangles: 000000000300000001000000020000000300000000000000
        uv:
        - {x: .729493141, y: .339844733}
        - {x: .750975609, y: .339844733}
        - {x: .729493141, y: .363280267}
        - {x: .750975609, y: .363280267}
        colors:
        - {r: 1, g: 1, b: 1, a: 1}
        - {r: 1, g: 1, b: 1, a: 1}
        - {r: 1, g: 1, b: 1, a: 1}
        - {r: 1, g: 1, b: 1, a: 1}
  - Layers:
    - Variants:
      - vertices:
        - {x: -9.79899979, y: -12.0010004, z: 0}
        - {x: -1.79899979, y: -12.0010004, z: 0}
        - {x: -9.79899979, y: 11.9989996, z: 0}
        - {x: -1.79899979, y: 11.9989996, z: 0}
        triangles: 000000000300000001000000020000000300000000000000
        uv:
        - {x: .799805641, y: .541993141}
        - {x: .799805641, y: .549803734}
        - {x: .823241234, y: .541993141}
        - {x: .823241234, y: .549803734}
        colors:
        - {r: 1, g: 1, b: 1, a: 1}
        - {r: 1, g: 1, b: 1, a: 1}
        - {r: 1, g: 1, b: 1, a: 1}
        - {r: 1, g: 1, b: 1, a: 1}
    - Variants:
      - vertices:
        - {x: -6.29899979, y: -12.0010004, z: -.00100000005}
        - {x: 6.10419846, y: -12.0010004, z: -.00100000005}
        - {x: -6.29899979, y: 11.9989996, z: -.00100000005}
        - {x: 6.10419846, y: 11.9989996, z: -.00100000005}
        triangles: 000000000300000001000000020000000300000000000000
        uv:
        - {x: .729493141, y: .339844733}
        - {x: .750975609, y: .339844733}
        - {x: .729493141, y: .363280267}
        - {x: .750975609, y: .363280267}
        colors:
        - {r: 1, g: 1, b: 1, a: 1}
        - {r: 1, g: 1, b: 1, a: 1}
        - {r: 1, g: 1, b: 1, a: 1}
        - {r: 1, g: 1, b: 1, a: 1}
  - Layers:
    - Variants:
      - vertices:
        - {x: -9.39900017, y: -12.0010004, z: 0}
        - {x: -1.39900017, y: -12.0010004, z: 0}
        - {x: -9.39900017, y: 11.9989996, z: 0}
        - {x: -1.39900017, y: 11.9989996, z: 0}
        triangles: 000000000300000001000000020000000300000000000000
        uv:
        - {x: .799805641, y: .541993141}
        - {x: .799805641, y: .549803734}
        - {x: .823241234, y: .541993141}
        - {x: .823241234, y: .549803734}
        colors:
        - {r: 1, g: 1, b: 1, a: 1}
        - {r: 1, g: 1, b: 1, a: 1}
        - {r: 1, g: 1, b: 1, a: 1}
        - {r: 1, g: 1, b: 1, a: 1}
    - Variants:
      - vertices:
        - {x: -4.79899979, y: -12.0010004, z: -.00100000005}
        - {x: 4.65546799, y: -12.0010004, z: -.00100000005}
        - {x: -4.79899979, y: 11.9989996, z: -.00100000005}
        - {x: 4.65546799, y: 11.9989996, z: -.00100000005}
        triangles: 000000000300000001000000020000000300000000000000
        uv:
        - {x: .729493141, y: .339844733}
        - {x: .750975609, y: .339844733}
        - {x: .729493141, y: .363280267}
        - {x: .750975609, y: .363280267}
        colors:
        - {r: 1, g: 1, b: 1, a: 1}
        - {r: 1, g: 1, b: 1, a: 1}
        - {r: 1, g: 1, b: 1, a: 1}
        - {r: 1, g: 1, b: 1, a: 1}
  - Layers:
    - Variants:
      - vertices:
        - {x: -8.9989996, y: -12.0010004, z: 0}
        - {x: -.998999596, y: -12.0010004, z: 0}
        - {x: -8.9989996, y: 11.9989996, z: 0}
        - {x: -.998999596, y: 11.9989996, z: 0}
        triangles: 000000000300000001000000020000000300000000000000
        uv:
        - {x: .799805641, y: .541993141}
        - {x: .799805641, y: .549803734}
        - {x: .823241234, y: .541993141}
        - {x: .823241234, y: .549803734}
        colors:
        - {r: 1, g: 1, b: 1, a: 1}
        - {r: 1, g: 1, b: 1, a: 1}
        - {r: 1, g: 1, b: 1, a: 1}
        - {r: 1, g: 1, b: 1, a: 1}
    - Variants:
      - vertices:
        - {x: -3.39899993, y: -12.0010004, z: -.00100000005}
        - {x: 3.23228669, y: -12.0010004, z: -.00100000005}
        - {x: -3.39899993, y: 11.9989996, z: -.00100000005}
        - {x: 3.23228669, y: 11.9989996, z: -.00100000005}
        triangles: 000000000300000001000000020000000300000000000000
        uv:
        - {x: .729493141, y: .339844733}
        - {x: .750975609, y: .339844733}
        - {x: .729493141, y: .363280267}
        - {x: .750975609, y: .363280267}
        colors:
        - {r: 1, g: 1, b: 1, a: 1}
        - {r: 1, g: 1, b: 1, a: 1}
        - {r: 1, g: 1, b: 1, a: 1}
        - {r: 1, g: 1, b: 1, a: 1}
  - Layers:
    - Variants:
      - vertices:
        - {x: -8.64900017, y: -12.0010004, z: 0}
        - {x: -.649000168, y: -12.0010004, z: 0}
        - {x: -8.64900017, y: 11.9989996, z: 0}
        - {x: -.649000168, y: 11.9989996, z: 0}
        triangles: 000000000300000001000000020000000300000000000000
        uv:
        - {x: .799805641, y: .541993141}
        - {x: .799805641, y: .549803734}
        - {x: .823241234, y: .541993141}
        - {x: .823241234, y: .549803734}
        colors:
        - {r: 1, g: 1, b: 1, a: 1}
        - {r: 1, g: 1, b: 1, a: 1}
        - {r: 1, g: 1, b: 1, a: 1}
        - {r: 1, g: 1, b: 1, a: 1}
    - Variants:
      - vertices:
        - {x: -2.09899998, y: -12.0010004, z: -.00100000005}
        - {x: 1.83566189, y: -12.0010004, z: -.00100000005}
        - {x: -2.09899998, y: 11.9989996, z: -.00100000005}
        - {x: 1.83566189, y: 11.9989996, z: -.00100000005}
        triangles: 000000000300000001000000020000000300000000000000
        uv:
        - {x: .729493141, y: .339844733}
        - {x: .750975609, y: .339844733}
        - {x: .729493141, y: .363280267}
        - {x: .750975609, y: .363280267}
        colors:
        - {r: 1, g: 1, b: 1, a: 1}
        - {r: 1, g: 1, b: 1, a: 1}
        - {r: 1, g: 1, b: 1, a: 1}
        - {r: 1, g: 1, b: 1, a: 1}
  - Layers:
    - Variants:
      - vertices:
        - {x: -8.2489996, y: -12.0010004, z: 0}
        - {x: -.248999596, y: -12.0010004, z: 0}
        - {x: -8.2489996, y: 11.9989996, z: 0}
        - {x: -.248999596, y: 11.9989996, z: 0}
        triangles: 000000000300000001000000020000000300000000000000
        uv:
        - {x: .799805641, y: .541993141}
        - {x: .799805641, y: .549803734}
        - {x: .823241234, y: .541993141}
        - {x: .823241234, y: .549803734}
        colors:
        - {r: 1, g: 1, b: 1, a: 1}
        - {r: 1, g: 1, b: 1, a: 1}
        - {r: 1, g: 1, b: 1, a: 1}
        - {r: 1, g: 1, b: 1, a: 1}
    - Variants:
      - vertices:
        - {x: -.799000025, y: -12.0010004, z: -.00100000005}
        - {x: .562907934, y: -12.0010004, z: -.00100000005}
        - {x: -.799000025, y: 11.9989996, z: -.00100000005}
        - {x: .562907934, y: 11.9989996, z: -.00100000005}
        triangles: 000000000300000001000000020000000300000000000000
        uv:
        - {x: .729493141, y: .339844733}
        - {x: .750975609, y: .339844733}
        - {x: .729493141, y: .363280267}
        - {x: .750975609, y: .363280267}
        colors:
        - {r: 1, g: 1, b: 1, a: 1}
        - {r: 1, g: 1, b: 1, a: 1}
        - {r: 1, g: 1, b: 1, a: 1}
        - {r: 1, g: 1, b: 1, a: 1}
  - Layers:
    - Variants:
      - vertices:
        - {x: -7.59899998, y: -12.0010004, z: 0}
        - {x: .401000023, y: -12.0010004, z: 0}
        - {x: -7.59899998, y: 11.9989996, z: 0}
        - {x: .401000023, y: 11.9989996, z: 0}
        triangles: 000000000300000001000000020000000300000000000000
        uv:
        - {x: .799805641, y: .541993141}
        - {x: .799805641, y: .549803734}
        - {x: .823241234, y: .541993141}
        - {x: .823241234, y: .549803734}
        colors:
        - {r: 1, g: 1, b: 1, a: 1}
        - {r: 1, g: 1, b: 1, a: 1}
        - {r: 1, g: 1, b: 1, a: 1}
        - {r: 1, g: 1, b: 1, a: 1}
    - Variants:
      - vertices:
        - {x: -4.64900017, y: -12.0010004, z: -.00100000005}
        - {x: -3.67817497, y: -12.0010004, z: -.00100000005}
        - {x: -4.64900017, y: 11.9989996, z: -.00100000005}
        - {x: -3.67817497, y: 11.9989996, z: -.00100000005}
        triangles: 000000000300000001000000020000000300000000000000
        uv:
        - {x: .729493141, y: .339844733}
        - {x: .750975609, y: .339844733}
        - {x: .729493141, y: .363280267}
        - {x: .750975609, y: .363280267}
        colors:
        - {r: 1, g: 1, b: 1, a: 1}
        - {r: 1, g: 1, b: 1, a: 1}
        - {r: 1, g: 1, b: 1, a: 1}
        - {r: 1, g: 1, b: 1, a: 1}
  - Layers:
    - Variants:
      - vertices:
        - {x: -6.49900007, y: -12.0010004, z: 0}
        - {x: 1.50099993, y: -12.0010004, z: 0}
        - {x: -6.49900007, y: 11.9989996, z: 0}
        - {x: 1.50099993, y: 11.9989996, z: 0}
        triangles: 000000000300000001000000020000000300000000000000
        uv:
        - {x: .799805641, y: .541993141}
        - {x: .799805641, y: .549803734}
        - {x: .823241234, y: .541993141}
        - {x: .823241234, y: .549803734}
        colors:
        - {r: 1, g: 1, b: 1, a: 1}
        - {r: 1, g: 1, b: 1, a: 1}
        - {r: 1, g: 1, b: 1, a: 1}
        - {r: 1, g: 1, b: 1, a: 1}
    - Variants:
      - vertices:
        - {x: -7.64900017, y: -12.0010004, z: -.00100000005}
        - {x: -4.5233593, y: -12.0010004, z: -.00100000005}
        - {x: -7.64900017, y: 11.9989996, z: -.00100000005}
        - {x: -4.5233593, y: 11.9989996, z: -.00100000005}
        triangles: 000000000300000001000000020000000300000000000000
        uv:
        - {x: .729493141, y: .339844733}
        - {x: .750975609, y: .339844733}
        - {x: .729493141, y: .363280267}
        - {x: .750975609, y: .363280267}
        colors:
        - {r: 1, g: 1, b: 1, a: 1}
        - {r: 1, g: 1, b: 1, a: 1}
        - {r: 1, g: 1, b: 1, a: 1}
        - {r: 1, g: 1, b: 1, a: 1}
  - Layers:
    - Variants:
      - vertices:
        - {x: -5.49900007, y: -12.0010004, z: 0}
        - {x: 2.50099993, y: -12.0010004, z: 0}
        - {x: -5.49900007, y: 11.9989996, z: 0}
        - {x: 2.50099993, y: 11.9989996, z: 0}
        triangles: 000000000300000001000000020000000300000000000000
        uv:
        - {x: .799805641, y: .541993141}
        - {x: .799805641, y: .549803734}
        - {x: .823241234, y: .541993141}
        - {x: .823241234, y: .549803734}
        colors:
        - {r: 1, g: 1, b: 1, a: 1}
        - {r: 1, g: 1, b: 1, a: 1}
        - {r: 1, g: 1, b: 1, a: 1}
        - {r: 1, g: 1, b: 1, a: 1}
    - Variants:
      - vertices:
        - {x: -7.99900007, y: -12.0010004, z: -.00100000005}
        - {x: -2.83368635, y: -12.0010004, z: -.00100000005}
        - {x: -7.99900007, y: 11.9989996, z: -.00100000005}
        - {x: -2.83368635, y: 11.9989996, z: -.00100000005}
        triangles: 000000000300000001000000020000000300000000000000
        uv:
        - {x: .729493141, y: .339844733}
        - {x: .750975609, y: .339844733}
        - {x: .729493141, y: .363280267}
        - {x: .750975609, y: .363280267}
        colors:
        - {r: 1, g: 1, b: 1, a: 1}
        - {r: 1, g: 1, b: 1, a: 1}
        - {r: 1, g: 1, b: 1, a: 1}
        - {r: 1, g: 1, b: 1, a: 1}
  - Layers:
    - Variants:
      - vertices:
        - {x: -4.54899979, y: -12.0010004, z: 0}
        - {x: 3.45100021, y: -12.0010004, z: 0}
        - {x: -4.54899979, y: 11.9989996, z: 0}
        - {x: 3.45100021, y: 11.9989996, z: 0}
        triangles: 000000000300000001000000020000000300000000000000
        uv:
        - {x: .799805641, y: .541993141}
        - {x: .799805641, y: .549803734}
        - {x: .823241234, y: .541993141}
        - {x: .823241234, y: .549803734}
        colors:
        - {r: 1, g: 1, b: 1, a: 1}
        - {r: 1, g: 1, b: 1, a: 1}
        - {r: 1, g: 1, b: 1, a: 1}
        - {r: 1, g: 1, b: 1, a: 1}
    - Variants:
      - vertices:
        - {x: -8.34899998, y: -12.0010004, z: -.00100000005}
        - {x: -1.26184177, y: -12.0010004, z: -.00100000005}
        - {x: -8.34899998, y: 11.9989996, z: -.00100000005}
        - {x: -1.26184177, y: 11.9989996, z: -.00100000005}
        triangles: 000000000300000001000000020000000300000000000000
        uv:
        - {x: .729493141, y: .339844733}
        - {x: .750975609, y: .339844733}
        - {x: .729493141, y: .363280267}
        - {x: .750975609, y: .363280267}
        colors:
        - {r: 1, g: 1, b: 1, a: 1}
        - {r: 1, g: 1, b: 1, a: 1}
        - {r: 1, g: 1, b: 1, a: 1}
        - {r: 1, g: 1, b: 1, a: 1}
  - Layers:
    - Variants:
      - vertices:
        - {x: -3.64899993, y: -12.0010004, z: 0}
        - {x: 4.35099983, y: -12.0010004, z: 0}
        - {x: -3.64899993, y: 11.9989996, z: 0}
        - {x: 4.35099983, y: 11.9989996, z: 0}
        triangles: 000000000300000001000000020000000300000000000000
        uv:
        - {x: .799805641, y: .541993141}
        - {x: .799805641, y: .549803734}
        - {x: .823241234, y: .541993141}
        - {x: .823241234, y: .549803734}
        colors:
        - {r: 1, g: 1, b: 1, a: 1}
        - {r: 1, g: 1, b: 1, a: 1}
        - {r: 1, g: 1, b: 1, a: 1}
        - {r: 1, g: 1, b: 1, a: 1}
    - Variants:
      - vertices:
        - {x: -8.64900017, y: -12.0010004, z: -.00100000005}
        - {x: .243852615, y: -12.0010004, z: -.00100000005}
        - {x: -8.64900017, y: 11.9989996, z: -.00100000005}
        - {x: .243852615, y: 11.9989996, z: -.00100000005}
        triangles: 000000000300000001000000020000000300000000000000
        uv:
        - {x: .729493141, y: .339844733}
        - {x: .750975609, y: .339844733}
        - {x: .729493141, y: .363280267}
        - {x: .750975609, y: .363280267}
        colors:
        - {r: 1, g: 1, b: 1, a: 1}
        - {r: 1, g: 1, b: 1, a: 1}
        - {r: 1, g: 1, b: 1, a: 1}
        - {r: 1, g: 1, b: 1, a: 1}
  - Layers:
    - Variants:
      - vertices:
        - {x: -2.84899998, y: -12.0010004, z: 0}
        - {x: 5.15100002, y: -12.0010004, z: 0}
        - {x: -2.84899998, y: 11.9989996, z: 0}
        - {x: 5.15100002, y: 11.9989996, z: 0}
        triangles: 000000000300000001000000020000000300000000000000
        uv:
        - {x: .799805641, y: .541993141}
        - {x: .799805641, y: .549803734}
        - {x: .823241234, y: .541993141}
        - {x: .823241234, y: .549803734}
        colors:
        - {r: 1, g: 1, b: 1, a: 1}
        - {r: 1, g: 1, b: 1, a: 1}
        - {r: 1, g: 1, b: 1, a: 1}
        - {r: 1, g: 1, b: 1, a: 1}
    - Variants:
      - vertices:
        - {x: -8.9989996, y: -12.0010004, z: -.00100000005}
        - {x: 1.58272648, y: -12.0010004, z: -.00100000005}
        - {x: -8.9989996, y: 11.9989996, z: -.00100000005}
        - {x: 1.58272648, y: 11.9989996, z: -.00100000005}
        triangles: 000000000300000001000000020000000300000000000000
        uv:
        - {x: .729493141, y: .339844733}
        - {x: .750975609, y: .339844733}
        - {x: .729493141, y: .363280267}
        - {x: .750975609, y: .363280267}
        colors:
        - {r: 1, g: 1, b: 1, a: 1}
        - {r: 1, g: 1, b: 1, a: 1}
        - {r: 1, g: 1, b: 1, a: 1}
        - {r: 1, g: 1, b: 1, a: 1}
  - Layers:
    - Variants:
      - vertices:
        - {x: -2.04900002, y: -12.0010004, z: 0}
        - {x: 5.95100021, y: -12.0010004, z: 0}
        - {x: -2.04900002, y: 11.9989996, z: 0}
        - {x: 5.95100021, y: 11.9989996, z: 0}
        triangles: 000000000300000001000000020000000300000000000000
        uv:
        - {x: .799805641, y: .541993141}
        - {x: .799805641, y: .549803734}
        - {x: .823241234, y: .541993141}
        - {x: .823241234, y: .549803734}
        colors:
        - {r: 1, g: 1, b: 1, a: 1}
        - {r: 1, g: 1, b: 1, a: 1}
        - {r: 1, g: 1, b: 1, a: 1}
        - {r: 1, g: 1, b: 1, a: 1}
    - Variants:
      - vertices:
        - {x: -9.29899979, y: -12.0010004, z: -.00100000005}
        - {x: 2.85544968, y: -12.0010004, z: -.00100000005}
        - {x: -9.29899979, y: 11.9989996, z: -.00100000005}
        - {x: 2.85544968, y: 11.9989996, z: -.00100000005}
        triangles: 000000000300000001000000020000000300000000000000
        uv:
        - {x: .729493141, y: .339844733}
        - {x: .750975609, y: .339844733}
        - {x: .729493141, y: .363280267}
        - {x: .750975609, y: .363280267}
        colors:
        - {r: 1, g: 1, b: 1, a: 1}
        - {r: 1, g: 1, b: 1, a: 1}
        - {r: 1, g: 1, b: 1, a: 1}
        - {r: 1, g: 1, b: 1, a: 1}
  - Layers:
    - Variants:
      - vertices:
        - {x: -1.34899998, y: -12.0010004, z: 0}
        - {x: 6.65100002, y: -12.0010004, z: 0}
        - {x: -1.34899998, y: 11.9989996, z: 0}
        - {x: 6.65100002, y: 11.9989996, z: 0}
        triangles: 000000000300000001000000020000000300000000000000
        uv:
        - {x: .799805641, y: .541993141}
        - {x: .799805641, y: .549803734}
        - {x: .823241234, y: .541993141}
        - {x: .823241234, y: .549803734}
        colors:
        - {r: 1, g: 1, b: 1, a: 1}
        - {r: 1, g: 1, b: 1, a: 1}
        - {r: 1, g: 1, b: 1, a: 1}
        - {r: 1, g: 1, b: 1, a: 1}
    - Variants:
      - vertices:
        - {x: -9.4989996, y: -12.0010004, z: -.00100000005}
        - {x: 4.11202335, y: -12.0010004, z: -.00100000005}
        - {x: -9.4989996, y: 11.9989996, z: -.00100000005}
        - {x: 4.11202335, y: 11.9989996, z: -.00100000005}
        triangles: 000000000300000001000000020000000300000000000000
        uv:
        - {x: .729493141, y: .339844733}
        - {x: .750975609, y: .339844733}
        - {x: .729493141, y: .363280267}
        - {x: .750975609, y: .363280267}
        colors:
        - {r: 1, g: 1, b: 1, a: 1}
        - {r: 1, g: 1, b: 1, a: 1}
        - {r: 1, g: 1, b: 1, a: 1}
        - {r: 1, g: 1, b: 1, a: 1}
  - Layers:
    - Variants:
      - vertices:
        - {x: -.648999989, y: -12.0010004, z: 0}
        - {x: 7.35099983, y: -12.0010004, z: 0}
        - {x: -.648999989, y: 11.9989996, z: 0}
        - {x: 7.35099983, y: 11.9989996, z: 0}
        triangles: 000000000300000001000000020000000300000000000000
        uv:
        - {x: .799805641, y: .541993141}
        - {x: .799805641, y: .549803734}
        - {x: .823241234, y: .541993141}
        - {x: .823241234, y: .549803734}
        colors:
        - {r: 1, g: 1, b: 1, a: 1}
        - {r: 1, g: 1, b: 1, a: 1}
        - {r: 1, g: 1, b: 1, a: 1}
        - {r: 1, g: 1, b: 1, a: 1}
    - Variants:
      - vertices:
        - {x: -9.79899979, y: -12.0010004, z: -.00100000005}
        - {x: 5.15177536, y: -12.0010004, z: -.00100000005}
        - {x: -9.79899979, y: 11.9989996, z: -.00100000005}
        - {x: 5.15177536, y: 11.9989996, z: -.00100000005}
        triangles: 000000000300000001000000020000000300000000000000
        uv:
        - {x: .729493141, y: .339844733}
        - {x: .750975609, y: .339844733}
        - {x: .729493141, y: .363280267}
        - {x: .750975609, y: .363280267}
        colors:
        - {r: 1, g: 1, b: 1, a: 1}
        - {r: 1, g: 1, b: 1, a: 1}
        - {r: 1, g: 1, b: 1, a: 1}
        - {r: 1, g: 1, b: 1, a: 1}
  - Layers:
    - Variants:
      - vertices:
        - {x: -.0489999987, y: -12.0010004, z: 0}
        - {x: 7.95100021, y: -12.0010004, z: 0}
        - {x: -.0489999987, y: 11.9989996, z: 0}
        - {x: 7.95100021, y: 11.9989996, z: 0}
        triangles: 000000000300000001000000020000000300000000000000
        uv:
        - {x: .799805641, y: .541993141}
        - {x: .799805641, y: .549803734}
        - {x: .823241234, y: .541993141}
        - {x: .823241234, y: .549803734}
        colors:
        - {r: 1, g: 1, b: 1, a: 1}
        - {r: 1, g: 1, b: 1, a: 1}
        - {r: 1, g: 1, b: 1, a: 1}
        - {r: 1, g: 1, b: 1, a: 1}
    - Variants:
      - vertices:
        - {x: -9.9989996, y: -12.0010004, z: -.00100000005}
        - {x: 6.17537785, y: -12.0010004, z: -.00100000005}
        - {x: -9.9989996, y: 11.9989996, z: -.00100000005}
        - {x: 6.17537785, y: 11.9989996, z: -.00100000005}
        triangles: 000000000300000001000000020000000300000000000000
        uv:
        - {x: .729493141, y: .339844733}
        - {x: .750975609, y: .339844733}
        - {x: .729493141, y: .363280267}
        - {x: .750975609, y: .363280267}
        colors:
        - {r: 1, g: 1, b: 1, a: 1}
        - {r: 1, g: 1, b: 1, a: 1}
        - {r: 1, g: 1, b: 1, a: 1}
        - {r: 1, g: 1, b: 1, a: 1}
  - Layers:
    - Variants:
      - vertices:
        - {x: .5, y: -12.0010004, z: 0}
        - {x: 8.5, y: -12.0010004, z: 0}
        - {x: .5, y: 11.9989996, z: 0}
        - {x: 8.5, y: 11.9989996, z: 0}
        triangles: 000000000300000001000000020000000300000000000000
        uv:
        - {x: .799805641, y: .541993141}
        - {x: .799805641, y: .549803734}
        - {x: .823241234, y: .541993141}
        - {x: .823241234, y: .549803734}
        colors:
        - {r: 1, g: 1, b: 1, a: 1}
        - {r: 1, g: 1, b: 1, a: 1}
        - {r: 1, g: 1, b: 1, a: 1}
        - {r: 1, g: 1, b: 1, a: 1}
    - Variants:
      - vertices:
        - {x: -10.1490002, y: -12.0010004, z: -.00100000005}
        - {x: 7.1311512, y: -12.0010004, z: -.00100000005}
        - {x: -10.1490002, y: 11.9989996, z: -.00100000005}
        - {x: 7.1311512, y: 11.9989996, z: -.00100000005}
        triangles: 000000000300000001000000020000000300000000000000
        uv:
        - {x: .729493141, y: .339844733}
        - {x: .750975609, y: .339844733}
        - {x: .729493141, y: .363280267}
        - {x: .750975609, y: .363280267}
        colors:
        - {r: 1, g: 1, b: 1, a: 1}
        - {r: 1, g: 1, b: 1, a: 1}
        - {r: 1, g: 1, b: 1, a: 1}
        - {r: 1, g: 1, b: 1, a: 1}
  - Layers:
    - Variants:
      - vertices:
        - {x: 1, y: -12.0010004, z: 0}
        - {x: 9, y: -12.0010004, z: 0}
        - {x: 1, y: 11.9989996, z: 0}
        - {x: 9, y: 11.9989996, z: 0}
        triangles: 000000000300000001000000020000000300000000000000
        uv:
        - {x: .799805641, y: .541993141}
        - {x: .799805641, y: .549803734}
        - {x: .823241234, y: .541993141}
        - {x: .823241234, y: .549803734}
        colors:
        - {r: 1, g: 1, b: 1, a: 1}
        - {r: 1, g: 1, b: 1, a: 1}
        - {r: 1, g: 1, b: 1, a: 1}
        - {r: 1, g: 1, b: 1, a: 1}
    - Variants:
      - vertices:
        - {x: -10.349, y: -12.0010004, z: -.00100000005}
        - {x: 7.92178249, y: -12.0010004, z: -.00100000005}
        - {x: -10.349, y: 11.9989996, z: -.00100000005}
        - {x: 7.92178249, y: 11.9989996, z: -.00100000005}
        triangles: 000000000300000001000000020000000300000000000000
        uv:
        - {x: .729493141, y: .339844733}
        - {x: .750975609, y: .339844733}
        - {x: .729493141, y: .363280267}
        - {x: .750975609, y: .363280267}
        colors:
        - {r: 1, g: 1, b: 1, a: 1}
        - {r: 1, g: 1, b: 1, a: 1}
        - {r: 1, g: 1, b: 1, a: 1}
        - {r: 1, g: 1, b: 1, a: 1}
  - Layers:
    - Variants:
      - vertices:
        - {x: 1.39999998, y: -12.0010004, z: 0}
        - {x: 9.39999962, y: -12.0010004, z: 0}
        - {x: 1.39999998, y: 11.9989996, z: 0}
        - {x: 9.39999962, y: 11.9989996, z: 0}
        triangles: 000000000300000001000000020000000300000000000000
        uv:
        - {x: .799805641, y: .541993141}
        - {x: .799805641, y: .549803734}
        - {x: .823241234, y: .541993141}
        - {x: .823241234, y: .549803734}
        colors:
        - {r: 1, g: 1, b: 1, a: 1}
        - {r: 1, g: 1, b: 1, a: 1}
        - {r: 1, g: 1, b: 1, a: 1}
        - {r: 1, g: 1, b: 1, a: 1}
    - Variants:
      - vertices:
        - {x: -10.5489998, y: -12.0010004, z: -.00100000005}
        - {x: 8.59626389, y: -12.0010004, z: -.00100000005}
        - {x: -10.5489998, y: 11.9989996, z: -.00100000005}
        - {x: 8.59626389, y: 11.9989996, z: -.00100000005}
        triangles: 000000000300000001000000020000000300000000000000
        uv:
        - {x: .729493141, y: .339844733}
        - {x: .750975609, y: .339844733}
        - {x: .729493141, y: .363280267}
        - {x: .750975609, y: .363280267}
        colors:
        - {r: 1, g: 1, b: 1, a: 1}
        - {r: 1, g: 1, b: 1, a: 1}
        - {r: 1, g: 1, b: 1, a: 1}
        - {r: 1, g: 1, b: 1, a: 1}
  - Layers:
    - Variants:
      - vertices:
        - {x: 1.79999995, y: -12.0010004, z: 0}
        - {x: 9.80000019, y: -12.0010004, z: 0}
        - {x: 1.79999995, y: 11.9989996, z: 0}
        - {x: 9.80000019, y: 11.9989996, z: 0}
        triangles: 000000000300000001000000020000000300000000000000
        uv:
        - {x: .799805641, y: .541993141}
        - {x: .799805641, y: .549803734}
        - {x: .823241234, y: .541993141}
        - {x: .823241234, y: .549803734}
        colors:
        - {r: 1, g: 1, b: 1, a: 1}
        - {r: 1, g: 1, b: 1, a: 1}
        - {r: 1, g: 1, b: 1, a: 1}
        - {r: 1, g: 1, b: 1, a: 1}
    - Variants:
      - vertices:
        - {x: -10.6990004, y: -12.0010004, z: -.00100000005}
        - {x: 9.20291615, y: -12.0010004, z: -.00100000005}
        - {x: -10.6990004, y: 11.9989996, z: -.00100000005}
        - {x: 9.20291615, y: 11.9989996, z: -.00100000005}
        triangles: 000000000300000001000000020000000300000000000000
        uv:
        - {x: .729493141, y: .339844733}
        - {x: .750975609, y: .339844733}
        - {x: .729493141, y: .363280267}
        - {x: .750975609, y: .363280267}
        colors:
        - {r: 1, g: 1, b: 1, a: 1}
        - {r: 1, g: 1, b: 1, a: 1}
        - {r: 1, g: 1, b: 1, a: 1}
        - {r: 1, g: 1, b: 1, a: 1}
  - Layers:
    - Variants:
      - vertices:
        - {x: 2.0999999, y: -12.0010004, z: 0}
        - {x: 10.1000004, y: -12.0010004, z: 0}
        - {x: 2.0999999, y: 11.9989996, z: 0}
        - {x: 10.1000004, y: 11.9989996, z: 0}
        triangles: 000000000300000001000000020000000300000000000000
        uv:
        - {x: .799805641, y: .541993141}
        - {x: .799805641, y: .549803734}
        - {x: .823241234, y: .541993141}
        - {x: .823241234, y: .549803734}
        colors:
        - {r: 1, g: 1, b: 1, a: 1}
        - {r: 1, g: 1, b: 1, a: 1}
        - {r: 1, g: 1, b: 1, a: 1}
        - {r: 1, g: 1, b: 1, a: 1}
    - Variants:
      - vertices:
        - {x: -10.7989998, y: -12.0010004, z: -.00100000005}
        - {x: 9.74442673, y: -12.0010004, z: -.00100000005}
        - {x: -10.7989998, y: 11.9989996, z: -.00100000005}
        - {x: 9.74442673, y: 11.9989996, z: -.00100000005}
        triangles: 000000000300000001000000020000000300000000000000
        uv:
        - {x: .729493141, y: .339844733}
        - {x: .750975609, y: .339844733}
        - {x: .729493141, y: .363280267}
        - {x: .750975609, y: .363280267}
        colors:
        - {r: 1, g: 1, b: 1, a: 1}
        - {r: 1, g: 1, b: 1, a: 1}
        - {r: 1, g: 1, b: 1, a: 1}
        - {r: 1, g: 1, b: 1, a: 1}
  - Layers:
    - Variants:
      - vertices:
        - {x: 2.3499999, y: -12.0010004, z: 0}
        - {x: 10.3500004, y: -12.0010004, z: 0}
        - {x: 2.3499999, y: 11.9989996, z: 0}
        - {x: 10.3500004, y: 11.9989996, z: 0}
        triangles: 000000000300000001000000020000000300000000000000
        uv:
        - {x: .799805641, y: .541993141}
        - {x: .799805641, y: .549803734}
        - {x: .823241234, y: .541993141}
        - {x: .823241234, y: .549803734}
        colors:
        - {r: 1, g: 1, b: 1, a: 1}
        - {r: 1, g: 1, b: 1, a: 1}
        - {r: 1, g: 1, b: 1, a: 1}
        - {r: 1, g: 1, b: 1, a: 1}
    - Variants:
      - vertices:
        - {x: -10.8990002, y: -12.0010004, z: -.00100000005}
        - {x: 10.168108, y: -12.0010004, z: -.00100000005}
        - {x: -10.8990002, y: 11.9989996, z: -.00100000005}
        - {x: 10.168108, y: 11.9989996, z: -.00100000005}
        triangles: 000000000300000001000000020000000300000000000000
        uv:
        - {x: .729493141, y: .339844733}
        - {x: .750975609, y: .339844733}
        - {x: .729493141, y: .363280267}
        - {x: .750975609, y: .363280267}
        colors:
        - {r: 1, g: 1, b: 1, a: 1}
        - {r: 1, g: 1, b: 1, a: 1}
        - {r: 1, g: 1, b: 1, a: 1}
        - {r: 1, g: 1, b: 1, a: 1}
  - Layers:
    - Variants:
      - vertices:
        - {x: 2.54999995, y: -12.0010004, z: 0}
        - {x: 10.5500002, y: -12.0010004, z: 0}
        - {x: 2.54999995, y: 11.9989996, z: 0}
        - {x: 10.5500002, y: 11.9989996, z: 0}
        triangles: 000000000300000001000000020000000300000000000000
        uv:
        - {x: .799805641, y: .541993141}
        - {x: .799805641, y: .549803734}
        - {x: .823241234, y: .541993141}
        - {x: .823241234, y: .549803734}
        colors:
        - {r: 1, g: 1, b: 1, a: 1}
        - {r: 1, g: 1, b: 1, a: 1}
        - {r: 1, g: 1, b: 1, a: 1}
        - {r: 1, g: 1, b: 1, a: 1}
    - Variants:
      - vertices:
        - {x: -10.9989996, y: -12.0010004, z: -.00100000005}
        - {x: 10.4756403, y: -12.0010004, z: -.00100000005}
        - {x: -10.9989996, y: 11.9989996, z: -.00100000005}
        - {x: 10.4756403, y: 11.9989996, z: -.00100000005}
        triangles: 000000000300000001000000020000000300000000000000
        uv:
        - {x: .729493141, y: .339844733}
        - {x: .750975609, y: .339844733}
        - {x: .729493141, y: .363280267}
        - {x: .750975609, y: .363280267}
        colors:
        - {r: 1, g: 1, b: 1, a: 1}
        - {r: 1, g: 1, b: 1, a: 1}
        - {r: 1, g: 1, b: 1, a: 1}
        - {r: 1, g: 1, b: 1, a: 1}
  - Layers:
    - Variants:
      - vertices:
        - {x: 2.70000005, y: -12.0010004, z: 0}
        - {x: 10.6999998, y: -12.0010004, z: 0}
        - {x: 2.70000005, y: 11.9989996, z: 0}
        - {x: 10.6999998, y: 11.9989996, z: 0}
        triangles: 000000000300000001000000020000000300000000000000
        uv:
        - {x: .799805641, y: .541993141}
        - {x: .799805641, y: .549803734}
        - {x: .823241234, y: .541993141}
        - {x: .823241234, y: .549803734}
        colors:
        - {r: 1, g: 1, b: 1, a: 1}
        - {r: 1, g: 1, b: 1, a: 1}
        - {r: 1, g: 1, b: 1, a: 1}
        - {r: 1, g: 1, b: 1, a: 1}
    - Variants:
      - vertices:
        - {x: -11.0489998, y: -12.0010004, z: -.00100000005}
        - {x: 10.7163506, y: -12.0010004, z: -.00100000005}
        - {x: -11.0489998, y: 11.9989996, z: -.00100000005}
        - {x: 10.7163506, y: 11.9989996, z: -.00100000005}
        triangles: 000000000300000001000000020000000300000000000000
        uv:
        - {x: .729493141, y: .339844733}
        - {x: .750975609, y: .339844733}
        - {x: .729493141, y: .363280267}
        - {x: .750975609, y: .363280267}
        colors:
        - {r: 1, g: 1, b: 1, a: 1}
        - {r: 1, g: 1, b: 1, a: 1}
        - {r: 1, g: 1, b: 1, a: 1}
        - {r: 1, g: 1, b: 1, a: 1}
  - Layers:
    - Variants:
      - vertices:
        - {x: 2.79999995, y: -12.0010004, z: 0}
        - {x: 10.8000002, y: -12.0010004, z: 0}
        - {x: 2.79999995, y: 11.9989996, z: 0}
        - {x: 10.8000002, y: 11.9989996, z: 0}
        triangles: 000000000300000001000000020000000300000000000000
        uv:
        - {x: .799805641, y: .541993141}
        - {x: .799805641, y: .549803734}
        - {x: .823241234, y: .541993141}
        - {x: .823241234, y: .549803734}
        colors:
        - {r: 1, g: 1, b: 1, a: 1}
        - {r: 1, g: 1, b: 1, a: 1}
        - {r: 1, g: 1, b: 1, a: 1}
        - {r: 1, g: 1, b: 1, a: 1}
    - Variants:
      - vertices:
        - {x: -11.0489998, y: -12.0010004, z: -.00100000005}
        - {x: 10.8909111, y: -12.0010004, z: -.00100000005}
        - {x: -11.0489998, y: 11.9989996, z: -.00100000005}
        - {x: 10.8909111, y: 11.9989996, z: -.00100000005}
        triangles: 000000000300000001000000020000000300000000000000
        uv:
        - {x: .729493141, y: .339844733}
        - {x: .750975609, y: .339844733}
        - {x: .729493141, y: .363280267}
        - {x: .750975609, y: .363280267}
        colors:
        - {r: 1, g: 1, b: 1, a: 1}
        - {r: 1, g: 1, b: 1, a: 1}
        - {r: 1, g: 1, b: 1, a: 1}
        - {r: 1, g: 1, b: 1, a: 1}
  - Layers:
    - Variants:
      - vertices:
        - {x: 2.8499999, y: -12.0010004, z: 0}
        - {x: 10.8500004, y: -12.0010004, z: 0}
        - {x: 2.8499999, y: 11.9989996, z: 0}
        - {x: 10.8500004, y: 11.9989996, z: 0}
        triangles: 000000000300000001000000020000000300000000000000
        uv:
        - {x: .799805641, y: .541993141}
        - {x: .799805641, y: .549803734}
        - {x: .823241234, y: .541993141}
        - {x: .823241234, y: .549803734}
        colors:
        - {r: 1, g: 1, b: 1, a: 1}
        - {r: 1, g: 1, b: 1, a: 1}
        - {r: 1, g: 1, b: 1, a: 1}
        - {r: 1, g: 1, b: 1, a: 1}
    - Variants:
      - vertices:
        - {x: -11.099, y: -12.0010004, z: -.00100000005}
        - {x: 10.901, y: -12.0010004, z: -.00100000005}
        - {x: -11.099, y: 11.9989996, z: -.00100000005}
        - {x: 10.901, y: 11.9989996, z: -.00100000005}
        triangles: 000000000300000001000000020000000300000000000000
        uv:
        - {x: .729493141, y: .339844733}
        - {x: .750975609, y: .339844733}
        - {x: .729493141, y: .363280267}
        - {x: .750975609, y: .363280267}
        colors:
        - {r: 1, g: 1, b: 1, a: 1}
        - {r: 1, g: 1, b: 1, a: 1}
        - {r: 1, g: 1, b: 1, a: 1}
        - {r: 1, g: 1, b: 1, a: 1}
  _layerNames:
  - new_big_coin_side
  - new_big_coin_front
  _maxTriangles: 12
  _maxVertices: 8
--- !u!1001 &100100000
Prefab:
  m_ObjectHideFlags: 1
  serializedVersion: 2
  m_Modification:
    m_TransformParent: {fileID: 0}
    m_Modifications: []
    m_RemovedComponents: []
  m_ParentPrefab: {fileID: 0}
  m_RootGameObject: {fileID: 100000}
  m_IsPrefabParent: 1
