%YAML 1.1
%TAG !u! tag:unity3d.com,2011:
--- !u!1 &163602
GameObject:
  m_ObjectHideFlags: 0
  m_PrefabParentObject: {fileID: 0}
  m_PrefabInternal: {fileID: 100100000}
  serializedVersion: 4
  m_Component:
  - 4: {fileID: 400500}
  - 114: {fileID: 11448290}
  m_Layer: 0
  m_Name: BackgroundWithOverlay
  m_TagString: Untagged
  m_Icon: {fileID: 0}
  m_NavMeshLayer: 0
  m_StaticEditorFlags: 0
  m_IsActive: 0
--- !u!4 &400500
Transform:
  m_ObjectHideFlags: 1
  m_PrefabParentObject: {fileID: 0}
  m_PrefabInternal: {fileID: 100100000}
  m_GameObject: {fileID: 163602}
  m_LocalRotation: {x: 0, y: 0, z: 0, w: 1}
  m_LocalPosition: {x: 0, y: 0, z: 0}
  m_LocalScale: {x: 1, y: 1, z: 1}
  m_Children: []
  m_Father: {fileID: 0}
  m_RootOrder: 0
--- !u!114 &11448290
MonoBehaviour:
  m_ObjectHideFlags: 1
  m_PrefabParentObject: {fileID: 0}
  m_PrefabInternal: {fileID: 100100000}
  m_GameObject: {fileID: 163602}
  m_Enabled: 1
  m_EditorHideFlags: 0
  m_Script: {fileID: 11500000, guid: 84c7a4b4ee15890498f818262bca0312, type: 3}
  m_Name: 
  m_EditorClassIdentifier: 
  textures: []
  textureRefs: []
  spriteSheets: []
  fonts: []
  defaults:
    additive: 0
    scale: {x: 1, y: 1, z: 1}
    anchor: 4
    pad: 0
    colliderType: 0
  platforms:
  - name: 
    spriteCollection: {fileID: 0}
  managedSpriteCollection: 0
  linkParent: {fileID: 0}
  loadable: 0
  atlasFormat: 0
  maxTextureSize: 2048
  forceTextureSize: 0
  forcedTextureWidth: 2048
  forcedTextureHeight: 2048
  textureCompression: 0
  atlasWidth: 512
  atlasHeight: 512
  forceSquareAtlas: 0
  atlasWastage: 22.8317261
  allowMultipleAtlases: 0
  removeDuplicates: 1
  textureParams:
  - name: dust_layer_0
    disableTrimming: 0
    additive: 0
    scale: {x: 1, y: 1, z: 1}
    texture: {fileID: 2800000, guid: 159955385b951e84691946905eceddd2, type: 3}
    materialId: 0
    anchor: 4
    anchorX: 0
    anchorY: 0
    overrideMesh: {fileID: 0}
    doubleSidedSprite: 0
    customSpriteGeometry: 0
    geometryIslands: []
    dice: 1
    diceUnitX: 71
    diceUnitY: 7
    diceFilter: 0
    pad: 0
    extraPadding: 0
    source: 0
    fromSpriteSheet: 0
    hasSpriteSheetId: 0
    spriteSheetId: 0
    spriteSheetX: 0
    spriteSheetY: 0
    extractRegion: 0
    regionX: 0
    regionY: 0
    regionW: 0
    regionH: 0
    regionId: 0
    colliderType: 0
    colliderData: []
    boxColliderMin: {x: 0, y: 0}
    boxColliderMax: {x: 0, y: 0}
    polyColliderIslands: []
    polyColliderCap: 1
    colliderConvex: 0
    colliderSmoothSphereCollisions: 0
    colliderColor: 0
    attachPoints: []
  - name: dust_layer_1
    disableTrimming: 0
    additive: 0
    scale: {x: 1, y: 1, z: 1}
    texture: {fileID: 2800000, guid: 161243263b839ae40af90d6709d489cc, type: 3}
    materialId: 0
    anchor: 4
    anchorX: 0
    anchorY: 0
    overrideMesh: {fileID: 0}
    doubleSidedSprite: 0
    customSpriteGeometry: 0
    geometryIslands: []
    dice: 1
    diceUnitX: 202
    diceUnitY: 64
    diceFilter: 0
    pad: 0
    extraPadding: 0
    source: 0
    fromSpriteSheet: 0
    hasSpriteSheetId: 0
    spriteSheetId: 0
    spriteSheetX: 0
    spriteSheetY: 0
    extractRegion: 0
    regionX: 0
    regionY: 0
    regionW: 0
    regionH: 0
    regionId: 0
    colliderType: 0
    colliderData: []
    boxColliderMin: {x: 0, y: 0}
    boxColliderMax: {x: 0, y: 0}
    polyColliderIslands: []
    polyColliderCap: 1
    colliderConvex: 0
    colliderSmoothSphereCollisions: 0
    colliderColor: 0
    attachPoints: []
  - name: Front_Asteroid_2
    disableTrimming: 0
    additive: 0
    scale: {x: 1, y: 1, z: 1}
    texture: {fileID: 2800000, guid: 409928c674d49db41bd5beb5bfba3ac4, type: 3}
    materialId: 0
    anchor: 4
    anchorX: 0
    anchorY: 0
    overrideMesh: {fileID: 0}
    doubleSidedSprite: 0
    customSpriteGeometry: 0
    geometryIslands: []
    dice: 0
    diceUnitX: 64
    diceUnitY: 64
    diceFilter: 0
    pad: 0
    extraPadding: 0
    source: 0
    fromSpriteSheet: 0
    hasSpriteSheetId: 0
    spriteSheetId: 0
    spriteSheetX: 0
    spriteSheetY: 0
    extractRegion: 0
    regionX: 0
    regionY: 0
    regionW: 0
    regionH: 0
    regionId: 0
    colliderType: 0
    colliderData: []
    boxColliderMin: {x: 0, y: 0}
    boxColliderMax: {x: 0, y: 0}
    polyColliderIslands: []
    polyColliderCap: 1
    colliderConvex: 0
    colliderSmoothSphereCollisions: 0
    colliderColor: 0
    attachPoints: []
  - name: Front_Asteroid_1
    disableTrimming: 0
    additive: 0
    scale: {x: 1, y: 1, z: 1}
    texture: {fileID: 2800000, guid: 4fcb947677dee7240b1bc000dbd3b20d, type: 3}
    materialId: 0
    anchor: 4
    anchorX: 0
    anchorY: 0
    overrideMesh: {fileID: 0}
    doubleSidedSprite: 0
    customSpriteGeometry: 0
    geometryIslands: []
    dice: 0
    diceUnitX: 64
    diceUnitY: 64
    diceFilter: 0
    pad: 0
    extraPadding: 0
    source: 0
    fromSpriteSheet: 0
    hasSpriteSheetId: 0
    spriteSheetId: 0
    spriteSheetX: 0
    spriteSheetY: 0
    extractRegion: 0
    regionX: 0
    regionY: 0
    regionW: 0
    regionH: 0
    regionId: 0
    colliderType: 0
    colliderData: []
    boxColliderMin: {x: 0, y: 0}
    boxColliderMax: {x: 0, y: 0}
    polyColliderIslands: []
    polyColliderCap: 1
    colliderConvex: 0
    colliderSmoothSphereCollisions: 0
    colliderColor: 0
    attachPoints: []
  - name: comet3
    disableTrimming: 0
    additive: 0
    scale: {x: 1, y: 1, z: 1}
    texture: {fileID: 2800000, guid: 5dbcf88d721121045a6c7b0b3e557377, type: 3}
    materialId: 0
    anchor: 4
    anchorX: 0
    anchorY: 0
    overrideMesh: {fileID: 0}
    doubleSidedSprite: 0
    customSpriteGeometry: 1
    geometryIslands:
    - connected: 1
      points:
      - {x: 37, y: 0}
      - {x: 15, y: 3}
      - {x: 0, y: 9.5}
      - {x: 0, y: 17}
      - {x: 9, y: 23}
      - {x: 26.5, y: 30}
      - {x: 44, y: 30}
      - {x: 67, y: 23}
      - {x: 67, y: 8}
      - {x: 51.5, y: 0}
    dice: 0
    diceUnitX: 64
    diceUnitY: 64
    diceFilter: 0
    pad: 0
    extraPadding: 0
    source: 0
    fromSpriteSheet: 0
    hasSpriteSheetId: 0
    spriteSheetId: 0
    spriteSheetX: 0
    spriteSheetY: 0
    extractRegion: 0
    regionX: 0
    regionY: 0
    regionW: 0
    regionH: 0
    regionId: 0
    colliderType: 0
    colliderData: []
    boxColliderMin: {x: 0, y: 0}
    boxColliderMax: {x: 0, y: 0}
    polyColliderIslands: []
    polyColliderCap: 1
    colliderConvex: 0
    colliderSmoothSphereCollisions: 0
    colliderColor: 0
    attachPoints: []
  - name: comet0
    disableTrimming: 0
    additive: 0
    scale: {x: 1, y: 1, z: 1}
    texture: {fileID: 2800000, guid: 6efd40a30d95fd7419e93acc6975aa5e, type: 3}
    materialId: 0
    anchor: 4
    anchorX: 0
    anchorY: 0
    overrideMesh: {fileID: 0}
    doubleSidedSprite: 0
    customSpriteGeometry: 0
    geometryIslands:
    - connected: 1
      points:
      - {x: 0, y: 0}
      - {x: 0, y: 12}
      - {x: 13, y: 12}
      - {x: 13, y: 0}
    dice: 0
    diceUnitX: 64
    diceUnitY: 64
    diceFilter: 0
    pad: 0
    extraPadding: 0
    source: 0
    fromSpriteSheet: 0
    hasSpriteSheetId: 0
    spriteSheetId: 0
    spriteSheetX: 0
    spriteSheetY: 0
    extractRegion: 0
    regionX: 0
    regionY: 0
    regionW: 0
    regionH: 0
    regionId: 0
    colliderType: 0
    colliderData: []
    boxColliderMin: {x: 0, y: 0}
    boxColliderMax: {x: 0, y: 0}
    polyColliderIslands: []
    polyColliderCap: 1
    colliderConvex: 0
    colliderSmoothSphereCollisions: 0
    colliderColor: 0
    attachPoints: []
  - name: random_planet1
    disableTrimming: 0
    additive: 0
    scale: {x: 1, y: 1, z: 1}
    texture: {fileID: 2800000, guid: 77ba34fb317b43e419e1bad219805ed7, type: 3}
    materialId: 0
    anchor: 4
    anchorX: 0
    anchorY: 0
    overrideMesh: {fileID: 0}
    doubleSidedSprite: 0
    customSpriteGeometry: 0
    geometryIslands: []
    dice: 1
    diceUnitX: 11
    diceUnitY: 15
    diceFilter: 0
    pad: 0
    extraPadding: 0
    source: 0
    fromSpriteSheet: 0
    hasSpriteSheetId: 0
    spriteSheetId: 0
    spriteSheetX: 0
    spriteSheetY: 0
    extractRegion: 0
    regionX: 0
    regionY: 0
    regionW: 0
    regionH: 0
    regionId: 0
    colliderType: 0
    colliderData: []
    boxColliderMin: {x: 0, y: 0}
    boxColliderMax: {x: 0, y: 0}
    polyColliderIslands: []
    polyColliderCap: 1
    colliderConvex: 0
    colliderSmoothSphereCollisions: 0
    colliderColor: 0
    attachPoints: []
  - name: random_planet0
    disableTrimming: 0
    additive: 0
    scale: {x: 1, y: 1, z: 1}
    texture: {fileID: 2800000, guid: 7927ce37273fc5549a89321c9d7e3f3b, type: 3}
    materialId: 0
    anchor: 4
    anchorX: 0
    anchorY: 0
    overrideMesh: {fileID: 0}
    doubleSidedSprite: 0
    customSpriteGeometry: 0
    geometryIslands: []
    dice: 1
    diceUnitX: 14
    diceUnitY: 13
    diceFilter: 0
    pad: 0
    extraPadding: 0
    source: 0
    fromSpriteSheet: 0
    hasSpriteSheetId: 0
    spriteSheetId: 0
    spriteSheetX: 0
    spriteSheetY: 0
    extractRegion: 0
    regionX: 0
    regionY: 0
    regionW: 0
    regionH: 0
    regionId: 0
    colliderType: 0
    colliderData: []
    boxColliderMin: {x: 0, y: 0}
    boxColliderMax: {x: 0, y: 0}
    polyColliderIslands: []
    polyColliderCap: 1
    colliderConvex: 0
    colliderSmoothSphereCollisions: 0
    colliderColor: 0
    attachPoints: []
  - name: dust_layer_2
    disableTrimming: 0
    additive: 0
    scale: {x: 1, y: 1, z: 1}
    texture: {fileID: 2800000, guid: a3885e646e9a6324e98b5800d5e21446, type: 3}
    materialId: 0
    anchor: 4
    anchorX: 0
    anchorY: 0
    overrideMesh: {fileID: 0}
    doubleSidedSprite: 0
    customSpriteGeometry: 0
    geometryIslands: []
    dice: 1
    diceUnitX: 119
    diceUnitY: 64
    diceFilter: 0
    pad: 0
    extraPadding: 0
    source: 0
    fromSpriteSheet: 0
    hasSpriteSheetId: 0
    spriteSheetId: 0
    spriteSheetX: 0
    spriteSheetY: 0
    extractRegion: 0
    regionX: 0
    regionY: 0
    regionW: 0
    regionH: 0
    regionId: 0
    colliderType: 0
    colliderData: []
    boxColliderMin: {x: 0, y: 0}
    boxColliderMax: {x: 0, y: 0}
    polyColliderIslands: []
    polyColliderCap: 1
    colliderConvex: 0
    colliderSmoothSphereCollisions: 0
    colliderColor: 0
    attachPoints: []
  - name: random_planet2
    disableTrimming: 0
    additive: 0
    scale: {x: 1, y: 1, z: 1}
    texture: {fileID: 2800000, guid: acda00866316f294bb449e177b921be3, type: 3}
    materialId: 0
    anchor: 4
    anchorX: 0
    anchorY: 0
    overrideMesh: {fileID: 0}
    doubleSidedSprite: 0
    customSpriteGeometry: 0
    geometryIslands: []
    dice: 1
    diceUnitX: 12
    diceUnitY: 12
    diceFilter: 0
    pad: 0
    extraPadding: 0
    source: 0
    fromSpriteSheet: 0
    hasSpriteSheetId: 0
    spriteSheetId: 0
    spriteSheetX: 0
    spriteSheetY: 0
    extractRegion: 0
    regionX: 0
    regionY: 0
    regionW: 0
    regionH: 0
    regionId: 0
    colliderType: 0
    colliderData: []
    boxColliderMin: {x: 0, y: 0}
    boxColliderMax: {x: 0, y: 0}
    polyColliderIslands: []
    polyColliderCap: 1
    colliderConvex: 0
    colliderSmoothSphereCollisions: 0
    colliderColor: 0
    attachPoints: []
  - name: Front_Asteroid_0
    disableTrimming: 0
    additive: 0
    scale: {x: 1, y: 1, z: 1}
    texture: {fileID: 2800000, guid: af3de9989361e304898517d2f67786a6, type: 3}
    materialId: 0
    anchor: 4
    anchorX: 0
    anchorY: 0
    overrideMesh: {fileID: 0}
    doubleSidedSprite: 0
    customSpriteGeometry: 0
    geometryIslands: []
    dice: 0
    diceUnitX: 64
    diceUnitY: 64
    diceFilter: 0
    pad: 0
    extraPadding: 0
    source: 0
    fromSpriteSheet: 0
    hasSpriteSheetId: 0
    spriteSheetId: 0
    spriteSheetX: 0
    spriteSheetY: 0
    extractRegion: 0
    regionX: 0
    regionY: 0
    regionW: 0
    regionH: 0
    regionId: 0
    colliderType: 0
    colliderData: []
    boxColliderMin: {x: 0, y: 0}
    boxColliderMax: {x: 0, y: 0}
    polyColliderIslands: []
    polyColliderCap: 1
    colliderConvex: 0
    colliderSmoothSphereCollisions: 0
    colliderColor: 0
    attachPoints: []
  - name: comet1
    disableTrimming: 0
    additive: 0
    scale: {x: 1, y: 1, z: 1}
    texture: {fileID: 2800000, guid: c69a091253021e8498c938c0fbf3d046, type: 3}
    materialId: 0
    anchor: 4
    anchorX: 0
    anchorY: 0
    overrideMesh: {fileID: 0}
    doubleSidedSprite: 0
    customSpriteGeometry: 0
    geometryIslands: []
    dice: 0
    diceUnitX: 64
    diceUnitY: 64
    diceFilter: 0
    pad: 0
    extraPadding: 0
    source: 0
    fromSpriteSheet: 0
    hasSpriteSheetId: 0
    spriteSheetId: 0
    spriteSheetX: 0
    spriteSheetY: 0
    extractRegion: 0
    regionX: 0
    regionY: 0
    regionW: 0
    regionH: 0
    regionId: 0
    colliderType: 0
    colliderData: []
    boxColliderMin: {x: 0, y: 0}
    boxColliderMax: {x: 0, y: 0}
    polyColliderIslands: []
    polyColliderCap: 1
    colliderConvex: 0
    colliderSmoothSphereCollisions: 0
    colliderColor: 0
    attachPoints: []
  - name: comet4
    disableTrimming: 0
    additive: 0
    scale: {x: 1, y: 1, z: 1}
    texture: {fileID: 2800000, guid: f45f9ffe5d0400f4790b7ba0fece8949, type: 3}
    materialId: 0
    anchor: 4
    anchorX: 0
    anchorY: 0
    overrideMesh: {fileID: 0}
    doubleSidedSprite: 0
    customSpriteGeometry: 0
    geometryIslands: []
    dice: 0
    diceUnitX: 64
    diceUnitY: 64
    diceFilter: 0
    pad: 0
    extraPadding: 0
    source: 0
    fromSpriteSheet: 0
    hasSpriteSheetId: 0
    spriteSheetId: 0
    spriteSheetX: 0
    spriteSheetY: 0
    extractRegion: 0
    regionX: 0
    regionY: 0
    regionW: 0
    regionH: 0
    regionId: 0
    colliderType: 0
    colliderData: []
    boxColliderMin: {x: 0, y: 0}
    boxColliderMax: {x: 0, y: 0}
    polyColliderIslands: []
    polyColliderCap: 1
    colliderConvex: 0
    colliderSmoothSphereCollisions: 0
    colliderColor: 0
    attachPoints: []
  - name: comet2
    disableTrimming: 0
    additive: 0
    scale: {x: 1, y: 1, z: 1}
    texture: {fileID: 2800000, guid: f85e6417bd9bea941a4e0f668cb0a1e7, type: 3}
    materialId: 0
    anchor: 4
    anchorX: 0
    anchorY: 0
    overrideMesh: {fileID: 0}
    doubleSidedSprite: 0
    customSpriteGeometry: 0
    geometryIslands: []
    dice: 0
    diceUnitX: 64
    diceUnitY: 64
    diceFilter: 0
    pad: 0
    extraPadding: 0
    source: 0
    fromSpriteSheet: 0
    hasSpriteSheetId: 0
    spriteSheetId: 0
    spriteSheetX: 0
    spriteSheetY: 0
    extractRegion: 0
    regionX: 0
    regionY: 0
    regionW: 0
    regionH: 0
    regionId: 0
    colliderType: 0
    colliderData: []
    boxColliderMin: {x: 0, y: 0}
    boxColliderMax: {x: 0, y: 0}
    polyColliderIslands: []
    polyColliderCap: 1
    colliderConvex: 0
    colliderSmoothSphereCollisions: 0
    colliderColor: 0
    attachPoints: []
  - name: Background
    disableTrimming: 0
    additive: 0
    scale: {x: 1, y: 1, z: 1}
    texture: {fileID: 2800000, guid: d96cd67778af9eb4fa6c2ba1d2423bba, type: 3}
    materialId: 0
    anchor: 4
    anchorX: 0
    anchorY: 0
    overrideMesh: {fileID: 0}
    doubleSidedSprite: 0
    customSpriteGeometry: 0
    geometryIslands: []
    dice: 0
    diceUnitX: 64
    diceUnitY: 64
    diceFilter: 0
    pad: 0
    extraPadding: 0
    source: 0
    fromSpriteSheet: 0
    hasSpriteSheetId: 0
    spriteSheetId: 0
    spriteSheetX: 0
    spriteSheetY: 0
    extractRegion: 0
    regionX: 0
    regionY: 0
    regionW: 0
    regionH: 0
    regionId: 0
    colliderType: 0
    colliderData: []
    boxColliderMin: {x: 0, y: 0}
    boxColliderMax: {x: 0, y: 0}
    polyColliderIslands: []
    polyColliderCap: 1
    colliderConvex: 0
    colliderSmoothSphereCollisions: 0
    colliderColor: 0
    attachPoints: []
  - name: cloud_7
    disableTrimming: 0
    additive: 0
    scale: {x: 1, y: 1, z: 1}
    texture: {fileID: 2800000, guid: 2bfff348a131d5b44b66f66cb646d832, type: 3}
    materialId: 0
    anchor: 4
    anchorX: 0
    anchorY: 0
    overrideMesh: {fileID: 0}
    doubleSidedSprite: 0
    customSpriteGeometry: 0
    geometryIslands: []
    dice: 0
    diceUnitX: 64
    diceUnitY: 64
    diceFilter: 0
    pad: 0
    extraPadding: 0
    source: 0
    fromSpriteSheet: 0
    hasSpriteSheetId: 0
    spriteSheetId: 0
    spriteSheetX: 0
    spriteSheetY: 0
    extractRegion: 0
    regionX: 0
    regionY: 0
    regionW: 0
    regionH: 0
    regionId: 0
    colliderType: 0
    colliderData: []
    boxColliderMin: {x: 0, y: 0}
    boxColliderMax: {x: 0, y: 0}
    polyColliderIslands: []
    polyColliderCap: 1
    colliderConvex: 0
    colliderSmoothSphereCollisions: 0
    colliderColor: 0
    attachPoints: []
  - name: cloud_4
    disableTrimming: 0
    additive: 0
    scale: {x: 1, y: 1, z: 1}
    texture: {fileID: 2800000, guid: 3a1a1d0ce3303784fb5e190bf45b402c, type: 3}
    materialId: 0
    anchor: 4
    anchorX: 0
    anchorY: 0
    overrideMesh: {fileID: 0}
    doubleSidedSprite: 0
    customSpriteGeometry: 0
    geometryIslands: []
    dice: 0
    diceUnitX: 64
    diceUnitY: 64
    diceFilter: 0
    pad: 0
    extraPadding: 0
    source: 0
    fromSpriteSheet: 0
    hasSpriteSheetId: 0
    spriteSheetId: 0
    spriteSheetX: 0
    spriteSheetY: 0
    extractRegion: 0
    regionX: 0
    regionY: 0
    regionW: 0
    regionH: 0
    regionId: 0
    colliderType: 0
    colliderData: []
    boxColliderMin: {x: 0, y: 0}
    boxColliderMax: {x: 0, y: 0}
    polyColliderIslands: []
    polyColliderCap: 1
    colliderConvex: 0
    colliderSmoothSphereCollisions: 0
    colliderColor: 0
    attachPoints: []
  - name: cloud_2
    disableTrimming: 0
    additive: 0
    scale: {x: 1, y: 1, z: 1}
    texture: {fileID: 2800000, guid: 74c2e43721d234346a09ef795896dbda, type: 3}
    materialId: 0
    anchor: 4
    anchorX: 0
    anchorY: 0
    overrideMesh: {fileID: 0}
    doubleSidedSprite: 0
    customSpriteGeometry: 0
    geometryIslands: []
    dice: 0
    diceUnitX: 64
    diceUnitY: 64
    diceFilter: 0
    pad: 0
    extraPadding: 0
    source: 0
    fromSpriteSheet: 0
    hasSpriteSheetId: 0
    spriteSheetId: 0
    spriteSheetX: 0
    spriteSheetY: 0
    extractRegion: 0
    regionX: 0
    regionY: 0
    regionW: 0
    regionH: 0
    regionId: 0
    colliderType: 0
    colliderData: []
    boxColliderMin: {x: 0, y: 0}
    boxColliderMax: {x: 0, y: 0}
    polyColliderIslands: []
    polyColliderCap: 1
    colliderConvex: 0
    colliderSmoothSphereCollisions: 0
    colliderColor: 0
    attachPoints: []
  - name: cloud_6
    disableTrimming: 0
    additive: 0
    scale: {x: 1, y: 1, z: 1}
    texture: {fileID: 2800000, guid: 979dafe3f73171349b2f81d72a260074, type: 3}
    materialId: 0
    anchor: 4
    anchorX: 0
    anchorY: 0
    overrideMesh: {fileID: 0}
    doubleSidedSprite: 0
    customSpriteGeometry: 0
    geometryIslands: []
    dice: 0
    diceUnitX: 64
    diceUnitY: 64
    diceFilter: 0
    pad: 0
    extraPadding: 0
    source: 0
    fromSpriteSheet: 0
    hasSpriteSheetId: 0
    spriteSheetId: 0
    spriteSheetX: 0
    spriteSheetY: 0
    extractRegion: 0
    regionX: 0
    regionY: 0
    regionW: 0
    regionH: 0
    regionId: 0
    colliderType: 0
    colliderData: []
    boxColliderMin: {x: 0, y: 0}
    boxColliderMax: {x: 0, y: 0}
    polyColliderIslands: []
    polyColliderCap: 1
    colliderConvex: 0
    colliderSmoothSphereCollisions: 0
    colliderColor: 0
    attachPoints: []
  - name: cloud_8
    disableTrimming: 0
    additive: 0
    scale: {x: 1, y: 1, z: 1}
    texture: {fileID: 2800000, guid: aa702ece511ce004e8017fd2feca7fa7, type: 3}
    materialId: 0
    anchor: 4
    anchorX: 0
    anchorY: 0
    overrideMesh: {fileID: 0}
    doubleSidedSprite: 0
    customSpriteGeometry: 0
    geometryIslands: []
    dice: 0
    diceUnitX: 64
    diceUnitY: 64
    diceFilter: 0
    pad: 0
    extraPadding: 0
    source: 0
    fromSpriteSheet: 0
    hasSpriteSheetId: 0
    spriteSheetId: 0
    spriteSheetX: 0
    spriteSheetY: 0
    extractRegion: 0
    regionX: 0
    regionY: 0
    regionW: 0
    regionH: 0
    regionId: 0
    colliderType: 0
    colliderData: []
    boxColliderMin: {x: 0, y: 0}
    boxColliderMax: {x: 0, y: 0}
    polyColliderIslands: []
    polyColliderCap: 1
    colliderConvex: 0
    colliderSmoothSphereCollisions: 0
    colliderColor: 0
    attachPoints: []
  - name: cloud_1
    disableTrimming: 0
    additive: 0
    scale: {x: 1, y: 1, z: 1}
    texture: {fileID: 2800000, guid: f591eaac5a8b7f64e9ae8357854d0c9a, type: 3}
    materialId: 0
    anchor: 4
    anchorX: 0
    anchorY: 0
    overrideMesh: {fileID: 0}
    doubleSidedSprite: 0
    customSpriteGeometry: 0
    geometryIslands: []
    dice: 0
    diceUnitX: 64
    diceUnitY: 64
    diceFilter: 0
    pad: 0
    extraPadding: 0
    source: 0
    fromSpriteSheet: 0
    hasSpriteSheetId: 0
    spriteSheetId: 0
    spriteSheetX: 0
    spriteSheetY: 0
    extractRegion: 0
    regionX: 0
    regionY: 0
    regionW: 0
    regionH: 0
    regionId: 0
    colliderType: 0
    colliderData: []
    boxColliderMin: {x: 0, y: 0}
    boxColliderMax: {x: 0, y: 0}
    polyColliderIslands: []
    polyColliderCap: 1
    colliderConvex: 0
    colliderSmoothSphereCollisions: 0
    colliderColor: 0
    attachPoints: []
  - name: cloud_5
    disableTrimming: 0
    additive: 0
    scale: {x: 1, y: 1, z: 1}
    texture: {fileID: 2800000, guid: fe74c3fa95c77d04cb160687957c8c62, type: 3}
    materialId: 0
    anchor: 4
    anchorX: 0
    anchorY: 0
    overrideMesh: {fileID: 0}
    doubleSidedSprite: 0
    customSpriteGeometry: 0
    geometryIslands: []
    dice: 0
    diceUnitX: 64
    diceUnitY: 64
    diceFilter: 0
    pad: 0
    extraPadding: 0
    source: 0
    fromSpriteSheet: 0
    hasSpriteSheetId: 0
    spriteSheetId: 0
    spriteSheetX: 0
    spriteSheetY: 0
    extractRegion: 0
    regionX: 0
    regionY: 0
    regionW: 0
    regionH: 0
    regionId: 0
    colliderType: 0
    colliderData: []
    boxColliderMin: {x: 0, y: 0}
    boxColliderMax: {x: 0, y: 0}
    polyColliderIslands: []
    polyColliderCap: 1
    colliderConvex: 0
    colliderSmoothSphereCollisions: 0
    colliderColor: 0
    attachPoints: []
  - name: cloud_3
    disableTrimming: 0
    additive: 0
    scale: {x: 1, y: 1, z: 1}
    texture: {fileID: 2800000, guid: fff294746b8b97646a91c4ae5ecc9bcd, type: 3}
    materialId: 0
    anchor: 4
    anchorX: 0
    anchorY: 0
    overrideMesh: {fileID: 0}
    doubleSidedSprite: 0
    customSpriteGeometry: 0
    geometryIslands: []
    dice: 0
    diceUnitX: 64
    diceUnitY: 64
    diceFilter: 0
    pad: 0
    extraPadding: 0
    source: 0
    fromSpriteSheet: 0
    hasSpriteSheetId: 0
    spriteSheetId: 0
    spriteSheetX: 0
    spriteSheetY: 0
    extractRegion: 0
    regionX: 0
    regionY: 0
    regionW: 0
    regionH: 0
    regionId: 0
    colliderType: 0
    colliderData: []
    boxColliderMin: {x: 0, y: 0}
    boxColliderMax: {x: 0, y: 0}
    polyColliderIslands: []
    polyColliderCap: 1
    colliderConvex: 0
    colliderSmoothSphereCollisions: 0
    colliderColor: 0
    attachPoints: []
  - name: trash_12
    disableTrimming: 0
    additive: 0
    scale: {x: 1, y: 1, z: 1}
    texture: {fileID: 2800000, guid: 13446bb22b87a6f48ab46234870bca92, type: 3}
    materialId: 0
    anchor: 4
    anchorX: 0
    anchorY: 0
    overrideMesh: {fileID: 0}
    doubleSidedSprite: 0
    customSpriteGeometry: 0
    geometryIslands: []
    dice: 0
    diceUnitX: 64
    diceUnitY: 64
    diceFilter: 0
    pad: 0
    extraPadding: 0
    source: 0
    fromSpriteSheet: 0
    hasSpriteSheetId: 0
    spriteSheetId: 0
    spriteSheetX: 0
    spriteSheetY: 0
    extractRegion: 0
    regionX: 0
    regionY: 0
    regionW: 0
    regionH: 0
    regionId: 0
    colliderType: 0
    colliderData: []
    boxColliderMin: {x: 0, y: 0}
    boxColliderMax: {x: 0, y: 0}
    polyColliderIslands: []
    polyColliderCap: 1
    colliderConvex: 0
    colliderSmoothSphereCollisions: 0
    colliderColor: 0
    attachPoints: []
  - name: meteorite_6
    disableTrimming: 0
    additive: 0
    scale: {x: 1, y: 1, z: 1}
    texture: {fileID: 2800000, guid: 1a54a0d6bd449074883c74dec1bcbef1, type: 3}
    materialId: 0
    anchor: 4
    anchorX: 0
    anchorY: 0
    overrideMesh: {fileID: 0}
    doubleSidedSprite: 0
    customSpriteGeometry: 0
    geometryIslands: []
    dice: 0
    diceUnitX: 64
    diceUnitY: 64
    diceFilter: 0
    pad: 0
    extraPadding: 0
    source: 0
    fromSpriteSheet: 0
    hasSpriteSheetId: 0
    spriteSheetId: 0
    spriteSheetX: 0
    spriteSheetY: 0
    extractRegion: 0
    regionX: 0
    regionY: 0
    regionW: 0
    regionH: 0
    regionId: 0
    colliderType: 0
    colliderData: []
    boxColliderMin: {x: 0, y: 0}
    boxColliderMax: {x: 0, y: 0}
    polyColliderIslands: []
    polyColliderCap: 1
    colliderConvex: 0
    colliderSmoothSphereCollisions: 0
    colliderColor: 0
    attachPoints: []
  - name: meteorite_5
    disableTrimming: 0
    additive: 0
    scale: {x: 1, y: 1, z: 1}
    texture: {fileID: 2800000, guid: 25aced6e25c988b4f8c1aa62c5c4cdeb, type: 3}
    materialId: 0
    anchor: 4
    anchorX: 0
    anchorY: 0
    overrideMesh: {fileID: 0}
    doubleSidedSprite: 0
    customSpriteGeometry: 0
    geometryIslands: []
    dice: 0
    diceUnitX: 64
    diceUnitY: 64
    diceFilter: 0
    pad: 0
    extraPadding: 0
    source: 0
    fromSpriteSheet: 0
    hasSpriteSheetId: 0
    spriteSheetId: 0
    spriteSheetX: 0
    spriteSheetY: 0
    extractRegion: 0
    regionX: 0
    regionY: 0
    regionW: 0
    regionH: 0
    regionId: 0
    colliderType: 0
    colliderData: []
    boxColliderMin: {x: 0, y: 0}
    boxColliderMax: {x: 0, y: 0}
    polyColliderIslands: []
    polyColliderCap: 1
    colliderConvex: 0
    colliderSmoothSphereCollisions: 0
    colliderColor: 0
    attachPoints: []
  - name: trash_5
    disableTrimming: 0
    additive: 0
    scale: {x: 1, y: 1, z: 1}
    texture: {fileID: 2800000, guid: 26029b754c53200418e3a147b6370277, type: 3}
    materialId: 0
    anchor: 4
    anchorX: 0
    anchorY: 0
    overrideMesh: {fileID: 0}
    doubleSidedSprite: 0
    customSpriteGeometry: 0
    geometryIslands: []
    dice: 0
    diceUnitX: 64
    diceUnitY: 64
    diceFilter: 0
    pad: 0
    extraPadding: 0
    source: 0
    fromSpriteSheet: 0
    hasSpriteSheetId: 0
    spriteSheetId: 0
    spriteSheetX: 0
    spriteSheetY: 0
    extractRegion: 0
    regionX: 0
    regionY: 0
    regionW: 0
    regionH: 0
    regionId: 0
    colliderType: 0
    colliderData: []
    boxColliderMin: {x: 0, y: 0}
    boxColliderMax: {x: 0, y: 0}
    polyColliderIslands: []
    polyColliderCap: 1
    colliderConvex: 0
    colliderSmoothSphereCollisions: 0
    colliderColor: 0
    attachPoints: []
  - name: meteorite_2
    disableTrimming: 0
    additive: 0
    scale: {x: 1, y: 1, z: 1}
    texture: {fileID: 2800000, guid: 3e39e9b64c006494aa0482acceac51a5, type: 3}
    materialId: 0
    anchor: 4
    anchorX: 0
    anchorY: 0
    overrideMesh: {fileID: 0}
    doubleSidedSprite: 0
    customSpriteGeometry: 0
    geometryIslands: []
    dice: 0
    diceUnitX: 64
    diceUnitY: 64
    diceFilter: 0
    pad: 0
    extraPadding: 0
    source: 0
    fromSpriteSheet: 0
    hasSpriteSheetId: 0
    spriteSheetId: 0
    spriteSheetX: 0
    spriteSheetY: 0
    extractRegion: 0
    regionX: 0
    regionY: 0
    regionW: 0
    regionH: 0
    regionId: 0
    colliderType: 0
    colliderData: []
    boxColliderMin: {x: 0, y: 0}
    boxColliderMax: {x: 0, y: 0}
    polyColliderIslands: []
    polyColliderCap: 1
    colliderConvex: 0
    colliderSmoothSphereCollisions: 0
    colliderColor: 0
    attachPoints: []
  - name: meteorite_1
    disableTrimming: 0
    additive: 0
    scale: {x: 1, y: 1, z: 1}
    texture: {fileID: 2800000, guid: 3e8def908ddd59945832ef676169f6f3, type: 3}
    materialId: 0
    anchor: 4
    anchorX: 0
    anchorY: 0
    overrideMesh: {fileID: 0}
    doubleSidedSprite: 0
    customSpriteGeometry: 0
    geometryIslands: []
    dice: 0
    diceUnitX: 64
    diceUnitY: 64
    diceFilter: 0
    pad: 0
    extraPadding: 0
    source: 0
    fromSpriteSheet: 0
    hasSpriteSheetId: 0
    spriteSheetId: 0
    spriteSheetX: 0
    spriteSheetY: 0
    extractRegion: 0
    regionX: 0
    regionY: 0
    regionW: 0
    regionH: 0
    regionId: 0
    colliderType: 0
    colliderData: []
    boxColliderMin: {x: 0, y: 0}
    boxColliderMax: {x: 0, y: 0}
    polyColliderIslands: []
    polyColliderCap: 1
    colliderConvex: 0
    colliderSmoothSphereCollisions: 0
    colliderColor: 0
    attachPoints: []
  - name: trash_11
    disableTrimming: 0
    additive: 0
    scale: {x: 1, y: 1, z: 1}
    texture: {fileID: 2800000, guid: 3f299fc99183b3843a5369d83a450a66, type: 3}
    materialId: 0
    anchor: 4
    anchorX: 0
    anchorY: 0
    overrideMesh: {fileID: 0}
    doubleSidedSprite: 0
    customSpriteGeometry: 0
    geometryIslands: []
    dice: 0
    diceUnitX: 64
    diceUnitY: 64
    diceFilter: 0
    pad: 0
    extraPadding: 0
    source: 0
    fromSpriteSheet: 0
    hasSpriteSheetId: 0
    spriteSheetId: 0
    spriteSheetX: 0
    spriteSheetY: 0
    extractRegion: 0
    regionX: 0
    regionY: 0
    regionW: 0
    regionH: 0
    regionId: 0
    colliderType: 0
    colliderData: []
    boxColliderMin: {x: 0, y: 0}
    boxColliderMax: {x: 0, y: 0}
    polyColliderIslands: []
    polyColliderCap: 1
    colliderConvex: 0
    colliderSmoothSphereCollisions: 0
    colliderColor: 0
    attachPoints: []
  - name: meteorite_3
    disableTrimming: 0
    additive: 0
    scale: {x: 1, y: 1, z: 1}
    texture: {fileID: 2800000, guid: 42a39e4cb201f2749bbdf19e68b46c7d, type: 3}
    materialId: 0
    anchor: 4
    anchorX: 0
    anchorY: 0
    overrideMesh: {fileID: 0}
    doubleSidedSprite: 0
    customSpriteGeometry: 0
    geometryIslands: []
    dice: 0
    diceUnitX: 64
    diceUnitY: 64
    diceFilter: 0
    pad: 0
    extraPadding: 0
    source: 0
    fromSpriteSheet: 0
    hasSpriteSheetId: 0
    spriteSheetId: 0
    spriteSheetX: 0
    spriteSheetY: 0
    extractRegion: 0
    regionX: 0
    regionY: 0
    regionW: 0
    regionH: 0
    regionId: 0
    colliderType: 0
    colliderData: []
    boxColliderMin: {x: 0, y: 0}
    boxColliderMax: {x: 0, y: 0}
    polyColliderIslands: []
    polyColliderCap: 1
    colliderConvex: 0
    colliderSmoothSphereCollisions: 0
    colliderColor: 0
    attachPoints: []
  - name: trash_6
    disableTrimming: 0
    additive: 0
    scale: {x: 1, y: 1, z: 1}
    texture: {fileID: 2800000, guid: 50934f66e6b89e244bdc09462763c14a, type: 3}
    materialId: 0
    anchor: 4
    anchorX: 0
    anchorY: 0
    overrideMesh: {fileID: 0}
    doubleSidedSprite: 0
    customSpriteGeometry: 0
    geometryIslands: []
    dice: 0
    diceUnitX: 64
    diceUnitY: 64
    diceFilter: 0
    pad: 0
    extraPadding: 0
    source: 0
    fromSpriteSheet: 0
    hasSpriteSheetId: 0
    spriteSheetId: 0
    spriteSheetX: 0
    spriteSheetY: 0
    extractRegion: 0
    regionX: 0
    regionY: 0
    regionW: 0
    regionH: 0
    regionId: 0
    colliderType: 0
    colliderData: []
    boxColliderMin: {x: 0, y: 0}
    boxColliderMax: {x: 0, y: 0}
    polyColliderIslands: []
    polyColliderCap: 1
    colliderConvex: 0
    colliderSmoothSphereCollisions: 0
    colliderColor: 0
    attachPoints: []
  - name: trash_2
    disableTrimming: 0
    additive: 0
    scale: {x: 1, y: 1, z: 1}
    texture: {fileID: 2800000, guid: 58285132f0ad85740bf32e1d99fabf95, type: 3}
    materialId: 0
    anchor: 4
    anchorX: 0
    anchorY: 0
    overrideMesh: {fileID: 0}
    doubleSidedSprite: 0
    customSpriteGeometry: 0
    geometryIslands: []
    dice: 0
    diceUnitX: 64
    diceUnitY: 64
    diceFilter: 0
    pad: 0
    extraPadding: 0
    source: 0
    fromSpriteSheet: 0
    hasSpriteSheetId: 0
    spriteSheetId: 0
    spriteSheetX: 0
    spriteSheetY: 0
    extractRegion: 0
    regionX: 0
    regionY: 0
    regionW: 0
    regionH: 0
    regionId: 0
    colliderType: 0
    colliderData: []
    boxColliderMin: {x: 0, y: 0}
    boxColliderMax: {x: 0, y: 0}
    polyColliderIslands: []
    polyColliderCap: 1
    colliderConvex: 0
    colliderSmoothSphereCollisions: 0
    colliderColor: 0
    attachPoints: []
  - name: trash_4
    disableTrimming: 0
    additive: 0
    scale: {x: 1, y: 1, z: 1}
    texture: {fileID: 2800000, guid: 84b90bc85a8cc2145b3d5f27254acee1, type: 3}
    materialId: 0
    anchor: 4
    anchorX: 0
    anchorY: 0
    overrideMesh: {fileID: 0}
    doubleSidedSprite: 0
    customSpriteGeometry: 0
    geometryIslands: []
    dice: 0
    diceUnitX: 64
    diceUnitY: 64
    diceFilter: 0
    pad: 0
    extraPadding: 0
    source: 0
    fromSpriteSheet: 0
    hasSpriteSheetId: 0
    spriteSheetId: 0
    spriteSheetX: 0
    spriteSheetY: 0
    extractRegion: 0
    regionX: 0
    regionY: 0
    regionW: 0
    regionH: 0
    regionId: 0
    colliderType: 0
    colliderData: []
    boxColliderMin: {x: 0, y: 0}
    boxColliderMax: {x: 0, y: 0}
    polyColliderIslands: []
    polyColliderCap: 1
    colliderConvex: 0
    colliderSmoothSphereCollisions: 0
    colliderColor: 0
    attachPoints: []
  - name: trash_particle4
    disableTrimming: 0
    additive: 0
    scale: {x: 1, y: 1, z: 1}
    texture: {fileID: 2800000, guid: 89e3bdb918683e9448b5c66a2f03d595, type: 3}
    materialId: 0
    anchor: 4
    anchorX: 0
    anchorY: 0
    overrideMesh: {fileID: 0}
    doubleSidedSprite: 0
    customSpriteGeometry: 0
    geometryIslands: []
    dice: 0
    diceUnitX: 64
    diceUnitY: 64
    diceFilter: 0
    pad: 0
    extraPadding: 0
    source: 0
    fromSpriteSheet: 0
    hasSpriteSheetId: 0
    spriteSheetId: 0
    spriteSheetX: 0
    spriteSheetY: 0
    extractRegion: 0
    regionX: 0
    regionY: 0
    regionW: 0
    regionH: 0
    regionId: 0
    colliderType: 0
    colliderData: []
    boxColliderMin: {x: 0, y: 0}
    boxColliderMax: {x: 0, y: 0}
    polyColliderIslands: []
    polyColliderCap: 1
    colliderConvex: 0
    colliderSmoothSphereCollisions: 0
    colliderColor: 0
    attachPoints: []
  - name: trash_particle1
    disableTrimming: 0
    additive: 0
    scale: {x: 1, y: 1, z: 1}
    texture: {fileID: 2800000, guid: 8cd3c556697e8494bb5720e32dbf0175, type: 3}
    materialId: 0
    anchor: 4
    anchorX: 0
    anchorY: 0
    overrideMesh: {fileID: 0}
    doubleSidedSprite: 0
    customSpriteGeometry: 0
    geometryIslands: []
    dice: 0
    diceUnitX: 64
    diceUnitY: 64
    diceFilter: 0
    pad: 0
    extraPadding: 0
    source: 0
    fromSpriteSheet: 0
    hasSpriteSheetId: 0
    spriteSheetId: 0
    spriteSheetX: 0
    spriteSheetY: 0
    extractRegion: 0
    regionX: 0
    regionY: 0
    regionW: 0
    regionH: 0
    regionId: 0
    colliderType: 0
    colliderData: []
    boxColliderMin: {x: 0, y: 0}
    boxColliderMax: {x: 0, y: 0}
    polyColliderIslands: []
    polyColliderCap: 1
    colliderConvex: 0
    colliderSmoothSphereCollisions: 0
    colliderColor: 0
    attachPoints: []
  - name: trash_particle2
    disableTrimming: 0
    additive: 0
    scale: {x: 1, y: 1, z: 1}
    texture: {fileID: 2800000, guid: d171d2cb9f4397844af107c46b62ee25, type: 3}
    materialId: 0
    anchor: 4
    anchorX: 0
    anchorY: 0
    overrideMesh: {fileID: 0}
    doubleSidedSprite: 0
    customSpriteGeometry: 0
    geometryIslands: []
    dice: 0
    diceUnitX: 64
    diceUnitY: 64
    diceFilter: 0
    pad: 0
    extraPadding: 0
    source: 0
    fromSpriteSheet: 0
    hasSpriteSheetId: 0
    spriteSheetId: 0
    spriteSheetX: 0
    spriteSheetY: 0
    extractRegion: 0
    regionX: 0
    regionY: 0
    regionW: 0
    regionH: 0
    regionId: 0
    colliderType: 0
    colliderData: []
    boxColliderMin: {x: 0, y: 0}
    boxColliderMax: {x: 0, y: 0}
    polyColliderIslands: []
    polyColliderCap: 1
    colliderConvex: 0
    colliderSmoothSphereCollisions: 0
    colliderColor: 0
    attachPoints: []
  - name: trash_10
    disableTrimming: 0
    additive: 0
    scale: {x: 1, y: 1, z: 1}
    texture: {fileID: 2800000, guid: d83faccbb05315841803d886ab4daceb, type: 3}
    materialId: 0
    anchor: 4
    anchorX: 0
    anchorY: 0
    overrideMesh: {fileID: 0}
    doubleSidedSprite: 0
    customSpriteGeometry: 0
    geometryIslands: []
    dice: 0
    diceUnitX: 64
    diceUnitY: 64
    diceFilter: 0
    pad: 0
    extraPadding: 0
    source: 0
    fromSpriteSheet: 0
    hasSpriteSheetId: 0
    spriteSheetId: 0
    spriteSheetX: 0
    spriteSheetY: 0
    extractRegion: 0
    regionX: 0
    regionY: 0
    regionW: 0
    regionH: 0
    regionId: 0
    colliderType: 0
    colliderData: []
    boxColliderMin: {x: 0, y: 0}
    boxColliderMax: {x: 0, y: 0}
    polyColliderIslands: []
    polyColliderCap: 1
    colliderConvex: 0
    colliderSmoothSphereCollisions: 0
    colliderColor: 0
    attachPoints: []
  - name: trash_7
    disableTrimming: 0
    additive: 0
    scale: {x: 1, y: 1, z: 1}
    texture: {fileID: 2800000, guid: e02629073482ea24a8ddf3b09db874ca, type: 3}
    materialId: 0
    anchor: 4
    anchorX: 0
    anchorY: 0
    overrideMesh: {fileID: 0}
    doubleSidedSprite: 0
    customSpriteGeometry: 0
    geometryIslands: []
    dice: 0
    diceUnitX: 64
    diceUnitY: 64
    diceFilter: 0
    pad: 0
    extraPadding: 0
    source: 0
    fromSpriteSheet: 0
    hasSpriteSheetId: 0
    spriteSheetId: 0
    spriteSheetX: 0
    spriteSheetY: 0
    extractRegion: 0
    regionX: 0
    regionY: 0
    regionW: 0
    regionH: 0
    regionId: 0
    colliderType: 0
    colliderData: []
    boxColliderMin: {x: 0, y: 0}
    boxColliderMax: {x: 0, y: 0}
    polyColliderIslands: []
    polyColliderCap: 1
    colliderConvex: 0
    colliderSmoothSphereCollisions: 0
    colliderColor: 0
    attachPoints: []
  - name: trash_9
    disableTrimming: 0
    additive: 0
    scale: {x: 1, y: 1, z: 1}
    texture: {fileID: 2800000, guid: e8a9ae5ef413b244e81ea34603922014, type: 3}
    materialId: 0
    anchor: 4
    anchorX: 0
    anchorY: 0
    overrideMesh: {fileID: 0}
    doubleSidedSprite: 0
    customSpriteGeometry: 0
    geometryIslands: []
    dice: 0
    diceUnitX: 64
    diceUnitY: 64
    diceFilter: 0
    pad: 0
    extraPadding: 0
    source: 0
    fromSpriteSheet: 0
    hasSpriteSheetId: 0
    spriteSheetId: 0
    spriteSheetX: 0
    spriteSheetY: 0
    extractRegion: 0
    regionX: 0
    regionY: 0
    regionW: 0
    regionH: 0
    regionId: 0
    colliderType: 0
    colliderData: []
    boxColliderMin: {x: 0, y: 0}
    boxColliderMax: {x: 0, y: 0}
    polyColliderIslands: []
    polyColliderCap: 1
    colliderConvex: 0
    colliderSmoothSphereCollisions: 0
    colliderColor: 0
    attachPoints: []
  - name: trash_particle3
    disableTrimming: 0
    additive: 0
    scale: {x: 1, y: 1, z: 1}
    texture: {fileID: 2800000, guid: ef0d02a179750b343b26571b33ebfb34, type: 3}
    materialId: 0
    anchor: 4
    anchorX: 0
    anchorY: 0
    overrideMesh: {fileID: 0}
    doubleSidedSprite: 0
    customSpriteGeometry: 0
    geometryIslands: []
    dice: 0
    diceUnitX: 64
    diceUnitY: 64
    diceFilter: 0
    pad: 0
    extraPadding: 0
    source: 0
    fromSpriteSheet: 0
    hasSpriteSheetId: 0
    spriteSheetId: 0
    spriteSheetX: 0
    spriteSheetY: 0
    extractRegion: 0
    regionX: 0
    regionY: 0
    regionW: 0
    regionH: 0
    regionId: 0
    colliderType: 0
    colliderData: []
    boxColliderMin: {x: 0, y: 0}
    boxColliderMax: {x: 0, y: 0}
    polyColliderIslands: []
    polyColliderCap: 1
    colliderConvex: 0
    colliderSmoothSphereCollisions: 0
    colliderColor: 0
    attachPoints: []
  - name: trash_3
    disableTrimming: 0
    additive: 0
    scale: {x: 1, y: 1, z: 1}
    texture: {fileID: 2800000, guid: efcf6289b2772a74e82ba58941baef32, type: 3}
    materialId: 0
    anchor: 4
    anchorX: 0
    anchorY: 0
    overrideMesh: {fileID: 0}
    doubleSidedSprite: 0
    customSpriteGeometry: 0
    geometryIslands: []
    dice: 0
    diceUnitX: 64
    diceUnitY: 64
    diceFilter: 0
    pad: 0
    extraPadding: 0
    source: 0
    fromSpriteSheet: 0
    hasSpriteSheetId: 0
    spriteSheetId: 0
    spriteSheetX: 0
    spriteSheetY: 0
    extractRegion: 0
    regionX: 0
    regionY: 0
    regionW: 0
    regionH: 0
    regionId: 0
    colliderType: 0
    colliderData: []
    boxColliderMin: {x: 0, y: 0}
    boxColliderMax: {x: 0, y: 0}
    polyColliderIslands: []
    polyColliderCap: 1
    colliderConvex: 0
    colliderSmoothSphereCollisions: 0
    colliderColor: 0
    attachPoints: []
  - name: trash_8
    disableTrimming: 0
    additive: 0
    scale: {x: 1, y: 1, z: 1}
    texture: {fileID: 2800000, guid: efe42c9fb9a90de44affa45f32703be2, type: 3}
    materialId: 0
    anchor: 4
    anchorX: 0
    anchorY: 0
    overrideMesh: {fileID: 0}
    doubleSidedSprite: 0
    customSpriteGeometry: 0
    geometryIslands: []
    dice: 0
    diceUnitX: 64
    diceUnitY: 64
    diceFilter: 0
    pad: 0
    extraPadding: 0
    source: 0
    fromSpriteSheet: 0
    hasSpriteSheetId: 0
    spriteSheetId: 0
    spriteSheetX: 0
    spriteSheetY: 0
    extractRegion: 0
    regionX: 0
    regionY: 0
    regionW: 0
    regionH: 0
    regionId: 0
    colliderType: 0
    colliderData: []
    boxColliderMin: {x: 0, y: 0}
    boxColliderMax: {x: 0, y: 0}
    polyColliderIslands: []
    polyColliderCap: 1
    colliderConvex: 0
    colliderSmoothSphereCollisions: 0
    colliderColor: 0
    attachPoints: []
  - name: trash_1
    disableTrimming: 0
    additive: 0
    scale: {x: 1, y: 1, z: 1}
    texture: {fileID: 2800000, guid: fabfd3d03d804e54da2fe0c0b3640d8f, type: 3}
    materialId: 0
    anchor: 4
    anchorX: 0
    anchorY: 0
    overrideMesh: {fileID: 0}
    doubleSidedSprite: 0
    customSpriteGeometry: 0
    geometryIslands: []
    dice: 0
    diceUnitX: 64
    diceUnitY: 64
    diceFilter: 0
    pad: 0
    extraPadding: 0
    source: 0
    fromSpriteSheet: 0
    hasSpriteSheetId: 0
    spriteSheetId: 0
    spriteSheetX: 0
    spriteSheetY: 0
    extractRegion: 0
    regionX: 0
    regionY: 0
    regionW: 0
    regionH: 0
    regionId: 0
    colliderType: 0
    colliderData: []
    boxColliderMin: {x: 0, y: 0}
    boxColliderMax: {x: 0, y: 0}
    polyColliderIslands: []
    polyColliderCap: 1
    colliderConvex: 0
    colliderSmoothSphereCollisions: 0
    colliderColor: 0
    attachPoints: []
  - name: meteorite_4
    disableTrimming: 0
    additive: 0
    scale: {x: 1, y: 1, z: 1}
    texture: {fileID: 2800000, guid: fbd51b420e209c142b4411e3b34cb218, type: 3}
    materialId: 0
    anchor: 4
    anchorX: 0
    anchorY: 0
    overrideMesh: {fileID: 0}
    doubleSidedSprite: 0
    customSpriteGeometry: 0
    geometryIslands: []
    dice: 0
    diceUnitX: 64
    diceUnitY: 64
    diceFilter: 0
    pad: 0
    extraPadding: 0
    source: 0
    fromSpriteSheet: 0
    hasSpriteSheetId: 0
    spriteSheetId: 0
    spriteSheetX: 0
    spriteSheetY: 0
    extractRegion: 0
    regionX: 0
    regionY: 0
    regionW: 0
    regionH: 0
    regionId: 0
    colliderType: 0
    colliderData: []
    boxColliderMin: {x: 0, y: 0}
    boxColliderMax: {x: 0, y: 0}
    polyColliderIslands: []
    polyColliderCap: 1
    colliderConvex: 0
    colliderSmoothSphereCollisions: 0
    colliderColor: 0
    attachPoints: []
  spriteCollection: {fileID: 11404582, guid: 6ff12645038f40d4c8ecb3edf790dd68, type: 2}
  premultipliedAlpha: 0
  altMaterials:
  - {fileID: 2100000, guid: 900f29a680e2c014999964e86618b187, type: 2}
  atlasMaterials:
  - {fileID: 2100000, guid: 900f29a680e2c014999964e86618b187, type: 2}
  atlasTextures:
  - {fileID: 2800000, guid: a4d2d115342162846b036f57cb80fa5e, type: 3}
  atlasTextureFiles: []
  useTk2dCamera: 0
  targetHeight: 640
  targetOrthoSize: 10
  sizeDef:
    type: 1
    orthoSize: 10
    pixelsPerMeter: .5
    width: 960
    height: 640
  globalScale: 1
  globalTextureRescale: 1
  attachPointTestSprites: []
  pixelPerfectPointSampled: 0
  filterMode: 0
  wrapMode: 1
  userDefinedTextureSettings: 0
  mipmapEnabled: 0
  anisoLevel: 0
  physicsEngine: 0
  physicsDepth: .100000001
  disableTrimming: 0
  disableRotation: 0
  normalGenerationMode: 0
  padAmount: 2
  autoUpdate: 1
  editorDisplayScale: 2.17000079
  version: 4
  assetName: BackgroundWithOverlay
  linkedSpriteCollections: []
--- !u!1001 &100100000
Prefab:
  m_ObjectHideFlags: 1
  serializedVersion: 2
  m_Modification:
    m_TransformParent: {fileID: 0}
    m_Modifications: []
    m_RemovedComponents: []
  m_ParentPrefab: {fileID: 0}
  m_RootGameObject: {fileID: 163602}
  m_IsPrefabParent: 1
