%YAML 1.1
%TAG !u! tag:unity3d.com,2011:
--- !u!1 &100000
GameObject:
  m_ObjectHideFlags: 0
  m_PrefabParentObject: {fileID: 0}
  m_PrefabInternal: {fileID: 100100000}
  serializedVersion: 4
  m_Component:
  - 4: {fileID: 400000}
  - 114: {fileID: 11400000}
  m_Layer: 0
  m_Name: fv_arrow_movement
  m_TagString: Untagged
  m_Icon: {fileID: 0}
  m_NavMeshLayer: 0
  m_StaticEditorFlags: 0
  m_IsActive: 1
--- !u!4 &400000
Transform:
  m_ObjectHideFlags: 1
  m_PrefabParentObject: {fileID: 0}
  m_PrefabInternal: {fileID: 100100000}
  m_GameObject: {fileID: 100000}
  m_LocalRotation: {x: 0, y: 0, z: 0, w: 1}
  m_LocalPosition: {x: -17.5731621, y: 33.6811867, z: 0}
  m_LocalScale: {x: 1, y: 1, z: 1}
  m_Children: []
  m_Father: {fileID: 0}
  m_RootOrder: 0
--- !u!114 &11400000
MonoBehaviour:
  m_ObjectHideFlags: 1
  m_PrefabParentObject: {fileID: 0}
  m_PrefabInternal: {fileID: 100100000}
  m_GameObject: {fileID: 100000}
  m_Enabled: 1
  m_EditorHideFlags: 0
  m_Script: {fileID: 11500000, guid: 642bdf68095743e4698ab210b1fddfce, type: 3}
  m_Name: 
  m_EditorClassIdentifier: 
  AnimationXML: {fileID: 4900000, guid: d7c1cf3a5f7fcff4895ad46d208fb81a, type: 3}
  FPS: 60
  TargetHeight: 480
  AnimationHeight: 480
  SpriteCollection: {fileID: 11450626, guid: b4e2f45da8750ce42828fa9fae217e93, type: 2}
  VariantAliases: []
  _frameCount: 60
  _frameList:
  - Layers:
    - Variants:
      - vertices:
        - {x: -11.1999969, y: -2.24999619, z: 0}
        - {x: -.199996948, y: -2.24999619, z: 0}
        - {x: -11.1999969, y: 10.7500038, z: 0}
        - {x: -.199996948, y: 10.7500038, z: 0}
        triangles: 000000000300000001000000020000000300000000000000
        uv:
        - {x: .457035154, y: .964845717}
        - {x: .499996096, y: .964845717}
        - {x: .457035154, y: .990232408}
        - {x: .499996096, y: .990232408}
        colors:
        - {r: 1, g: 1, b: 1, a: 1}
        - {r: 1, g: 1, b: 1, a: 1}
        - {r: 1, g: 1, b: 1, a: 1}
        - {r: 1, g: 1, b: 1, a: 1}
  - Layers:
    - Variants:
      - vertices:
        - {x: -11.1999969, y: -2.24999619, z: 0}
        - {x: -.199996948, y: -2.24999619, z: 0}
        - {x: -11.1999969, y: 10.7500038, z: 0}
        - {x: -.199996948, y: 10.7500038, z: 0}
        triangles: 000000000300000001000000020000000300000000000000
        uv:
        - {x: .457035154, y: .964845717}
        - {x: .499996096, y: .964845717}
        - {x: .457035154, y: .990232408}
        - {x: .499996096, y: .990232408}
        colors:
        - {r: 1, g: 1, b: 1, a: 1}
        - {r: 1, g: 1, b: 1, a: 1}
        - {r: 1, g: 1, b: 1, a: 1}
        - {r: 1, g: 1, b: 1, a: 1}
  - Layers:
    - Variants:
      - vertices:
        - {x: -11.1999969, y: -2.24999619, z: 0}
        - {x: -.199996948, y: -2.24999619, z: 0}
        - {x: -11.1999969, y: 10.7500038, z: 0}
        - {x: -.199996948, y: 10.7500038, z: 0}
        triangles: 000000000300000001000000020000000300000000000000
        uv:
        - {x: .457035154, y: .964845717}
        - {x: .499996096, y: .964845717}
        - {x: .457035154, y: .990232408}
        - {x: .499996096, y: .990232408}
        colors:
        - {r: 1, g: 1, b: 1, a: 1}
        - {r: 1, g: 1, b: 1, a: 1}
        - {r: 1, g: 1, b: 1, a: 1}
        - {r: 1, g: 1, b: 1, a: 1}
  - Layers:
    - Variants:
      - vertices:
        - {x: -11.1999969, y: -2.24999619, z: 0}
        - {x: -.199996948, y: -2.24999619, z: 0}
        - {x: -11.1999969, y: 10.7500038, z: 0}
        - {x: -.199996948, y: 10.7500038, z: 0}
        triangles: 000000000300000001000000020000000300000000000000
        uv:
        - {x: .457035154, y: .964845717}
        - {x: .499996096, y: .964845717}
        - {x: .457035154, y: .990232408}
        - {x: .499996096, y: .990232408}
        colors:
        - {r: 1, g: 1, b: 1, a: 1}
        - {r: 1, g: 1, b: 1, a: 1}
        - {r: 1, g: 1, b: 1, a: 1}
        - {r: 1, g: 1, b: 1, a: 1}
  - Layers:
    - Variants:
      - vertices:
        - {x: -11.25, y: -2.24999619, z: 0}
        - {x: -.25, y: -2.24999619, z: 0}
        - {x: -11.25, y: 10.7500038, z: 0}
        - {x: -.25, y: 10.7500038, z: 0}
        triangles: 000000000300000001000000020000000300000000000000
        uv:
        - {x: .457035154, y: .964845717}
        - {x: .499996096, y: .964845717}
        - {x: .457035154, y: .990232408}
        - {x: .499996096, y: .990232408}
        colors:
        - {r: 1, g: 1, b: 1, a: 1}
        - {r: 1, g: 1, b: 1, a: 1}
        - {r: 1, g: 1, b: 1, a: 1}
        - {r: 1, g: 1, b: 1, a: 1}
  - Layers:
    - Variants:
      - vertices:
        - {x: -11.3000031, y: -2.24999619, z: 0}
        - {x: -.300003052, y: -2.24999619, z: 0}
        - {x: -11.3000031, y: 10.7500038, z: 0}
        - {x: -.300003052, y: 10.7500038, z: 0}
        triangles: 000000000300000001000000020000000300000000000000
        uv:
        - {x: .457035154, y: .964845717}
        - {x: .499996096, y: .964845717}
        - {x: .457035154, y: .990232408}
        - {x: .499996096, y: .990232408}
        colors:
        - {r: 1, g: 1, b: 1, a: 1}
        - {r: 1, g: 1, b: 1, a: 1}
        - {r: 1, g: 1, b: 1, a: 1}
        - {r: 1, g: 1, b: 1, a: 1}
  - Layers:
    - Variants:
      - vertices:
        - {x: -11.3500061, y: -2.24999619, z: 0}
        - {x: -.350006104, y: -2.24999619, z: 0}
        - {x: -11.3500061, y: 10.7500038, z: 0}
        - {x: -.350006104, y: 10.7500038, z: 0}
        triangles: 000000000300000001000000020000000300000000000000
        uv:
        - {x: .457035154, y: .964845717}
        - {x: .499996096, y: .964845717}
        - {x: .457035154, y: .990232408}
        - {x: .499996096, y: .990232408}
        colors:
        - {r: 1, g: 1, b: 1, a: 1}
        - {r: 1, g: 1, b: 1, a: 1}
        - {r: 1, g: 1, b: 1, a: 1}
        - {r: 1, g: 1, b: 1, a: 1}
  - Layers:
    - Variants:
      - vertices:
        - {x: -11.4499969, y: -2.24999619, z: 0}
        - {x: -.449996948, y: -2.24999619, z: 0}
        - {x: -11.4499969, y: 10.7500038, z: 0}
        - {x: -.449996948, y: 10.7500038, z: 0}
        triangles: 000000000300000001000000020000000300000000000000
        uv:
        - {x: .457035154, y: .964845717}
        - {x: .499996096, y: .964845717}
        - {x: .457035154, y: .990232408}
        - {x: .499996096, y: .990232408}
        colors:
        - {r: 1, g: 1, b: 1, a: 1}
        - {r: 1, g: 1, b: 1, a: 1}
        - {r: 1, g: 1, b: 1, a: 1}
        - {r: 1, g: 1, b: 1, a: 1}
  - Layers:
    - Variants:
      - vertices:
        - {x: -11.5500031, y: -2.24999619, z: 0}
        - {x: -.550003052, y: -2.24999619, z: 0}
        - {x: -11.5500031, y: 10.7500038, z: 0}
        - {x: -.550003052, y: 10.7500038, z: 0}
        triangles: 000000000300000001000000020000000300000000000000
        uv:
        - {x: .457035154, y: .964845717}
        - {x: .499996096, y: .964845717}
        - {x: .457035154, y: .990232408}
        - {x: .499996096, y: .990232408}
        colors:
        - {r: 1, g: 1, b: 1, a: 1}
        - {r: 1, g: 1, b: 1, a: 1}
        - {r: 1, g: 1, b: 1, a: 1}
        - {r: 1, g: 1, b: 1, a: 1}
  - Layers:
    - Variants:
      - vertices:
        - {x: -11.6500092, y: -2.24999619, z: 0}
        - {x: -.650009155, y: -2.24999619, z: 0}
        - {x: -11.6500092, y: 10.7500038, z: 0}
        - {x: -.650009155, y: 10.7500038, z: 0}
        triangles: 000000000300000001000000020000000300000000000000
        uv:
        - {x: .457035154, y: .964845717}
        - {x: .499996096, y: .964845717}
        - {x: .457035154, y: .990232408}
        - {x: .499996096, y: .990232408}
        colors:
        - {r: 1, g: 1, b: 1, a: 1}
        - {r: 1, g: 1, b: 1, a: 1}
        - {r: 1, g: 1, b: 1, a: 1}
        - {r: 1, g: 1, b: 1, a: 1}
  - Layers:
    - Variants:
      - vertices:
        - {x: -11.8000031, y: -2.24999619, z: 0}
        - {x: -.800003052, y: -2.24999619, z: 0}
        - {x: -11.8000031, y: 10.7500038, z: 0}
        - {x: -.800003052, y: 10.7500038, z: 0}
        triangles: 000000000300000001000000020000000300000000000000
        uv:
        - {x: .457035154, y: .964845717}
        - {x: .499996096, y: .964845717}
        - {x: .457035154, y: .990232408}
        - {x: .499996096, y: .990232408}
        colors:
        - {r: 1, g: 1, b: 1, a: 1}
        - {r: 1, g: 1, b: 1, a: 1}
        - {r: 1, g: 1, b: 1, a: 1}
        - {r: 1, g: 1, b: 1, a: 1}
  - Layers:
    - Variants:
      - vertices:
        - {x: -11.9499969, y: -2.24999619, z: 0}
        - {x: -.949996948, y: -2.24999619, z: 0}
        - {x: -11.9499969, y: 10.7500038, z: 0}
        - {x: -.949996948, y: 10.7500038, z: 0}
        triangles: 000000000300000001000000020000000300000000000000
        uv:
        - {x: .457035154, y: .964845717}
        - {x: .499996096, y: .964845717}
        - {x: .457035154, y: .990232408}
        - {x: .499996096, y: .990232408}
        colors:
        - {r: 1, g: 1, b: 1, a: 1}
        - {r: 1, g: 1, b: 1, a: 1}
        - {r: 1, g: 1, b: 1, a: 1}
        - {r: 1, g: 1, b: 1, a: 1}
  - Layers:
    - Variants:
      - vertices:
        - {x: -12.1500092, y: -2.24999619, z: 0}
        - {x: -1.15000916, y: -2.24999619, z: 0}
        - {x: -12.1500092, y: 10.7500038, z: 0}
        - {x: -1.15000916, y: 10.7500038, z: 0}
        triangles: 000000000300000001000000020000000300000000000000
        uv:
        - {x: .457035154, y: .964845717}
        - {x: .499996096, y: .964845717}
        - {x: .457035154, y: .990232408}
        - {x: .499996096, y: .990232408}
        colors:
        - {r: 1, g: 1, b: 1, a: 1}
        - {r: 1, g: 1, b: 1, a: 1}
        - {r: 1, g: 1, b: 1, a: 1}
        - {r: 1, g: 1, b: 1, a: 1}
  - Layers:
    - Variants:
      - vertices:
        - {x: -12.4000092, y: -2.24999619, z: 0}
        - {x: -1.40000916, y: -2.24999619, z: 0}
        - {x: -12.4000092, y: 10.7500038, z: 0}
        - {x: -1.40000916, y: 10.7500038, z: 0}
        triangles: 000000000300000001000000020000000300000000000000
        uv:
        - {x: .457035154, y: .964845717}
        - {x: .499996096, y: .964845717}
        - {x: .457035154, y: .990232408}
        - {x: .499996096, y: .990232408}
        colors:
        - {r: 1, g: 1, b: 1, a: 1}
        - {r: 1, g: 1, b: 1, a: 1}
        - {r: 1, g: 1, b: 1, a: 1}
        - {r: 1, g: 1, b: 1, a: 1}
  - Layers:
    - Variants:
      - vertices:
        - {x: -12.6500092, y: -2.24999619, z: 0}
        - {x: -1.65000916, y: -2.24999619, z: 0}
        - {x: -12.6500092, y: 10.7500038, z: 0}
        - {x: -1.65000916, y: 10.7500038, z: 0}
        triangles: 000000000300000001000000020000000300000000000000
        uv:
        - {x: .457035154, y: .964845717}
        - {x: .499996096, y: .964845717}
        - {x: .457035154, y: .990232408}
        - {x: .499996096, y: .990232408}
        colors:
        - {r: 1, g: 1, b: 1, a: 1}
        - {r: 1, g: 1, b: 1, a: 1}
        - {r: 1, g: 1, b: 1, a: 1}
        - {r: 1, g: 1, b: 1, a: 1}
  - Layers:
    - Variants:
      - vertices:
        - {x: -12.9499969, y: -2.24999619, z: 0}
        - {x: -1.94999695, y: -2.24999619, z: 0}
        - {x: -12.9499969, y: 10.7500038, z: 0}
        - {x: -1.94999695, y: 10.7500038, z: 0}
        triangles: 000000000300000001000000020000000300000000000000
        uv:
        - {x: .457035154, y: .964845717}
        - {x: .499996096, y: .964845717}
        - {x: .457035154, y: .990232408}
        - {x: .499996096, y: .990232408}
        colors:
        - {r: 1, g: 1, b: 1, a: 1}
        - {r: 1, g: 1, b: 1, a: 1}
        - {r: 1, g: 1, b: 1, a: 1}
        - {r: 1, g: 1, b: 1, a: 1}
  - Layers:
    - Variants:
      - vertices:
        - {x: -13.3000031, y: -2.24999619, z: 0}
        - {x: -2.30000305, y: -2.24999619, z: 0}
        - {x: -13.3000031, y: 10.7500038, z: 0}
        - {x: -2.30000305, y: 10.7500038, z: 0}
        triangles: 000000000300000001000000020000000300000000000000
        uv:
        - {x: .457035154, y: .964845717}
        - {x: .499996096, y: .964845717}
        - {x: .457035154, y: .990232408}
        - {x: .499996096, y: .990232408}
        colors:
        - {r: 1, g: 1, b: 1, a: 1}
        - {r: 1, g: 1, b: 1, a: 1}
        - {r: 1, g: 1, b: 1, a: 1}
        - {r: 1, g: 1, b: 1, a: 1}
  - Layers:
    - Variants:
      - vertices:
        - {x: -13.6999969, y: -2.24999619, z: 0}
        - {x: -2.69999695, y: -2.24999619, z: 0}
        - {x: -13.6999969, y: 10.7500038, z: 0}
        - {x: -2.69999695, y: 10.7500038, z: 0}
        triangles: 000000000300000001000000020000000300000000000000
        uv:
        - {x: .457035154, y: .964845717}
        - {x: .499996096, y: .964845717}
        - {x: .457035154, y: .990232408}
        - {x: .499996096, y: .990232408}
        colors:
        - {r: 1, g: 1, b: 1, a: 1}
        - {r: 1, g: 1, b: 1, a: 1}
        - {r: 1, g: 1, b: 1, a: 1}
        - {r: 1, g: 1, b: 1, a: 1}
  - Layers:
    - Variants:
      - vertices:
        - {x: -14.1999969, y: -2.24999619, z: 0}
        - {x: -3.19999695, y: -2.24999619, z: 0}
        - {x: -14.1999969, y: 10.7500038, z: 0}
        - {x: -3.19999695, y: 10.7500038, z: 0}
        triangles: 000000000300000001000000020000000300000000000000
        uv:
        - {x: .457035154, y: .964845717}
        - {x: .499996096, y: .964845717}
        - {x: .457035154, y: .990232408}
        - {x: .499996096, y: .990232408}
        colors:
        - {r: 1, g: 1, b: 1, a: 1}
        - {r: 1, g: 1, b: 1, a: 1}
        - {r: 1, g: 1, b: 1, a: 1}
        - {r: 1, g: 1, b: 1, a: 1}
  - Layers:
    - Variants:
      - vertices:
        - {x: -14.6999969, y: -2.24999619, z: 0}
        - {x: -3.69999695, y: -2.24999619, z: 0}
        - {x: -14.6999969, y: 10.7500038, z: 0}
        - {x: -3.69999695, y: 10.7500038, z: 0}
        triangles: 000000000300000001000000020000000300000000000000
        uv:
        - {x: .457035154, y: .964845717}
        - {x: .499996096, y: .964845717}
        - {x: .457035154, y: .990232408}
        - {x: .499996096, y: .990232408}
        colors:
        - {r: 1, g: 1, b: 1, a: 1}
        - {r: 1, g: 1, b: 1, a: 1}
        - {r: 1, g: 1, b: 1, a: 1}
        - {r: 1, g: 1, b: 1, a: 1}
  - Layers:
    - Variants:
      - vertices:
        - {x: -15.093338, y: -2.25070572, z: 0}
        - {x: -4.32798767, y: -2.25070572, z: 0}
        - {x: -15.093338, y: 11.0291862, z: 0}
        - {x: -4.32798767, y: 11.0291862, z: 0}
        triangles: 000000000300000001000000020000000300000000000000
        uv:
        - {x: .457035154, y: .964845717}
        - {x: .499996096, y: .964845717}
        - {x: .457035154, y: .990232408}
        - {x: .499996096, y: .990232408}
        colors:
        - {r: 1, g: 1, b: 1, a: 1}
        - {r: 1, g: 1, b: 1, a: 1}
        - {r: 1, g: 1, b: 1, a: 1}
        - {r: 1, g: 1, b: 1, a: 1}
  - Layers:
    - Variants:
      - vertices:
        - {x: -15.4867554, y: -2.30152512, z: 0}
        - {x: -4.95588684, y: -2.30152512, z: 0}
        - {x: -15.4867554, y: 11.2584572, z: 0}
        - {x: -4.95588684, y: 11.2584572, z: 0}
        triangles: 000000000300000001000000020000000300000000000000
        uv:
        - {x: .457035154, y: .964845717}
        - {x: .499996096, y: .964845717}
        - {x: .457035154, y: .990232408}
        - {x: .499996096, y: .990232408}
        colors:
        - {r: 1, g: 1, b: 1, a: 1}
        - {r: 1, g: 1, b: 1, a: 1}
        - {r: 1, g: 1, b: 1, a: 1}
        - {r: 1, g: 1, b: 1, a: 1}
  - Layers:
    - Variants:
      - vertices:
        - {x: -15.9300995, y: -2.25223923, z: 0}
        - {x: -5.63388062, y: -2.25223923, z: 0}
        - {x: -15.9300995, y: 11.587635, z: 0}
        - {x: -5.63388062, y: 11.587635, z: 0}
        triangles: 000000000300000001000000020000000300000000000000
        uv:
        - {x: .457035154, y: .964845717}
        - {x: .499996096, y: .964845717}
        - {x: .457035154, y: .990232408}
        - {x: .499996096, y: .990232408}
        colors:
        - {r: 1, g: 1, b: 1, a: 1}
        - {r: 1, g: 1, b: 1, a: 1}
        - {r: 1, g: 1, b: 1, a: 1}
        - {r: 1, g: 1, b: 1, a: 1}
  - Layers:
    - Variants:
      - vertices:
        - {x: -16.3735199, y: -2.25305557, z: 0}
        - {x: -6.31178284, y: -2.25305557, z: 0}
        - {x: -16.3735199, y: 11.866909, z: 0}
        - {x: -6.31178284, y: 11.866909, z: 0}
        triangles: 000000000300000001000000020000000300000000000000
        uv:
        - {x: .457035154, y: .964845717}
        - {x: .499996096, y: .964845717}
        - {x: .457035154, y: .990232408}
        - {x: .499996096, y: .990232408}
        colors:
        - {r: 1, g: 1, b: 1, a: 1}
        - {r: 1, g: 1, b: 1, a: 1}
        - {r: 1, g: 1, b: 1, a: 1}
        - {r: 1, g: 1, b: 1, a: 1}
  - Layers:
    - Variants:
      - vertices:
        - {x: -16.7169342, y: -2.30376816, z: 0}
        - {x: -6.88967896, y: -2.30376816, z: 0}
        - {x: -16.7169342, y: 12.0960884, z: 0}
        - {x: -6.88967896, y: 12.0960884, z: 0}
        triangles: 000000000300000001000000020000000300000000000000
        uv:
        - {x: .457035154, y: .964845717}
        - {x: .499996096, y: .964845717}
        - {x: .457035154, y: .990232408}
        - {x: .499996096, y: .990232408}
        colors:
        - {r: 1, g: 1, b: 1, a: 1}
        - {r: 1, g: 1, b: 1, a: 1}
        - {r: 1, g: 1, b: 1, a: 1}
        - {r: 1, g: 1, b: 1, a: 1}
  - Layers:
    - Variants:
      - vertices:
        - {x: -16.9602814, y: -2.3045845, z: 0}
        - {x: -7.36767578, y: -2.3045845, z: 0}
        - {x: -16.9602814, y: 12.3753624, z: 0}
        - {x: -7.36767578, y: 12.3753624, z: 0}
        triangles: 000000000300000001000000020000000300000000000000
        uv:
        - {x: .457035154, y: .964845717}
        - {x: .499996096, y: .964845717}
        - {x: .457035154, y: .990232408}
        - {x: .499996096, y: .990232408}
        colors:
        - {r: 1, g: 1, b: 1, a: 1}
        - {r: 1, g: 1, b: 1, a: 1}
        - {r: 1, g: 1, b: 1, a: 1}
        - {r: 1, g: 1, b: 1, a: 1}
  - Layers:
    - Variants:
      - vertices:
        - {x: -17.2036896, y: -2.35529709, z: 0}
        - {x: -7.8455658, y: -2.35529709, z: 0}
        - {x: -17.2036896, y: 12.6045418, z: 0}
        - {x: -7.8455658, y: 12.6045418, z: 0}
        triangles: 000000000300000001000000020000000300000000000000
        uv:
        - {x: .457035154, y: .964845717}
        - {x: .499996096, y: .964845717}
        - {x: .457035154, y: .990232408}
        - {x: .499996096, y: .990232408}
        colors:
        - {r: 1, g: 1, b: 1, a: 1}
        - {r: 1, g: 1, b: 1, a: 1}
        - {r: 1, g: 1, b: 1, a: 1}
        - {r: 1, g: 1, b: 1, a: 1}
  - Layers:
    - Variants:
      - vertices:
        - {x: -17.3470306, y: -2.35611343, z: 0}
        - {x: -8.22355652, y: -2.35611343, z: 0}
        - {x: -17.3470306, y: 12.8838158, z: 0}
        - {x: -8.22355652, y: 12.8838158, z: 0}
        triangles: 000000000300000001000000020000000300000000000000
        uv:
        - {x: .457035154, y: .964845717}
        - {x: .499996096, y: .964845717}
        - {x: .457035154, y: .990232408}
        - {x: .499996096, y: .990232408}
        colors:
        - {r: 1, g: 1, b: 1, a: 1}
        - {r: 1, g: 1, b: 1, a: 1}
        - {r: 1, g: 1, b: 1, a: 1}
        - {r: 1, g: 1, b: 1, a: 1}
  - Layers:
    - Variants:
      - vertices:
        - {x: -17.540451, y: -2.30682755, z: 0}
        - {x: -8.65145874, y: -2.30682755, z: 0}
        - {x: -17.540451, y: 13.2129936, z: 0}
        - {x: -8.65145874, y: 13.2129936, z: 0}
        triangles: 000000000300000001000000020000000300000000000000
        uv:
        - {x: .457035154, y: .964845717}
        - {x: .499996096, y: .964845717}
        - {x: .457035154, y: .990232408}
        - {x: .499996096, y: .990232408}
        colors:
        - {r: 1, g: 1, b: 1, a: 1}
        - {r: 1, g: 1, b: 1, a: 1}
        - {r: 1, g: 1, b: 1, a: 1}
        - {r: 1, g: 1, b: 1, a: 1}
  - Layers:
    - Variants:
      - vertices:
        - {x: -17.6838684, y: -2.35763931, z: 0}
        - {x: -9.02935791, y: -2.35763931, z: 0}
        - {x: -17.6838684, y: 13.4422722, z: 0}
        - {x: -9.02935791, y: 13.4422722, z: 0}
        triangles: 000000000300000001000000020000000300000000000000
        uv:
        - {x: .457035154, y: .964845717}
        - {x: .499996096, y: .964845717}
        - {x: .457035154, y: .990232408}
        - {x: .499996096, y: .990232408}
        colors:
        - {r: 1, g: 1, b: 1, a: 1}
        - {r: 1, g: 1, b: 1, a: 1}
        - {r: 1, g: 1, b: 1, a: 1}
        - {r: 1, g: 1, b: 1, a: 1}
  - Layers:
    - Variants:
      - vertices:
        - {x: -17.540451, y: -2.30682755, z: 0}
        - {x: -8.65145874, y: -2.30682755, z: 0}
        - {x: -17.540451, y: 13.2129936, z: 0}
        - {x: -8.65145874, y: 13.2129936, z: 0}
        triangles: 000000000300000001000000020000000300000000000000
        uv:
        - {x: .457035154, y: .964845717}
        - {x: .499996096, y: .964845717}
        - {x: .457035154, y: .990232408}
        - {x: .499996096, y: .990232408}
        colors:
        - {r: 1, g: 1, b: 1, a: 1}
        - {r: 1, g: 1, b: 1, a: 1}
        - {r: 1, g: 1, b: 1, a: 1}
        - {r: 1, g: 1, b: 1, a: 1}
  - Layers:
    - Variants:
      - vertices:
        - {x: -17.2970428, y: -2.35611343, z: 0}
        - {x: -8.17356873, y: -2.35611343, z: 0}
        - {x: -17.2970428, y: 12.8838158, z: 0}
        - {x: -8.17356873, y: 12.8838158, z: 0}
        triangles: 000000000300000001000000020000000300000000000000
        uv:
        - {x: .457035154, y: .964845717}
        - {x: .499996096, y: .964845717}
        - {x: .457035154, y: .990232408}
        - {x: .499996096, y: .990232408}
        colors:
        - {r: 1, g: 1, b: 1, a: 1}
        - {r: 1, g: 1, b: 1, a: 1}
        - {r: 1, g: 1, b: 1, a: 1}
        - {r: 1, g: 1, b: 1, a: 1}
  - Layers:
    - Variants:
      - vertices:
        - {x: -17.0536957, y: -2.35529709, z: 0}
        - {x: -7.6955719, y: -2.35529709, z: 0}
        - {x: -17.0536957, y: 12.6045418, z: 0}
        - {x: -7.6955719, y: 12.6045418, z: 0}
        triangles: 000000000300000001000000020000000300000000000000
        uv:
        - {x: .457035154, y: .964845717}
        - {x: .499996096, y: .964845717}
        - {x: .457035154, y: .990232408}
        - {x: .499996096, y: .990232408}
        colors:
        - {r: 1, g: 1, b: 1, a: 1}
        - {r: 1, g: 1, b: 1, a: 1}
        - {r: 1, g: 1, b: 1, a: 1}
        - {r: 1, g: 1, b: 1, a: 1}
  - Layers:
    - Variants:
      - vertices:
        - {x: -16.7102814, y: -2.3045845, z: 0}
        - {x: -7.11767578, y: -2.3045845, z: 0}
        - {x: -16.7102814, y: 12.3753624, z: 0}
        - {x: -7.11767578, y: 12.3753624, z: 0}
        triangles: 000000000300000001000000020000000300000000000000
        uv:
        - {x: .457035154, y: .964845717}
        - {x: .499996096, y: .964845717}
        - {x: .457035154, y: .990232408}
        - {x: .499996096, y: .990232408}
        colors:
        - {r: 1, g: 1, b: 1, a: 1}
        - {r: 1, g: 1, b: 1, a: 1}
        - {r: 1, g: 1, b: 1, a: 1}
        - {r: 1, g: 1, b: 1, a: 1}
  - Layers:
    - Variants:
      - vertices:
        - {x: -16.3669434, y: -2.30376816, z: 0}
        - {x: -6.53968811, y: -2.30376816, z: 0}
        - {x: -16.3669434, y: 12.0960884, z: 0}
        - {x: -6.53968811, y: 12.0960884, z: 0}
        triangles: 000000000300000001000000020000000300000000000000
        uv:
        - {x: .457035154, y: .964845717}
        - {x: .499996096, y: .964845717}
        - {x: .457035154, y: .990232408}
        - {x: .499996096, y: .990232408}
        colors:
        - {r: 1, g: 1, b: 1, a: 1}
        - {r: 1, g: 1, b: 1, a: 1}
        - {r: 1, g: 1, b: 1, a: 1}
        - {r: 1, g: 1, b: 1, a: 1}
  - Layers:
    - Variants:
      - vertices:
        - {x: -15.9235229, y: -2.25305557, z: 0}
        - {x: -5.86178589, y: -2.25305557, z: 0}
        - {x: -15.9235229, y: 11.866909, z: 0}
        - {x: -5.86178589, y: 11.866909, z: 0}
        triangles: 000000000300000001000000020000000300000000000000
        uv:
        - {x: .457035154, y: .964845717}
        - {x: .499996096, y: .964845717}
        - {x: .457035154, y: .990232408}
        - {x: .499996096, y: .990232408}
        colors:
        - {r: 1, g: 1, b: 1, a: 1}
        - {r: 1, g: 1, b: 1, a: 1}
        - {r: 1, g: 1, b: 1, a: 1}
        - {r: 1, g: 1, b: 1, a: 1}
  - Layers:
    - Variants:
      - vertices:
        - {x: -15.4801025, y: -2.25223923, z: 0}
        - {x: -5.18388367, y: -2.25223923, z: 0}
        - {x: -15.4801025, y: 11.587635, z: 0}
        - {x: -5.18388367, y: 11.587635, z: 0}
        triangles: 000000000300000001000000020000000300000000000000
        uv:
        - {x: .457035154, y: .964845717}
        - {x: .499996096, y: .964845717}
        - {x: .457035154, y: .990232408}
        - {x: .499996096, y: .990232408}
        colors:
        - {r: 1, g: 1, b: 1, a: 1}
        - {r: 1, g: 1, b: 1, a: 1}
        - {r: 1, g: 1, b: 1, a: 1}
        - {r: 1, g: 1, b: 1, a: 1}
  - Layers:
    - Variants:
      - vertices:
        - {x: -15.0867615, y: -2.30152512, z: 0}
        - {x: -4.55589294, y: -2.30152512, z: 0}
        - {x: -15.0867615, y: 11.2584572, z: 0}
        - {x: -4.55589294, y: 11.2584572, z: 0}
        triangles: 000000000300000001000000020000000300000000000000
        uv:
        - {x: .457035154, y: .964845717}
        - {x: .499996096, y: .964845717}
        - {x: .457035154, y: .990232408}
        - {x: .499996096, y: .990232408}
        colors:
        - {r: 1, g: 1, b: 1, a: 1}
        - {r: 1, g: 1, b: 1, a: 1}
        - {r: 1, g: 1, b: 1, a: 1}
        - {r: 1, g: 1, b: 1, a: 1}
  - Layers:
    - Variants:
      - vertices:
        - {x: -14.7933502, y: -2.25070572, z: 0}
        - {x: -4.02799988, y: -2.25070572, z: 0}
        - {x: -14.7933502, y: 11.0291862, z: 0}
        - {x: -4.02799988, y: 11.0291862, z: 0}
        triangles: 000000000300000001000000020000000300000000000000
        uv:
        - {x: .457035154, y: .964845717}
        - {x: .499996096, y: .964845717}
        - {x: .457035154, y: .990232408}
        - {x: .499996096, y: .990232408}
        colors:
        - {r: 1, g: 1, b: 1, a: 1}
        - {r: 1, g: 1, b: 1, a: 1}
        - {r: 1, g: 1, b: 1, a: 1}
        - {r: 1, g: 1, b: 1, a: 1}
  - Layers:
    - Variants:
      - vertices:
        - {x: -14.5500031, y: -2.24999619, z: 0}
        - {x: -3.55000305, y: -2.24999619, z: 0}
        - {x: -14.5500031, y: 10.7500038, z: 0}
        - {x: -3.55000305, y: 10.7500038, z: 0}
        triangles: 000000000300000001000000020000000300000000000000
        uv:
        - {x: .457035154, y: .964845717}
        - {x: .499996096, y: .964845717}
        - {x: .457035154, y: .990232408}
        - {x: .499996096, y: .990232408}
        colors:
        - {r: 1, g: 1, b: 1, a: 1}
        - {r: 1, g: 1, b: 1, a: 1}
        - {r: 1, g: 1, b: 1, a: 1}
        - {r: 1, g: 1, b: 1, a: 1}
  - Layers:
    - Variants:
      - vertices:
        - {x: -14.1000061, y: -2.24999619, z: 0}
        - {x: -3.1000061, y: -2.24999619, z: 0}
        - {x: -14.1000061, y: 10.7500038, z: 0}
        - {x: -3.1000061, y: 10.7500038, z: 0}
        triangles: 000000000300000001000000020000000300000000000000
        uv:
        - {x: .457035154, y: .964845717}
        - {x: .499996096, y: .964845717}
        - {x: .457035154, y: .990232408}
        - {x: .499996096, y: .990232408}
        colors:
        - {r: 1, g: 1, b: 1, a: 1}
        - {r: 1, g: 1, b: 1, a: 1}
        - {r: 1, g: 1, b: 1, a: 1}
        - {r: 1, g: 1, b: 1, a: 1}
  - Layers:
    - Variants:
      - vertices:
        - {x: -13.6999969, y: -2.24999619, z: 0}
        - {x: -2.69999695, y: -2.24999619, z: 0}
        - {x: -13.6999969, y: 10.7500038, z: 0}
        - {x: -2.69999695, y: 10.7500038, z: 0}
        triangles: 000000000300000001000000020000000300000000000000
        uv:
        - {x: .457035154, y: .964845717}
        - {x: .499996096, y: .964845717}
        - {x: .457035154, y: .990232408}
        - {x: .499996096, y: .990232408}
        colors:
        - {r: 1, g: 1, b: 1, a: 1}
        - {r: 1, g: 1, b: 1, a: 1}
        - {r: 1, g: 1, b: 1, a: 1}
        - {r: 1, g: 1, b: 1, a: 1}
  - Layers:
    - Variants:
      - vertices:
        - {x: -13.4000092, y: -2.24999619, z: 0}
        - {x: -2.40000916, y: -2.24999619, z: 0}
        - {x: -13.4000092, y: 10.7500038, z: 0}
        - {x: -2.40000916, y: 10.7500038, z: 0}
        triangles: 000000000300000001000000020000000300000000000000
        uv:
        - {x: .457035154, y: .964845717}
        - {x: .499996096, y: .964845717}
        - {x: .457035154, y: .990232408}
        - {x: .499996096, y: .990232408}
        colors:
        - {r: 1, g: 1, b: 1, a: 1}
        - {r: 1, g: 1, b: 1, a: 1}
        - {r: 1, g: 1, b: 1, a: 1}
        - {r: 1, g: 1, b: 1, a: 1}
  - Layers:
    - Variants:
      - vertices:
        - {x: -13.0500031, y: -2.24999619, z: 0}
        - {x: -2.05000305, y: -2.24999619, z: 0}
        - {x: -13.0500031, y: 10.7500038, z: 0}
        - {x: -2.05000305, y: 10.7500038, z: 0}
        triangles: 000000000300000001000000020000000300000000000000
        uv:
        - {x: .457035154, y: .964845717}
        - {x: .499996096, y: .964845717}
        - {x: .457035154, y: .990232408}
        - {x: .499996096, y: .990232408}
        colors:
        - {r: 1, g: 1, b: 1, a: 1}
        - {r: 1, g: 1, b: 1, a: 1}
        - {r: 1, g: 1, b: 1, a: 1}
        - {r: 1, g: 1, b: 1, a: 1}
  - Layers:
    - Variants:
      - vertices:
        - {x: -12.8000031, y: -2.24999619, z: 0}
        - {x: -1.80000305, y: -2.24999619, z: 0}
        - {x: -12.8000031, y: 10.7500038, z: 0}
        - {x: -1.80000305, y: 10.7500038, z: 0}
        triangles: 000000000300000001000000020000000300000000000000
        uv:
        - {x: .457035154, y: .964845717}
        - {x: .499996096, y: .964845717}
        - {x: .457035154, y: .990232408}
        - {x: .499996096, y: .990232408}
        colors:
        - {r: 1, g: 1, b: 1, a: 1}
        - {r: 1, g: 1, b: 1, a: 1}
        - {r: 1, g: 1, b: 1, a: 1}
        - {r: 1, g: 1, b: 1, a: 1}
  - Layers:
    - Variants:
      - vertices:
        - {x: -12.5500031, y: -2.24999619, z: 0}
        - {x: -1.55000305, y: -2.24999619, z: 0}
        - {x: -12.5500031, y: 10.7500038, z: 0}
        - {x: -1.55000305, y: 10.7500038, z: 0}
        triangles: 000000000300000001000000020000000300000000000000
        uv:
        - {x: .457035154, y: .964845717}
        - {x: .499996096, y: .964845717}
        - {x: .457035154, y: .990232408}
        - {x: .499996096, y: .990232408}
        colors:
        - {r: 1, g: 1, b: 1, a: 1}
        - {r: 1, g: 1, b: 1, a: 1}
        - {r: 1, g: 1, b: 1, a: 1}
        - {r: 1, g: 1, b: 1, a: 1}
  - Layers:
    - Variants:
      - vertices:
        - {x: -12.3500061, y: -2.24999619, z: 0}
        - {x: -1.3500061, y: -2.24999619, z: 0}
        - {x: -12.3500061, y: 10.7500038, z: 0}
        - {x: -1.3500061, y: 10.7500038, z: 0}
        triangles: 000000000300000001000000020000000300000000000000
        uv:
        - {x: .457035154, y: .964845717}
        - {x: .499996096, y: .964845717}
        - {x: .457035154, y: .990232408}
        - {x: .499996096, y: .990232408}
        colors:
        - {r: 1, g: 1, b: 1, a: 1}
        - {r: 1, g: 1, b: 1, a: 1}
        - {r: 1, g: 1, b: 1, a: 1}
        - {r: 1, g: 1, b: 1, a: 1}
  - Layers:
    - Variants:
      - vertices:
        - {x: -12.1500092, y: -2.24999619, z: 0}
        - {x: -1.15000916, y: -2.24999619, z: 0}
        - {x: -12.1500092, y: 10.7500038, z: 0}
        - {x: -1.15000916, y: 10.7500038, z: 0}
        triangles: 000000000300000001000000020000000300000000000000
        uv:
        - {x: .457035154, y: .964845717}
        - {x: .499996096, y: .964845717}
        - {x: .457035154, y: .990232408}
        - {x: .499996096, y: .990232408}
        colors:
        - {r: 1, g: 1, b: 1, a: 1}
        - {r: 1, g: 1, b: 1, a: 1}
        - {r: 1, g: 1, b: 1, a: 1}
        - {r: 1, g: 1, b: 1, a: 1}
  - Layers:
    - Variants:
      - vertices:
        - {x: -12, y: -2.24999619, z: 0}
        - {x: -1, y: -2.24999619, z: 0}
        - {x: -12, y: 10.7500038, z: 0}
        - {x: -1, y: 10.7500038, z: 0}
        triangles: 000000000300000001000000020000000300000000000000
        uv:
        - {x: .457035154, y: .964845717}
        - {x: .499996096, y: .964845717}
        - {x: .457035154, y: .990232408}
        - {x: .499996096, y: .990232408}
        colors:
        - {r: 1, g: 1, b: 1, a: 1}
        - {r: 1, g: 1, b: 1, a: 1}
        - {r: 1, g: 1, b: 1, a: 1}
        - {r: 1, g: 1, b: 1, a: 1}
  - Layers:
    - Variants:
      - vertices:
        - {x: -11.8500061, y: -2.24999619, z: 0}
        - {x: -.850006104, y: -2.24999619, z: 0}
        - {x: -11.8500061, y: 10.7500038, z: 0}
        - {x: -.850006104, y: 10.7500038, z: 0}
        triangles: 000000000300000001000000020000000300000000000000
        uv:
        - {x: .457035154, y: .964845717}
        - {x: .499996096, y: .964845717}
        - {x: .457035154, y: .990232408}
        - {x: .499996096, y: .990232408}
        colors:
        - {r: 1, g: 1, b: 1, a: 1}
        - {r: 1, g: 1, b: 1, a: 1}
        - {r: 1, g: 1, b: 1, a: 1}
        - {r: 1, g: 1, b: 1, a: 1}
  - Layers:
    - Variants:
      - vertices:
        - {x: -11.6999969, y: -2.24999619, z: 0}
        - {x: -.699996948, y: -2.24999619, z: 0}
        - {x: -11.6999969, y: 10.7500038, z: 0}
        - {x: -.699996948, y: 10.7500038, z: 0}
        triangles: 000000000300000001000000020000000300000000000000
        uv:
        - {x: .457035154, y: .964845717}
        - {x: .499996096, y: .964845717}
        - {x: .457035154, y: .990232408}
        - {x: .499996096, y: .990232408}
        colors:
        - {r: 1, g: 1, b: 1, a: 1}
        - {r: 1, g: 1, b: 1, a: 1}
        - {r: 1, g: 1, b: 1, a: 1}
        - {r: 1, g: 1, b: 1, a: 1}
  - Layers:
    - Variants:
      - vertices:
        - {x: -11.6000061, y: -2.24999619, z: 0}
        - {x: -.600006104, y: -2.24999619, z: 0}
        - {x: -11.6000061, y: 10.7500038, z: 0}
        - {x: -.600006104, y: 10.7500038, z: 0}
        triangles: 000000000300000001000000020000000300000000000000
        uv:
        - {x: .457035154, y: .964845717}
        - {x: .499996096, y: .964845717}
        - {x: .457035154, y: .990232408}
        - {x: .499996096, y: .990232408}
        colors:
        - {r: 1, g: 1, b: 1, a: 1}
        - {r: 1, g: 1, b: 1, a: 1}
        - {r: 1, g: 1, b: 1, a: 1}
        - {r: 1, g: 1, b: 1, a: 1}
  - Layers:
    - Variants:
      - vertices:
        - {x: -11.5, y: -2.24999619, z: 0}
        - {x: -.5, y: -2.24999619, z: 0}
        - {x: -11.5, y: 10.7500038, z: 0}
        - {x: -.5, y: 10.7500038, z: 0}
        triangles: 000000000300000001000000020000000300000000000000
        uv:
        - {x: .457035154, y: .964845717}
        - {x: .499996096, y: .964845717}
        - {x: .457035154, y: .990232408}
        - {x: .499996096, y: .990232408}
        colors:
        - {r: 1, g: 1, b: 1, a: 1}
        - {r: 1, g: 1, b: 1, a: 1}
        - {r: 1, g: 1, b: 1, a: 1}
        - {r: 1, g: 1, b: 1, a: 1}
  - Layers:
    - Variants:
      - vertices:
        - {x: -11.4000092, y: -2.24999619, z: 0}
        - {x: -.400009155, y: -2.24999619, z: 0}
        - {x: -11.4000092, y: 10.7500038, z: 0}
        - {x: -.400009155, y: 10.7500038, z: 0}
        triangles: 000000000300000001000000020000000300000000000000
        uv:
        - {x: .457035154, y: .964845717}
        - {x: .499996096, y: .964845717}
        - {x: .457035154, y: .990232408}
        - {x: .499996096, y: .990232408}
        colors:
        - {r: 1, g: 1, b: 1, a: 1}
        - {r: 1, g: 1, b: 1, a: 1}
        - {r: 1, g: 1, b: 1, a: 1}
        - {r: 1, g: 1, b: 1, a: 1}
  - Layers:
    - Variants:
      - vertices:
        - {x: -11.3500061, y: -2.24999619, z: 0}
        - {x: -.350006104, y: -2.24999619, z: 0}
        - {x: -11.3500061, y: 10.7500038, z: 0}
        - {x: -.350006104, y: 10.7500038, z: 0}
        triangles: 000000000300000001000000020000000300000000000000
        uv:
        - {x: .457035154, y: .964845717}
        - {x: .499996096, y: .964845717}
        - {x: .457035154, y: .990232408}
        - {x: .499996096, y: .990232408}
        colors:
        - {r: 1, g: 1, b: 1, a: 1}
        - {r: 1, g: 1, b: 1, a: 1}
        - {r: 1, g: 1, b: 1, a: 1}
        - {r: 1, g: 1, b: 1, a: 1}
  - Layers:
    - Variants:
      - vertices:
        - {x: -11.3000031, y: -2.24999619, z: 0}
        - {x: -.300003052, y: -2.24999619, z: 0}
        - {x: -11.3000031, y: 10.7500038, z: 0}
        - {x: -.300003052, y: 10.7500038, z: 0}
        triangles: 000000000300000001000000020000000300000000000000
        uv:
        - {x: .457035154, y: .964845717}
        - {x: .499996096, y: .964845717}
        - {x: .457035154, y: .990232408}
        - {x: .499996096, y: .990232408}
        colors:
        - {r: 1, g: 1, b: 1, a: 1}
        - {r: 1, g: 1, b: 1, a: 1}
        - {r: 1, g: 1, b: 1, a: 1}
        - {r: 1, g: 1, b: 1, a: 1}
  - Layers:
    - Variants:
      - vertices:
        - {x: -11.25, y: -2.24999619, z: 0}
        - {x: -.25, y: -2.24999619, z: 0}
        - {x: -11.25, y: 10.7500038, z: 0}
        - {x: -.25, y: 10.7500038, z: 0}
        triangles: 000000000300000001000000020000000300000000000000
        uv:
        - {x: .457035154, y: .964845717}
        - {x: .499996096, y: .964845717}
        - {x: .457035154, y: .990232408}
        - {x: .499996096, y: .990232408}
        colors:
        - {r: 1, g: 1, b: 1, a: 1}
        - {r: 1, g: 1, b: 1, a: 1}
        - {r: 1, g: 1, b: 1, a: 1}
        - {r: 1, g: 1, b: 1, a: 1}
  - Layers:
    - Variants:
      - vertices:
        - {x: -11.1999969, y: -2.24999619, z: 0}
        - {x: -.199996948, y: -2.24999619, z: 0}
        - {x: -11.1999969, y: 10.7500038, z: 0}
        - {x: -.199996948, y: 10.7500038, z: 0}
        triangles: 000000000300000001000000020000000300000000000000
        uv:
        - {x: .457035154, y: .964845717}
        - {x: .499996096, y: .964845717}
        - {x: .457035154, y: .990232408}
        - {x: .499996096, y: .990232408}
        colors:
        - {r: 1, g: 1, b: 1, a: 1}
        - {r: 1, g: 1, b: 1, a: 1}
        - {r: 1, g: 1, b: 1, a: 1}
        - {r: 1, g: 1, b: 1, a: 1}
  - Layers:
    - Variants:
      - vertices:
        - {x: -11.1999969, y: -2.24999619, z: 0}
        - {x: -.199996948, y: -2.24999619, z: 0}
        - {x: -11.1999969, y: 10.7500038, z: 0}
        - {x: -.199996948, y: 10.7500038, z: 0}
        triangles: 000000000300000001000000020000000300000000000000
        uv:
        - {x: .457035154, y: .964845717}
        - {x: .499996096, y: .964845717}
        - {x: .457035154, y: .990232408}
        - {x: .499996096, y: .990232408}
        colors:
        - {r: 1, g: 1, b: 1, a: 1}
        - {r: 1, g: 1, b: 1, a: 1}
        - {r: 1, g: 1, b: 1, a: 1}
        - {r: 1, g: 1, b: 1, a: 1}
  - Layers:
    - Variants:
      - vertices:
        - {x: -11.1999969, y: -2.24999619, z: 0}
        - {x: -.199996948, y: -2.24999619, z: 0}
        - {x: -11.1999969, y: 10.7500038, z: 0}
        - {x: -.199996948, y: 10.7500038, z: 0}
        triangles: 000000000300000001000000020000000300000000000000
        uv:
        - {x: .457035154, y: .964845717}
        - {x: .499996096, y: .964845717}
        - {x: .457035154, y: .990232408}
        - {x: .499996096, y: .990232408}
        colors:
        - {r: 1, g: 1, b: 1, a: 1}
        - {r: 1, g: 1, b: 1, a: 1}
        - {r: 1, g: 1, b: 1, a: 1}
        - {r: 1, g: 1, b: 1, a: 1}
  _layerNames:
  - fv_arrow_right
  _maxTriangles: 6
  _maxVertices: 4
--- !u!1001 &100100000
Prefab:
  m_ObjectHideFlags: 1
  serializedVersion: 2
  m_Modification:
    m_TransformParent: {fileID: 0}
    m_Modifications: []
    m_RemovedComponents: []
  m_ParentPrefab: {fileID: 0}
  m_RootGameObject: {fileID: 100000}
  m_IsPrefabParent: 1
