%YAML 1.1
%TAG !u! tag:unity3d.com,2011:
--- !u!114 &11400000
MonoBehaviour:
  m_ObjectHideFlags: 0
  m_CorrespondingSourceObject: {fileID: 0}
  m_PrefabInstance: {fileID: 0}
  m_PrefabAsset: {fileID: 0}
  m_GameObject: {fileID: 0}
  m_Enabled: 1
  m_EditorHideFlags: 1
  m_Script: {fileID: 11500000, guid: 123989401280b2343a128627b1394cac, type: 3}
  m_Name: Extract
  m_EditorClassIdentifier: 
  InputTextUTF: 
  cultureName: 
  SymbolsInText: 
  SymbolsUpper: 
  SymbolsLower: 
  SymbolsAll: 
