%YAML 1.1
%TAG !u! tag:unity3d.com,2011:
--- !u!1 &100000
GameObject:
  m_ObjectHideFlags: 0
  m_PrefabParentObject: {fileID: 0}
  m_PrefabInternal: {fileID: 100100000}
  serializedVersion: 4
  m_Component:
  - 4: {fileID: 400000}
  - 114: {fileID: 11400000}
  m_Layer: 0
  m_Name: Shoot_fx9
  m_TagString: Untagged
  m_Icon: {fileID: 0}
  m_NavMeshLayer: 0
  m_StaticEditorFlags: 0
  m_IsActive: 1
--- !u!4 &400000
Transform:
  m_ObjectHideFlags: 1
  m_PrefabParentObject: {fileID: 0}
  m_PrefabInternal: {fileID: 100100000}
  m_GameObject: {fileID: 100000}
  m_LocalRotation: {x: 0, y: 0, z: 0, w: 1}
  m_LocalPosition: {x: -17.5731621, y: 33.6811867, z: 0}
  m_LocalScale: {x: 1, y: 1, z: 1}
  m_Children: []
  m_Father: {fileID: 0}
  m_RootOrder: 0
--- !u!114 &11400000
MonoBehaviour:
  m_ObjectHideFlags: 1
  m_PrefabParentObject: {fileID: 0}
  m_PrefabInternal: {fileID: 100100000}
  m_GameObject: {fileID: 100000}
  m_Enabled: 1
  m_EditorHideFlags: 0
  m_Script: {fileID: 11500000, guid: 642bdf68095743e4698ab210b1fddfce, type: 3}
  m_Name: 
  m_EditorClassIdentifier: 
  AnimationXML: {fileID: 4900000, guid: 1be260ee102a3834094e7ea998326ee0, type: 3}
  FPS: 60
  TargetHeight: 480
  AnimationHeight: 480
  SpriteCollection: {fileID: 11400000, guid: 6ee92961a75cf8d4cb5ff246370826b9, type: 2}
  VariantAliases: []
  _frameCount: 12
  _frameList:
  - Layers:
    - Variants:
      - vertices:
        - {x: -21.4500008, y: -21.0008621, z: 0}
        - {x: 20.5498619, y: -21.0008621, z: 0}
        - {x: -21.4500008, y: 20.9990005, z: 0}
        - {x: 20.5498619, y: 20.9990005, z: 0}
        triangles: 000000000300000001000000020000000300000000000000
        uv:
        - {x: .00781640597, y: .839847684}
        - {x: .160152346, y: .839847684}
        - {x: .00781640597, y: .992183566}
        - {x: .160152346, y: .992183566}
        colors:
        - {r: 1, g: 1, b: 1, a: 1}
        - {r: 1, g: 1, b: 1, a: 1}
        - {r: 1, g: 1, b: 1, a: 1}
        - {r: 1, g: 1, b: 1, a: 1}
    - Variants:
      - vertices:
        - {x: -5.60000038, y: -1.05093908, z: -.00100000005}
        - {x: 5.73325157, y: -1.05093908, z: -.00100000005}
        - {x: -5.60000038, y: 7.44899988, z: -.00100000005}
        - {x: 5.73325157, y: 7.44899988, z: -.00100000005}
        triangles: 000000000300000001000000020000000300000000000000
        uv:
        - {x: .312503904, y: .00781640597}
        - {x: .343746096, y: .00781640597}
        - {x: .312503904, y: .031246094}
        - {x: .343746096, y: .031246094}
        colors:
        - {r: 1, g: 1, b: 1, a: 1}
        - {r: 1, g: 1, b: 1, a: 1}
        - {r: 1, g: 1, b: 1, a: 1}
        - {r: 1, g: 1, b: 1, a: 1}
    - Variants:
      - vertices:
        - {x: -19.9500008, y: -1.00099993, z: -.00200000009}
        - {x: 20.0499992, y: -1.00099993, z: -.00200000009}
        - {x: -19.9500008, y: .999000013, z: -.00200000009}
        - {x: 20.0499992, y: .999000013, z: -.00200000009}
        triangles: 000000000300000001000000020000000300000000000000
        uv:
        - {x: .957035184, y: .250003904}
        - {x: .957035184, y: .406246096}
        - {x: .964839816, y: .250003904}
        - {x: .964839816, y: .406246096}
        colors:
        - {r: 1, g: 1, b: 1, a: 1}
        - {r: 1, g: 1, b: 1, a: 1}
        - {r: 1, g: 1, b: 1, a: 1}
        - {r: 1, g: 1, b: 1, a: 1}
  - Layers:
    - Variants:
      - vertices:
        - {x: -21.3000011, y: -20.8777142, z: 0}
        - {x: 20.4267139, y: -20.8777142, z: 0}
        - {x: -21.3000011, y: 20.8490009, z: 0}
        - {x: 20.4267139, y: 20.8490009, z: 0}
        triangles: 000000000300000001000000020000000300000000000000
        uv:
        - {x: .00781640597, y: .839847684}
        - {x: .160152346, y: .839847684}
        - {x: .00781640597, y: .992183566}
        - {x: .160152346, y: .992183566}
        colors:
        - {r: 1, g: 1, b: 1, a: .899999976}
        - {r: 1, g: 1, b: 1, a: .899999976}
        - {r: 1, g: 1, b: 1, a: .899999976}
        - {r: 1, g: 1, b: 1, a: .899999976}
    - Variants:
      - vertices:
        - {x: -5.30000019, y: -.984190941, z: -.00100000005}
        - {x: 5.4775877, y: -.984190941, z: -.00100000005}
        - {x: -5.30000019, y: 7.09899998, z: -.00100000005}
        - {x: 5.4775877, y: 7.09899998, z: -.00100000005}
        triangles: 000000000300000001000000020000000300000000000000
        uv:
        - {x: .312503904, y: .00781640597}
        - {x: .343746096, y: .00781640597}
        - {x: .312503904, y: .031246094}
        - {x: .343746096, y: .031246094}
        colors:
        - {r: 1, g: 1, b: 1, a: .829999983}
        - {r: 1, g: 1, b: 1, a: .829999983}
        - {r: 1, g: 1, b: 1, a: .829999983}
        - {r: 1, g: 1, b: 1, a: .829999983}
    - Variants:
      - vertices:
        - {x: -22.5, y: -1.00099993, z: -.00200000009}
        - {x: 22.5921631, y: -1.00099993, z: -.00200000009}
        - {x: -22.5, y: .999000013, z: -.00200000009}
        - {x: 22.5921631, y: .999000013, z: -.00200000009}
        triangles: 000000000300000001000000020000000300000000000000
        uv:
        - {x: .957035184, y: .250003904}
        - {x: .957035184, y: .406246096}
        - {x: .964839816, y: .250003904}
        - {x: .964839816, y: .406246096}
        colors:
        - {r: 1, g: 1, b: 1, a: .829999983}
        - {r: 1, g: 1, b: 1, a: .829999983}
        - {r: 1, g: 1, b: 1, a: .829999983}
        - {r: 1, g: 1, b: 1, a: .829999983}
  - Layers:
    - Variants:
      - vertices:
        - {x: -21.1499996, y: -20.704567, z: 0}
        - {x: 20.3035679, y: -20.704567, z: 0}
        - {x: -21.1499996, y: 20.7490005, z: 0}
        - {x: 20.3035679, y: 20.7490005, z: 0}
        triangles: 000000000300000001000000020000000300000000000000
        uv:
        - {x: .00781640597, y: .839847684}
        - {x: .160152346, y: .839847684}
        - {x: .00781640597, y: .992183566}
        - {x: .160152346, y: .992183566}
        colors:
        - {r: 1, g: 1, b: 1, a: .810000002}
        - {r: 1, g: 1, b: 1, a: .810000002}
        - {r: 1, g: 1, b: 1, a: .810000002}
        - {r: 1, g: 1, b: 1, a: .810000002}
    - Variants:
      - vertices:
        - {x: -5.05000019, y: -.967626095, z: -.00100000005}
        - {x: 5.17216778, y: -.967626095, z: -.00100000005}
        - {x: -5.05000019, y: 6.69899988, z: -.00100000005}
        - {x: 5.17216778, y: 6.69899988, z: -.00100000005}
        triangles: 000000000300000001000000020000000300000000000000
        uv:
        - {x: .312503904, y: .00781640597}
        - {x: .343746096, y: .00781640597}
        - {x: .312503904, y: .031246094}
        - {x: .343746096, y: .031246094}
        colors:
        - {r: 1, g: 1, b: 1, a: .660000026}
        - {r: 1, g: 1, b: 1, a: .660000026}
        - {r: 1, g: 1, b: 1, a: .660000026}
        - {r: 1, g: 1, b: 1, a: .660000026}
    - Variants:
      - vertices:
        - {x: -25.0500011, y: -1.00099993, z: -.00200000009}
        - {x: 25.134325, y: -1.00099993, z: -.00200000009}
        - {x: -25.0500011, y: .999000013, z: -.00200000009}
        - {x: 25.134325, y: .999000013, z: -.00200000009}
        triangles: 000000000300000001000000020000000300000000000000
        uv:
        - {x: .957035184, y: .250003904}
        - {x: .957035184, y: .406246096}
        - {x: .964839816, y: .250003904}
        - {x: .964839816, y: .406246096}
        colors:
        - {r: 1, g: 1, b: 1, a: .660000026}
        - {r: 1, g: 1, b: 1, a: .660000026}
        - {r: 1, g: 1, b: 1, a: .660000026}
        - {r: 1, g: 1, b: 1, a: .660000026}
  - Layers:
    - Variants:
      - vertices:
        - {x: -21.0500011, y: -20.5826092, z: 0}
        - {x: 20.131609, y: -20.5826092, z: 0}
        - {x: -21.0500011, y: 20.5990009, z: 0}
        - {x: 20.131609, y: 20.5990009, z: 0}
        triangles: 000000000300000001000000020000000300000000000000
        uv:
        - {x: .00781640597, y: .839847684}
        - {x: .160152346, y: .839847684}
        - {x: .00781640597, y: .992183566}
        - {x: .160152346, y: .992183566}
        colors:
        - {r: 1, g: 1, b: 1, a: .720000029}
        - {r: 1, g: 1, b: 1, a: .720000029}
        - {r: 1, g: 1, b: 1, a: .720000029}
        - {r: 1, g: 1, b: 1, a: .720000029}
    - Variants:
      - vertices:
        - {x: -4.75, y: -1.00087786, z: -.00100000005}
        - {x: 4.91650391, y: -1.00087786, z: -.00100000005}
        - {x: -4.75, y: 6.24900007, z: -.00100000005}
        - {x: 4.91650391, y: 6.24900007, z: -.00100000005}
        triangles: 000000000300000001000000020000000300000000000000
        uv:
        - {x: .312503904, y: .00781640597}
        - {x: .343746096, y: .00781640597}
        - {x: .312503904, y: .031246094}
        - {x: .343746096, y: .031246094}
        colors:
        - {r: 1, g: 1, b: 1, a: .5}
        - {r: 1, g: 1, b: 1, a: .5}
        - {r: 1, g: 1, b: 1, a: .5}
        - {r: 1, g: 1, b: 1, a: .5}
    - Variants:
      - vertices:
        - {x: -27.6000004, y: -1.00099993, z: -.00200000009}
        - {x: 27.6770992, y: -1.00099993, z: -.00200000009}
        - {x: -27.6000004, y: .999000013, z: -.00200000009}
        - {x: 27.6770992, y: .999000013, z: -.00200000009}
        triangles: 000000000300000001000000020000000300000000000000
        uv:
        - {x: .957035184, y: .250003904}
        - {x: .957035184, y: .406246096}
        - {x: .964839816, y: .250003904}
        - {x: .964839816, y: .406246096}
        colors:
        - {r: 1, g: 1, b: 1, a: .5}
        - {r: 1, g: 1, b: 1, a: .5}
        - {r: 1, g: 1, b: 1, a: .5}
        - {r: 1, g: 1, b: 1, a: .5}
  - Layers:
    - Variants:
      - vertices:
        - {x: -20.9500008, y: -20.4594631, z: 0}
        - {x: 19.9584618, y: -20.4594631, z: 0}
        - {x: -20.9500008, y: 20.4489994, z: 0}
        - {x: 19.9584618, y: 20.4489994, z: 0}
        triangles: 000000000300000001000000020000000300000000000000
        uv:
        - {x: .00781640597, y: .839847684}
        - {x: .160152346, y: .839847684}
        - {x: .00781640597, y: .992183566}
        - {x: .160152346, y: .992183566}
        colors:
        - {r: 1, g: 1, b: 1, a: .629999995}
        - {r: 1, g: 1, b: 1, a: .629999995}
        - {r: 1, g: 1, b: 1, a: .629999995}
        - {r: 1, g: 1, b: 1, a: .629999995}
    - Variants:
      - vertices:
        - {x: -4.5, y: -.93431282, z: -.00100000005}
        - {x: 4.61108398, y: -.93431282, z: -.00100000005}
        - {x: -4.5, y: 5.89900017, z: -.00100000005}
        - {x: 4.61108398, y: 5.89900017, z: -.00100000005}
        triangles: 000000000300000001000000020000000300000000000000
        uv:
        - {x: .312503904, y: .00781640597}
        - {x: .343746096, y: .00781640597}
        - {x: .312503904, y: .031246094}
        - {x: .343746096, y: .031246094}
        colors:
        - {r: 1, g: 1, b: 1, a: .330000013}
        - {r: 1, g: 1, b: 1, a: .330000013}
        - {r: 1, g: 1, b: 1, a: .330000013}
        - {r: 1, g: 1, b: 1, a: .330000013}
    - Variants:
      - vertices:
        - {x: -30.1499996, y: -1.00099993, z: -.00200000009}
        - {x: 30.2192631, y: -1.00099993, z: -.00200000009}
        - {x: -30.1499996, y: .999000013, z: -.00200000009}
        - {x: 30.2192631, y: .999000013, z: -.00200000009}
        triangles: 000000000300000001000000020000000300000000000000
        uv:
        - {x: .957035184, y: .250003904}
        - {x: .957035184, y: .406246096}
        - {x: .964839816, y: .250003904}
        - {x: .964839816, y: .406246096}
        colors:
        - {r: 1, g: 1, b: 1, a: .330000013}
        - {r: 1, g: 1, b: 1, a: .330000013}
        - {r: 1, g: 1, b: 1, a: .330000013}
        - {r: 1, g: 1, b: 1, a: .330000013}
  - Layers:
    - Variants:
      - vertices:
        - {x: -20.8000011, y: -20.3369102, z: 0}
        - {x: 19.8359089, y: -20.3369102, z: 0}
        - {x: -20.8000011, y: 20.2989998, z: 0}
        - {x: 19.8359089, y: 20.2989998, z: 0}
        triangles: 000000000300000001000000020000000300000000000000
        uv:
        - {x: .00781640597, y: .839847684}
        - {x: .160152346, y: .839847684}
        - {x: .00781640597, y: .992183566}
        - {x: .160152346, y: .992183566}
        colors:
        - {r: 1, g: 1, b: 1, a: .540000021}
        - {r: 1, g: 1, b: 1, a: .540000021}
        - {r: 1, g: 1, b: 1, a: .540000021}
        - {r: 1, g: 1, b: 1, a: .540000021}
    - Variants:
      - vertices:
        - {x: -4.20000029, y: -.96756506, z: -.00100000005}
        - {x: 4.35541964, y: -.96756506, z: -.00100000005}
        - {x: -4.20000029, y: 5.44899988, z: -.00100000005}
        - {x: 4.35541964, y: 5.44899988, z: -.00100000005}
        triangles: 000000000300000001000000020000000300000000000000
        uv:
        - {x: .312503904, y: .00781640597}
        - {x: .343746096, y: .00781640597}
        - {x: .312503904, y: .031246094}
        - {x: .343746096, y: .031246094}
        colors:
        - {r: 1, g: 1, b: 1, a: .159999996}
        - {r: 1, g: 1, b: 1, a: .159999996}
        - {r: 1, g: 1, b: 1, a: .159999996}
        - {r: 1, g: 1, b: 1, a: .159999996}
    - Variants:
      - vertices:
        - {x: -32.7000008, y: -1.00099993, z: -.00200000009}
        - {x: 32.7620354, y: -1.00099993, z: -.00200000009}
        - {x: -32.7000008, y: .999000013, z: -.00200000009}
        - {x: 32.7620354, y: .999000013, z: -.00200000009}
        triangles: 000000000300000001000000020000000300000000000000
        uv:
        - {x: .957035184, y: .250003904}
        - {x: .957035184, y: .406246096}
        - {x: .964839816, y: .250003904}
        - {x: .964839816, y: .406246096}
        colors:
        - {r: 1, g: 1, b: 1, a: .159999996}
        - {r: 1, g: 1, b: 1, a: .159999996}
        - {r: 1, g: 1, b: 1, a: .159999996}
        - {r: 1, g: 1, b: 1, a: .159999996}
  - Layers:
    - Variants:
      - vertices:
        - {x: -20.6499996, y: -20.1643581, z: 0}
        - {x: 19.7133579, y: -20.1643581, z: 0}
        - {x: -20.6499996, y: 20.1989994, z: 0}
        - {x: 19.7133579, y: 20.1989994, z: 0}
        triangles: 000000000300000001000000020000000300000000000000
        uv:
        - {x: .00781640597, y: .839847684}
        - {x: .160152346, y: .839847684}
        - {x: .00781640597, y: .992183566}
        - {x: .160152346, y: .992183566}
        colors:
        - {r: 1, g: 1, b: 1, a: .449999988}
        - {r: 1, g: 1, b: 1, a: .449999988}
        - {r: 1, g: 1, b: 1, a: .449999988}
        - {r: 1, g: 1, b: 1, a: .449999988}
    - Variants:
      - vertices:
        - {x: -3.95000005, y: -1.00099993, z: -.00100000005}
        - {x: 4.04999971, y: -1.00099993, z: -.00100000005}
        - {x: -3.95000005, y: 4.99900007, z: -.00100000005}
        - {x: 4.04999971, y: 4.99900007, z: -.00100000005}
        triangles: 000000000300000001000000020000000300000000000000
        uv:
        - {x: .312503904, y: .00781640597}
        - {x: .343746096, y: .00781640597}
        - {x: .312503904, y: .031246094}
        - {x: .343746096, y: .031246094}
        colors:
        - {r: 1, g: 1, b: 1, a: 0}
        - {r: 1, g: 1, b: 1, a: 0}
        - {r: 1, g: 1, b: 1, a: 0}
        - {r: 1, g: 1, b: 1, a: 0}
    - Variants:
      - vertices:
        - {x: -35.25, y: -1.00099993, z: -.00200000009}
        - {x: 35.3041992, y: -1.00099993, z: -.00200000009}
        - {x: -35.25, y: .999000013, z: -.00200000009}
        - {x: 35.3041992, y: .999000013, z: -.00200000009}
        triangles: 000000000300000001000000020000000300000000000000
        uv:
        - {x: .957035184, y: .250003904}
        - {x: .957035184, y: .406246096}
        - {x: .964839816, y: .250003904}
        - {x: .964839816, y: .406246096}
        colors:
        - {r: 1, g: 1, b: 1, a: 0}
        - {r: 1, g: 1, b: 1, a: 0}
        - {r: 1, g: 1, b: 1, a: 0}
        - {r: 1, g: 1, b: 1, a: 0}
  - Layers:
    - Variants:
      - vertices:
        - {x: -20.5, y: -20.0418053, z: 0}
        - {x: 19.5908051, y: -20.0418053, z: 0}
        - {x: -20.5, y: 20.0489998, z: 0}
        - {x: 19.5908051, y: 20.0489998, z: 0}
        triangles: 000000000300000001000000020000000300000000000000
        uv:
        - {x: .00781640597, y: .839847684}
        - {x: .160152346, y: .839847684}
        - {x: .00781640597, y: .992183566}
        - {x: .160152346, y: .992183566}
        colors:
        - {r: 1, g: 1, b: 1, a: .360000014}
        - {r: 1, g: 1, b: 1, a: .360000014}
        - {r: 1, g: 1, b: 1, a: .360000014}
        - {r: 1, g: 1, b: 1, a: .360000014}
    - Variants: []
    - Variants: []
  - Layers:
    - Variants:
      - vertices:
        - {x: -20.3999996, y: -19.9186573, z: 0}
        - {x: 19.4176579, y: -19.9186573, z: 0}
        - {x: -20.3999996, y: 19.8990002, z: 0}
        - {x: 19.4176579, y: 19.8990002, z: 0}
        triangles: 000000000300000001000000020000000300000000000000
        uv:
        - {x: .00781640597, y: .839847684}
        - {x: .160152346, y: .839847684}
        - {x: .00781640597, y: .992183566}
        - {x: .160152346, y: .992183566}
        colors:
        - {r: 1, g: 1, b: 1, a: .270000011}
        - {r: 1, g: 1, b: 1, a: .270000011}
        - {r: 1, g: 1, b: 1, a: .270000011}
        - {r: 1, g: 1, b: 1, a: .270000011}
    - Variants: []
    - Variants: []
  - Layers:
    - Variants:
      - vertices:
        - {x: -20.25, y: -19.7961044, z: 0}
        - {x: 19.295105, y: -19.7961044, z: 0}
        - {x: -20.25, y: 19.7490005, z: 0}
        - {x: 19.295105, y: 19.7490005, z: 0}
        triangles: 000000000300000001000000020000000300000000000000
        uv:
        - {x: .00781640597, y: .839847684}
        - {x: .160152346, y: .839847684}
        - {x: .00781640597, y: .992183566}
        - {x: .160152346, y: .992183566}
        colors:
        - {r: 1, g: 1, b: 1, a: .180000007}
        - {r: 1, g: 1, b: 1, a: .180000007}
        - {r: 1, g: 1, b: 1, a: .180000007}
        - {r: 1, g: 1, b: 1, a: .180000007}
    - Variants: []
    - Variants: []
  - Layers:
    - Variants:
      - vertices:
        - {x: -20.1000004, y: -19.6235523, z: 0}
        - {x: 19.1725521, y: -19.6235523, z: 0}
        - {x: -20.1000004, y: 19.6490002, z: 0}
        - {x: 19.1725521, y: 19.6490002, z: 0}
        triangles: 000000000300000001000000020000000300000000000000
        uv:
        - {x: .00781640597, y: .839847684}
        - {x: .160152346, y: .839847684}
        - {x: .00781640597, y: .992183566}
        - {x: .160152346, y: .992183566}
        colors:
        - {r: 1, g: 1, b: 1, a: .0900000036}
        - {r: 1, g: 1, b: 1, a: .0900000036}
        - {r: 1, g: 1, b: 1, a: .0900000036}
        - {r: 1, g: 1, b: 1, a: .0900000036}
    - Variants: []
    - Variants: []
  - Layers:
    - Variants:
      - vertices:
        - {x: -19.9500008, y: -19.5009995, z: 0}
        - {x: 19.0499992, y: -19.5009995, z: 0}
        - {x: -19.9500008, y: 19.4990005, z: 0}
        - {x: 19.0499992, y: 19.4990005, z: 0}
        triangles: 000000000300000001000000020000000300000000000000
        uv:
        - {x: .00781640597, y: .839847684}
        - {x: .160152346, y: .839847684}
        - {x: .00781640597, y: .992183566}
        - {x: .160152346, y: .992183566}
        colors:
        - {r: 1, g: 1, b: 1, a: 0}
        - {r: 1, g: 1, b: 1, a: 0}
        - {r: 1, g: 1, b: 1, a: 0}
        - {r: 1, g: 1, b: 1, a: 0}
    - Variants: []
    - Variants: []
  _layerNames:
  - gg_9_light
  - gg_9_splash
  - gg_9_hlight
  _maxTriangles: 18
  _maxVertices: 12
--- !u!1001 &100100000
Prefab:
  m_ObjectHideFlags: 1
  serializedVersion: 2
  m_Modification:
    m_TransformParent: {fileID: 0}
    m_Modifications: []
    m_RemovedComponents: []
  m_ParentPrefab: {fileID: 0}
  m_RootGameObject: {fileID: 100000}
  m_IsPrefabParent: 1
