%YAML 1.1
%TAG !u! tag:unity3d.com,2011:
--- !u!1 &100000
GameObject:
  m_ObjectHideFlags: 0
  m_PrefabParentObject: {fileID: 0}
  m_PrefabInternal: {fileID: 100100000}
  serializedVersion: 4
  m_Component:
  - 4: {fileID: 400000}
  - 114: {fileID: 11400000}
  m_Layer: 0
  m_Name: Tutor_arrow
  m_TagString: Untagged
  m_Icon: {fileID: 0}
  m_NavMeshLayer: 0
  m_StaticEditorFlags: 0
  m_IsActive: 1
--- !u!4 &400000
Transform:
  m_ObjectHideFlags: 1
  m_PrefabParentObject: {fileID: 0}
  m_PrefabInternal: {fileID: 100100000}
  m_GameObject: {fileID: 100000}
  m_LocalRotation: {x: 0, y: 0, z: 0, w: 1}
  m_LocalPosition: {x: -17.5731621, y: 33.6811867, z: 0}
  m_LocalScale: {x: 1, y: 1, z: 1}
  m_Children: []
  m_Father: {fileID: 0}
  m_RootOrder: 0
--- !u!114 &11400000
MonoBehaviour:
  m_ObjectHideFlags: 1
  m_PrefabParentObject: {fileID: 0}
  m_PrefabInternal: {fileID: 100100000}
  m_GameObject: {fileID: 100000}
  m_Enabled: 1
  m_EditorHideFlags: 0
  m_Script: {fileID: 11500000, guid: 642bdf68095743e4698ab210b1fddfce, type: 3}
  m_Name: 
  m_EditorClassIdentifier: 
  AnimationXML: {fileID: 4900000, guid: 318ca385ab3bb3245bc14cff1f4997c0, type: 3}
  FPS: 60
  TargetHeight: 960
  AnimationHeight: 960
  SpriteCollection: {fileID: 11482914, guid: c307afe5994b7ea40b62b4b3adb930ce, type: 2}
  VariantAliases: []
  _frameCount: 51
  _frameList:
  - Layers:
    - Variants:
      - vertices:
        - {x: -7, y: -6.00000048, z: 0}
        - {x: 7, y: -6.00000048, z: 0}
        - {x: -7, y: 5.99999952, z: 0}
        - {x: 7, y: 5.99999952, z: 0}
        triangles: 000000000300000001000000020000000300000000000000
        uv:
        - {x: .210938483, y: .453125983}
        - {x: .210938483, y: .466795892}
        - {x: .222655267, y: .453125983}
        - {x: .222655267, y: .466795892}
        colors:
        - {r: 1, g: 1, b: 1, a: 1}
        - {r: 1, g: 1, b: 1, a: 1}
        - {r: 1, g: 1, b: 1, a: 1}
        - {r: 1, g: 1, b: 1, a: 1}
  - Layers:
    - Variants:
      - vertices:
        - {x: -7.1499939, y: -6.00000048, z: 0}
        - {x: 6.8500061, y: -6.00000048, z: 0}
        - {x: -7.1499939, y: 5.99999952, z: 0}
        - {x: 6.8500061, y: 5.99999952, z: 0}
        triangles: 000000000300000001000000020000000300000000000000
        uv:
        - {x: .210938483, y: .453125983}
        - {x: .210938483, y: .466795892}
        - {x: .222655267, y: .453125983}
        - {x: .222655267, y: .466795892}
        colors:
        - {r: 1, g: 1, b: 1, a: 1}
        - {r: 1, g: 1, b: 1, a: 1}
        - {r: 1, g: 1, b: 1, a: 1}
        - {r: 1, g: 1, b: 1, a: 1}
  - Layers:
    - Variants:
      - vertices:
        - {x: -7.34997559, y: -6.00000048, z: 0}
        - {x: 6.65002441, y: -6.00000048, z: 0}
        - {x: -7.34997559, y: 5.99999952, z: 0}
        - {x: 6.65002441, y: 5.99999952, z: 0}
        triangles: 000000000300000001000000020000000300000000000000
        uv:
        - {x: .210938483, y: .453125983}
        - {x: .210938483, y: .466795892}
        - {x: .222655267, y: .453125983}
        - {x: .222655267, y: .466795892}
        colors:
        - {r: 1, g: 1, b: 1, a: 1}
        - {r: 1, g: 1, b: 1, a: 1}
        - {r: 1, g: 1, b: 1, a: 1}
        - {r: 1, g: 1, b: 1, a: 1}
  - Layers:
    - Variants:
      - vertices:
        - {x: -7.54998779, y: -6.00000048, z: 0}
        - {x: 6.45001221, y: -6.00000048, z: 0}
        - {x: -7.54998779, y: 5.99999952, z: 0}
        - {x: 6.45001221, y: 5.99999952, z: 0}
        triangles: 000000000300000001000000020000000300000000000000
        uv:
        - {x: .210938483, y: .453125983}
        - {x: .210938483, y: .466795892}
        - {x: .222655267, y: .453125983}
        - {x: .222655267, y: .466795892}
        colors:
        - {r: 1, g: 1, b: 1, a: 1}
        - {r: 1, g: 1, b: 1, a: 1}
        - {r: 1, g: 1, b: 1, a: 1}
        - {r: 1, g: 1, b: 1, a: 1}
  - Layers:
    - Variants:
      - vertices:
        - {x: -7.75, y: -6.00000048, z: 0}
        - {x: 6.25, y: -6.00000048, z: 0}
        - {x: -7.75, y: 5.99999952, z: 0}
        - {x: 6.25, y: 5.99999952, z: 0}
        triangles: 000000000300000001000000020000000300000000000000
        uv:
        - {x: .210938483, y: .453125983}
        - {x: .210938483, y: .466795892}
        - {x: .222655267, y: .453125983}
        - {x: .222655267, y: .466795892}
        colors:
        - {r: 1, g: 1, b: 1, a: 1}
        - {r: 1, g: 1, b: 1, a: 1}
        - {r: 1, g: 1, b: 1, a: 1}
        - {r: 1, g: 1, b: 1, a: 1}
  - Layers:
    - Variants:
      - vertices:
        - {x: -7.8999939, y: -6.00000048, z: 0}
        - {x: 6.1000061, y: -6.00000048, z: 0}
        - {x: -7.8999939, y: 5.99999952, z: 0}
        - {x: 6.1000061, y: 5.99999952, z: 0}
        triangles: 000000000300000001000000020000000300000000000000
        uv:
        - {x: .210938483, y: .453125983}
        - {x: .210938483, y: .466795892}
        - {x: .222655267, y: .453125983}
        - {x: .222655267, y: .466795892}
        colors:
        - {r: 1, g: 1, b: 1, a: 1}
        - {r: 1, g: 1, b: 1, a: 1}
        - {r: 1, g: 1, b: 1, a: 1}
        - {r: 1, g: 1, b: 1, a: 1}
  - Layers:
    - Variants:
      - vertices:
        - {x: -8.09997559, y: -6.00000048, z: 0}
        - {x: 5.90002441, y: -6.00000048, z: 0}
        - {x: -8.09997559, y: 5.99999952, z: 0}
        - {x: 5.90002441, y: 5.99999952, z: 0}
        triangles: 000000000300000001000000020000000300000000000000
        uv:
        - {x: .210938483, y: .453125983}
        - {x: .210938483, y: .466795892}
        - {x: .222655267, y: .453125983}
        - {x: .222655267, y: .466795892}
        colors:
        - {r: 1, g: 1, b: 1, a: 1}
        - {r: 1, g: 1, b: 1, a: 1}
        - {r: 1, g: 1, b: 1, a: 1}
        - {r: 1, g: 1, b: 1, a: 1}
  - Layers:
    - Variants:
      - vertices:
        - {x: -8.29998779, y: -6.00000048, z: 0}
        - {x: 5.70001221, y: -6.00000048, z: 0}
        - {x: -8.29998779, y: 5.99999952, z: 0}
        - {x: 5.70001221, y: 5.99999952, z: 0}
        triangles: 000000000300000001000000020000000300000000000000
        uv:
        - {x: .210938483, y: .453125983}
        - {x: .210938483, y: .466795892}
        - {x: .222655267, y: .453125983}
        - {x: .222655267, y: .466795892}
        colors:
        - {r: 1, g: 1, b: 1, a: 1}
        - {r: 1, g: 1, b: 1, a: 1}
        - {r: 1, g: 1, b: 1, a: 1}
        - {r: 1, g: 1, b: 1, a: 1}
  - Layers:
    - Variants:
      - vertices:
        - {x: -8.5, y: -6.00000048, z: 0}
        - {x: 5.5, y: -6.00000048, z: 0}
        - {x: -8.5, y: 5.99999952, z: 0}
        - {x: 5.5, y: 5.99999952, z: 0}
        triangles: 000000000300000001000000020000000300000000000000
        uv:
        - {x: .210938483, y: .453125983}
        - {x: .210938483, y: .466795892}
        - {x: .222655267, y: .453125983}
        - {x: .222655267, y: .466795892}
        colors:
        - {r: 1, g: 1, b: 1, a: 1}
        - {r: 1, g: 1, b: 1, a: 1}
        - {r: 1, g: 1, b: 1, a: 1}
        - {r: 1, g: 1, b: 1, a: 1}
  - Layers:
    - Variants:
      - vertices:
        - {x: -8.6499939, y: -6.00000048, z: 0}
        - {x: 5.3500061, y: -6.00000048, z: 0}
        - {x: -8.6499939, y: 5.99999952, z: 0}
        - {x: 5.3500061, y: 5.99999952, z: 0}
        triangles: 000000000300000001000000020000000300000000000000
        uv:
        - {x: .210938483, y: .453125983}
        - {x: .210938483, y: .466795892}
        - {x: .222655267, y: .453125983}
        - {x: .222655267, y: .466795892}
        colors:
        - {r: 1, g: 1, b: 1, a: 1}
        - {r: 1, g: 1, b: 1, a: 1}
        - {r: 1, g: 1, b: 1, a: 1}
        - {r: 1, g: 1, b: 1, a: 1}
  - Layers:
    - Variants:
      - vertices:
        - {x: -8.84997559, y: -6.00000048, z: 0}
        - {x: 5.15002441, y: -6.00000048, z: 0}
        - {x: -8.84997559, y: 5.99999952, z: 0}
        - {x: 5.15002441, y: 5.99999952, z: 0}
        triangles: 000000000300000001000000020000000300000000000000
        uv:
        - {x: .210938483, y: .453125983}
        - {x: .210938483, y: .466795892}
        - {x: .222655267, y: .453125983}
        - {x: .222655267, y: .466795892}
        colors:
        - {r: 1, g: 1, b: 1, a: 1}
        - {r: 1, g: 1, b: 1, a: 1}
        - {r: 1, g: 1, b: 1, a: 1}
        - {r: 1, g: 1, b: 1, a: 1}
  - Layers:
    - Variants:
      - vertices:
        - {x: -9.04998779, y: -6.00000048, z: 0}
        - {x: 4.95001221, y: -6.00000048, z: 0}
        - {x: -9.04998779, y: 5.99999952, z: 0}
        - {x: 4.95001221, y: 5.99999952, z: 0}
        triangles: 000000000300000001000000020000000300000000000000
        uv:
        - {x: .210938483, y: .453125983}
        - {x: .210938483, y: .466795892}
        - {x: .222655267, y: .453125983}
        - {x: .222655267, y: .466795892}
        colors:
        - {r: 1, g: 1, b: 1, a: 1}
        - {r: 1, g: 1, b: 1, a: 1}
        - {r: 1, g: 1, b: 1, a: 1}
        - {r: 1, g: 1, b: 1, a: 1}
  - Layers:
    - Variants:
      - vertices:
        - {x: -9.25, y: -6.00000048, z: 0}
        - {x: 4.75, y: -6.00000048, z: 0}
        - {x: -9.25, y: 5.99999952, z: 0}
        - {x: 4.75, y: 5.99999952, z: 0}
        triangles: 000000000300000001000000020000000300000000000000
        uv:
        - {x: .210938483, y: .453125983}
        - {x: .210938483, y: .466795892}
        - {x: .222655267, y: .453125983}
        - {x: .222655267, y: .466795892}
        colors:
        - {r: 1, g: 1, b: 1, a: 1}
        - {r: 1, g: 1, b: 1, a: 1}
        - {r: 1, g: 1, b: 1, a: 1}
        - {r: 1, g: 1, b: 1, a: 1}
  - Layers:
    - Variants:
      - vertices:
        - {x: -9.44998169, y: -6.00000048, z: 0}
        - {x: 4.55001831, y: -6.00000048, z: 0}
        - {x: -9.44998169, y: 5.99999952, z: 0}
        - {x: 4.55001831, y: 5.99999952, z: 0}
        triangles: 000000000300000001000000020000000300000000000000
        uv:
        - {x: .210938483, y: .453125983}
        - {x: .210938483, y: .466795892}
        - {x: .222655267, y: .453125983}
        - {x: .222655267, y: .466795892}
        colors:
        - {r: 1, g: 1, b: 1, a: 1}
        - {r: 1, g: 1, b: 1, a: 1}
        - {r: 1, g: 1, b: 1, a: 1}
        - {r: 1, g: 1, b: 1, a: 1}
  - Layers:
    - Variants:
      - vertices:
        - {x: -9.59997559, y: -6.00000048, z: 0}
        - {x: 4.40002441, y: -6.00000048, z: 0}
        - {x: -9.59997559, y: 5.99999952, z: 0}
        - {x: 4.40002441, y: 5.99999952, z: 0}
        triangles: 000000000300000001000000020000000300000000000000
        uv:
        - {x: .210938483, y: .453125983}
        - {x: .210938483, y: .466795892}
        - {x: .222655267, y: .453125983}
        - {x: .222655267, y: .466795892}
        colors:
        - {r: 1, g: 1, b: 1, a: 1}
        - {r: 1, g: 1, b: 1, a: 1}
        - {r: 1, g: 1, b: 1, a: 1}
        - {r: 1, g: 1, b: 1, a: 1}
  - Layers:
    - Variants:
      - vertices:
        - {x: -9.79998779, y: -6.00000048, z: 0}
        - {x: 4.20001221, y: -6.00000048, z: 0}
        - {x: -9.79998779, y: 5.99999952, z: 0}
        - {x: 4.20001221, y: 5.99999952, z: 0}
        triangles: 000000000300000001000000020000000300000000000000
        uv:
        - {x: .210938483, y: .453125983}
        - {x: .210938483, y: .466795892}
        - {x: .222655267, y: .453125983}
        - {x: .222655267, y: .466795892}
        colors:
        - {r: 1, g: 1, b: 1, a: 1}
        - {r: 1, g: 1, b: 1, a: 1}
        - {r: 1, g: 1, b: 1, a: 1}
        - {r: 1, g: 1, b: 1, a: 1}
  - Layers:
    - Variants:
      - vertices:
        - {x: -10, y: -6.00000048, z: 0}
        - {x: 4, y: -6.00000048, z: 0}
        - {x: -10, y: 5.99999952, z: 0}
        - {x: 4, y: 5.99999952, z: 0}
        triangles: 000000000300000001000000020000000300000000000000
        uv:
        - {x: .210938483, y: .453125983}
        - {x: .210938483, y: .466795892}
        - {x: .222655267, y: .453125983}
        - {x: .222655267, y: .466795892}
        colors:
        - {r: 1, g: 1, b: 1, a: 1}
        - {r: 1, g: 1, b: 1, a: 1}
        - {r: 1, g: 1, b: 1, a: 1}
        - {r: 1, g: 1, b: 1, a: 1}
  - Layers:
    - Variants:
      - vertices:
        - {x: -10.1999817, y: -6.00000048, z: 0}
        - {x: 3.80001831, y: -6.00000048, z: 0}
        - {x: -10.1999817, y: 5.99999952, z: 0}
        - {x: 3.80001831, y: 5.99999952, z: 0}
        triangles: 000000000300000001000000020000000300000000000000
        uv:
        - {x: .210938483, y: .453125983}
        - {x: .210938483, y: .466795892}
        - {x: .222655267, y: .453125983}
        - {x: .222655267, y: .466795892}
        colors:
        - {r: 1, g: 1, b: 1, a: 1}
        - {r: 1, g: 1, b: 1, a: 1}
        - {r: 1, g: 1, b: 1, a: 1}
        - {r: 1, g: 1, b: 1, a: 1}
  - Layers:
    - Variants:
      - vertices:
        - {x: -10.1999817, y: -6.12210703, z: 0}
        - {x: 3.55541992, y: -6.12210703, z: 0}
        - {x: -10.1999817, y: 6.0999999, z: 0}
        - {x: 3.55541992, y: 6.0999999, z: 0}
        triangles: 000000000300000001000000020000000300000000000000
        uv:
        - {x: .210938483, y: .453125983}
        - {x: .210938483, y: .466795892}
        - {x: .222655267, y: .453125983}
        - {x: .222655267, y: .466795892}
        colors:
        - {r: 1, g: 1, b: 1, a: 1}
        - {r: 1, g: 1, b: 1, a: 1}
        - {r: 1, g: 1, b: 1, a: 1}
        - {r: 1, g: 1, b: 1, a: 1}
  - Layers:
    - Variants:
      - vertices:
        - {x: -10.0999756, y: -6.19439745, z: 0}
        - {x: 3.41104126, y: -6.19439745, z: 0}
        - {x: -10.0999756, y: 6.24999952, z: 0}
        - {x: 3.41104126, y: 6.24999952, z: 0}
        triangles: 000000000300000001000000020000000300000000000000
        uv:
        - {x: .210938483, y: .453125983}
        - {x: .210938483, y: .466795892}
        - {x: .222655267, y: .453125983}
        - {x: .222655267, y: .466795892}
        colors:
        - {r: 1, g: 1, b: 1, a: 1}
        - {r: 1, g: 1, b: 1, a: 1}
        - {r: 1, g: 1, b: 1, a: 1}
        - {r: 1, g: 1, b: 1, a: 1}
  - Layers:
    - Variants:
      - vertices:
        - {x: -10.0999756, y: -6.36650419, z: 0}
        - {x: 3.16665649, y: -6.36650419, z: 0}
        - {x: -10.0999756, y: 6.29999971, z: 0}
        - {x: 3.16665649, y: 6.29999971, z: 0}
        triangles: 000000000300000001000000020000000300000000000000
        uv:
        - {x: .210938483, y: .453125983}
        - {x: .210938483, y: .466795892}
        - {x: .222655267, y: .453125983}
        - {x: .222655267, y: .466795892}
        colors:
        - {r: 1, g: 1, b: 1, a: 1}
        - {r: 1, g: 1, b: 1, a: 1}
        - {r: 1, g: 1, b: 1, a: 1}
        - {r: 1, g: 1, b: 1, a: 1}
  - Layers:
    - Variants:
      - vertices:
        - {x: -10.0499878, y: -6.43879366, z: 0}
        - {x: 2.9720459, y: -6.43879366, z: 0}
        - {x: -10.0499878, y: 6.45000029, z: 0}
        - {x: 2.9720459, y: 6.45000029, z: 0}
        triangles: 000000000300000001000000020000000300000000000000
        uv:
        - {x: .210938483, y: .453125983}
        - {x: .210938483, y: .466795892}
        - {x: .222655267, y: .453125983}
        - {x: .222655267, y: .466795892}
        colors:
        - {r: 1, g: 1, b: 1, a: 1}
        - {r: 1, g: 1, b: 1, a: 1}
        - {r: 1, g: 1, b: 1, a: 1}
        - {r: 1, g: 1, b: 1, a: 1}
  - Layers:
    - Variants:
      - vertices:
        - {x: -10.0499878, y: -6.56108427, z: 0}
        - {x: 2.72766113, y: -6.56108427, z: 0}
        - {x: -10.0499878, y: 6.54999971, z: 0}
        - {x: 2.72766113, y: 6.54999971, z: 0}
        triangles: 000000000300000001000000020000000300000000000000
        uv:
        - {x: .210938483, y: .453125983}
        - {x: .210938483, y: .466795892}
        - {x: .222655267, y: .453125983}
        - {x: .222655267, y: .466795892}
        colors:
        - {r: 1, g: 1, b: 1, a: 1}
        - {r: 1, g: 1, b: 1, a: 1}
        - {r: 1, g: 1, b: 1, a: 1}
        - {r: 1, g: 1, b: 1, a: 1}
  - Layers:
    - Variants:
      - vertices:
        - {x: -10, y: -6.63319063, z: 0}
        - {x: 2.53326416, y: -6.63319063, z: 0}
        - {x: -10, y: 6.70000029, z: 0}
        - {x: 2.53326416, y: 6.70000029, z: 0}
        triangles: 000000000300000001000000020000000300000000000000
        uv:
        - {x: .210938483, y: .453125983}
        - {x: .210938483, y: .466795892}
        - {x: .222655267, y: .453125983}
        - {x: .222655267, y: .466795892}
        colors:
        - {r: 1, g: 1, b: 1, a: 1}
        - {r: 1, g: 1, b: 1, a: 1}
        - {r: 1, g: 1, b: 1, a: 1}
        - {r: 1, g: 1, b: 1, a: 1}
  - Layers:
    - Variants:
      - vertices:
        - {x: -10, y: -6.80548143, z: 0}
        - {x: 2.28866577, y: -6.80548143, z: 0}
        - {x: -10, y: 6.74999952, z: 0}
        - {x: 2.28866577, y: 6.74999952, z: 0}
        triangles: 000000000300000001000000020000000300000000000000
        uv:
        - {x: .210938483, y: .453125983}
        - {x: .210938483, y: .466795892}
        - {x: .222655267, y: .453125983}
        - {x: .222655267, y: .466795892}
        colors:
        - {r: 1, g: 1, b: 1, a: 1}
        - {r: 1, g: 1, b: 1, a: 1}
        - {r: 1, g: 1, b: 1, a: 1}
        - {r: 1, g: 1, b: 1, a: 1}
  - Layers:
    - Variants:
      - vertices:
        - {x: -10, y: -6.8777709, z: 0}
        - {x: 2.04428101, y: -6.8777709, z: 0}
        - {x: -10, y: 6.9000001, z: 0}
        - {x: 2.04428101, y: 6.9000001, z: 0}
        triangles: 000000000300000001000000020000000300000000000000
        uv:
        - {x: .210938483, y: .453125983}
        - {x: .210938483, y: .466795892}
        - {x: .222655267, y: .453125983}
        - {x: .222655267, y: .466795892}
        colors:
        - {r: 1, g: 1, b: 1, a: 1}
        - {r: 1, g: 1, b: 1, a: 1}
        - {r: 1, g: 1, b: 1, a: 1}
        - {r: 1, g: 1, b: 1, a: 1}
  - Layers:
    - Variants:
      - vertices:
        - {x: -9.94998169, y: -6.99987841, z: 0}
        - {x: 1.84991455, y: -6.99987841, z: 0}
        - {x: -9.94998169, y: 6.99999952, z: 0}
        - {x: 1.84991455, y: 6.99999952, z: 0}
        triangles: 000000000300000001000000020000000300000000000000
        uv:
        - {x: .210938483, y: .453125983}
        - {x: .210938483, y: .466795892}
        - {x: .222655267, y: .453125983}
        - {x: .222655267, y: .466795892}
        colors:
        - {r: 1, g: 1, b: 1, a: 1}
        - {r: 1, g: 1, b: 1, a: 1}
        - {r: 1, g: 1, b: 1, a: 1}
        - {r: 1, g: 1, b: 1, a: 1}
  - Layers:
    - Variants:
      - vertices:
        - {x: -9.94998169, y: -6.8777709, z: 0}
        - {x: 2.09429932, y: -6.8777709, z: 0}
        - {x: -9.94998169, y: 6.9000001, z: 0}
        - {x: 2.09429932, y: 6.9000001, z: 0}
        triangles: 000000000300000001000000020000000300000000000000
        uv:
        - {x: .210938483, y: .453125983}
        - {x: .210938483, y: .466795892}
        - {x: .222655267, y: .453125983}
        - {x: .222655267, y: .466795892}
        colors:
        - {r: 1, g: 1, b: 1, a: 1}
        - {r: 1, g: 1, b: 1, a: 1}
        - {r: 1, g: 1, b: 1, a: 1}
        - {r: 1, g: 1, b: 1, a: 1}
  - Layers:
    - Variants:
      - vertices:
        - {x: -9.8999939, y: -6.80548143, z: 0}
        - {x: 2.38867188, y: -6.80548143, z: 0}
        - {x: -9.8999939, y: 6.74999952, z: 0}
        - {x: 2.38867188, y: 6.74999952, z: 0}
        triangles: 000000000300000001000000020000000300000000000000
        uv:
        - {x: .210938483, y: .453125983}
        - {x: .210938483, y: .466795892}
        - {x: .222655267, y: .453125983}
        - {x: .222655267, y: .466795892}
        colors:
        - {r: 1, g: 1, b: 1, a: 1}
        - {r: 1, g: 1, b: 1, a: 1}
        - {r: 1, g: 1, b: 1, a: 1}
        - {r: 1, g: 1, b: 1, a: 1}
  - Layers:
    - Variants:
      - vertices:
        - {x: -9.84997559, y: -6.63319063, z: 0}
        - {x: 2.68328857, y: -6.63319063, z: 0}
        - {x: -9.84997559, y: 6.70000029, z: 0}
        - {x: 2.68328857, y: 6.70000029, z: 0}
        triangles: 000000000300000001000000020000000300000000000000
        uv:
        - {x: .210938483, y: .453125983}
        - {x: .210938483, y: .466795892}
        - {x: .222655267, y: .453125983}
        - {x: .222655267, y: .466795892}
        colors:
        - {r: 1, g: 1, b: 1, a: 1}
        - {r: 1, g: 1, b: 1, a: 1}
        - {r: 1, g: 1, b: 1, a: 1}
        - {r: 1, g: 1, b: 1, a: 1}
  - Layers:
    - Variants:
      - vertices:
        - {x: -9.84997559, y: -6.56108427, z: 0}
        - {x: 2.92767334, y: -6.56108427, z: 0}
        - {x: -9.84997559, y: 6.54999971, z: 0}
        - {x: 2.92767334, y: 6.54999971, z: 0}
        triangles: 000000000300000001000000020000000300000000000000
        uv:
        - {x: .210938483, y: .453125983}
        - {x: .210938483, y: .466795892}
        - {x: .222655267, y: .453125983}
        - {x: .222655267, y: .466795892}
        colors:
        - {r: 1, g: 1, b: 1, a: 1}
        - {r: 1, g: 1, b: 1, a: 1}
        - {r: 1, g: 1, b: 1, a: 1}
        - {r: 1, g: 1, b: 1, a: 1}
  - Layers:
    - Variants:
      - vertices:
        - {x: -9.75, y: -6.43879366, z: 0}
        - {x: 3.27203369, y: -6.43879366, z: 0}
        - {x: -9.75, y: 6.45000029, z: 0}
        - {x: 3.27203369, y: 6.45000029, z: 0}
        triangles: 000000000300000001000000020000000300000000000000
        uv:
        - {x: .210938483, y: .453125983}
        - {x: .210938483, y: .466795892}
        - {x: .222655267, y: .453125983}
        - {x: .222655267, y: .466795892}
        colors:
        - {r: 1, g: 1, b: 1, a: 1}
        - {r: 1, g: 1, b: 1, a: 1}
        - {r: 1, g: 1, b: 1, a: 1}
        - {r: 1, g: 1, b: 1, a: 1}
  - Layers:
    - Variants:
      - vertices:
        - {x: -9.75, y: -6.36650419, z: 0}
        - {x: 3.51663208, y: -6.36650419, z: 0}
        - {x: -9.75, y: 6.29999971, z: 0}
        - {x: 3.51663208, y: 6.29999971, z: 0}
        triangles: 000000000300000001000000020000000300000000000000
        uv:
        - {x: .210938483, y: .453125983}
        - {x: .210938483, y: .466795892}
        - {x: .222655267, y: .453125983}
        - {x: .222655267, y: .466795892}
        colors:
        - {r: 1, g: 1, b: 1, a: 1}
        - {r: 1, g: 1, b: 1, a: 1}
        - {r: 1, g: 1, b: 1, a: 1}
        - {r: 1, g: 1, b: 1, a: 1}
  - Layers:
    - Variants:
      - vertices:
        - {x: -9.69998169, y: -6.19439745, z: 0}
        - {x: 3.81103516, y: -6.19439745, z: 0}
        - {x: -9.69998169, y: 6.24999952, z: 0}
        - {x: 3.81103516, y: 6.24999952, z: 0}
        triangles: 000000000300000001000000020000000300000000000000
        uv:
        - {x: .210938483, y: .453125983}
        - {x: .210938483, y: .466795892}
        - {x: .222655267, y: .453125983}
        - {x: .222655267, y: .466795892}
        colors:
        - {r: 1, g: 1, b: 1, a: 1}
        - {r: 1, g: 1, b: 1, a: 1}
        - {r: 1, g: 1, b: 1, a: 1}
        - {r: 1, g: 1, b: 1, a: 1}
  - Layers:
    - Variants:
      - vertices:
        - {x: -9.69998169, y: -6.12210703, z: 0}
        - {x: 4.05541992, y: -6.12210703, z: 0}
        - {x: -9.69998169, y: 6.0999999, z: 0}
        - {x: 4.05541992, y: 6.0999999, z: 0}
        triangles: 000000000300000001000000020000000300000000000000
        uv:
        - {x: .210938483, y: .453125983}
        - {x: .210938483, y: .466795892}
        - {x: .222655267, y: .453125983}
        - {x: .222655267, y: .466795892}
        colors:
        - {r: 1, g: 1, b: 1, a: 1}
        - {r: 1, g: 1, b: 1, a: 1}
        - {r: 1, g: 1, b: 1, a: 1}
        - {r: 1, g: 1, b: 1, a: 1}
  - Layers:
    - Variants:
      - vertices:
        - {x: -9.6499939, y: -6.00000048, z: 0}
        - {x: 4.3500061, y: -6.00000048, z: 0}
        - {x: -9.6499939, y: 5.99999952, z: 0}
        - {x: 4.3500061, y: 5.99999952, z: 0}
        triangles: 000000000300000001000000020000000300000000000000
        uv:
        - {x: .210938483, y: .453125983}
        - {x: .210938483, y: .466795892}
        - {x: .222655267, y: .453125983}
        - {x: .222655267, y: .466795892}
        colors:
        - {r: 1, g: 1, b: 1, a: 1}
        - {r: 1, g: 1, b: 1, a: 1}
        - {r: 1, g: 1, b: 1, a: 1}
        - {r: 1, g: 1, b: 1, a: 1}
  - Layers:
    - Variants:
      - vertices:
        - {x: -9.44998169, y: -6.00000048, z: 0}
        - {x: 4.55001831, y: -6.00000048, z: 0}
        - {x: -9.44998169, y: 5.99999952, z: 0}
        - {x: 4.55001831, y: 5.99999952, z: 0}
        triangles: 000000000300000001000000020000000300000000000000
        uv:
        - {x: .210938483, y: .453125983}
        - {x: .210938483, y: .466795892}
        - {x: .222655267, y: .453125983}
        - {x: .222655267, y: .466795892}
        colors:
        - {r: 1, g: 1, b: 1, a: 1}
        - {r: 1, g: 1, b: 1, a: 1}
        - {r: 1, g: 1, b: 1, a: 1}
        - {r: 1, g: 1, b: 1, a: 1}
  - Layers:
    - Variants:
      - vertices:
        - {x: -9.29998779, y: -6.00000048, z: 0}
        - {x: 4.70001221, y: -6.00000048, z: 0}
        - {x: -9.29998779, y: 5.99999952, z: 0}
        - {x: 4.70001221, y: 5.99999952, z: 0}
        triangles: 000000000300000001000000020000000300000000000000
        uv:
        - {x: .210938483, y: .453125983}
        - {x: .210938483, y: .466795892}
        - {x: .222655267, y: .453125983}
        - {x: .222655267, y: .466795892}
        colors:
        - {r: 1, g: 1, b: 1, a: 1}
        - {r: 1, g: 1, b: 1, a: 1}
        - {r: 1, g: 1, b: 1, a: 1}
        - {r: 1, g: 1, b: 1, a: 1}
  - Layers:
    - Variants:
      - vertices:
        - {x: -9.09997559, y: -6.00000048, z: 0}
        - {x: 4.90002441, y: -6.00000048, z: 0}
        - {x: -9.09997559, y: 5.99999952, z: 0}
        - {x: 4.90002441, y: 5.99999952, z: 0}
        triangles: 000000000300000001000000020000000300000000000000
        uv:
        - {x: .210938483, y: .453125983}
        - {x: .210938483, y: .466795892}
        - {x: .222655267, y: .453125983}
        - {x: .222655267, y: .466795892}
        colors:
        - {r: 1, g: 1, b: 1, a: 1}
        - {r: 1, g: 1, b: 1, a: 1}
        - {r: 1, g: 1, b: 1, a: 1}
        - {r: 1, g: 1, b: 1, a: 1}
  - Layers:
    - Variants:
      - vertices:
        - {x: -8.94998169, y: -6.00000048, z: 0}
        - {x: 5.05001831, y: -6.00000048, z: 0}
        - {x: -8.94998169, y: 5.99999952, z: 0}
        - {x: 5.05001831, y: 5.99999952, z: 0}
        triangles: 000000000300000001000000020000000300000000000000
        uv:
        - {x: .210938483, y: .453125983}
        - {x: .210938483, y: .466795892}
        - {x: .222655267, y: .453125983}
        - {x: .222655267, y: .466795892}
        colors:
        - {r: 1, g: 1, b: 1, a: 1}
        - {r: 1, g: 1, b: 1, a: 1}
        - {r: 1, g: 1, b: 1, a: 1}
        - {r: 1, g: 1, b: 1, a: 1}
  - Layers:
    - Variants:
      - vertices:
        - {x: -8.75, y: -6.00000048, z: 0}
        - {x: 5.25, y: -6.00000048, z: 0}
        - {x: -8.75, y: 5.99999952, z: 0}
        - {x: 5.25, y: 5.99999952, z: 0}
        triangles: 000000000300000001000000020000000300000000000000
        uv:
        - {x: .210938483, y: .453125983}
        - {x: .210938483, y: .466795892}
        - {x: .222655267, y: .453125983}
        - {x: .222655267, y: .466795892}
        colors:
        - {r: 1, g: 1, b: 1, a: 1}
        - {r: 1, g: 1, b: 1, a: 1}
        - {r: 1, g: 1, b: 1, a: 1}
        - {r: 1, g: 1, b: 1, a: 1}
  - Layers:
    - Variants:
      - vertices:
        - {x: -8.59997559, y: -6.00000048, z: 0}
        - {x: 5.40002441, y: -6.00000048, z: 0}
        - {x: -8.59997559, y: 5.99999952, z: 0}
        - {x: 5.40002441, y: 5.99999952, z: 0}
        triangles: 000000000300000001000000020000000300000000000000
        uv:
        - {x: .210938483, y: .453125983}
        - {x: .210938483, y: .466795892}
        - {x: .222655267, y: .453125983}
        - {x: .222655267, y: .466795892}
        colors:
        - {r: 1, g: 1, b: 1, a: 1}
        - {r: 1, g: 1, b: 1, a: 1}
        - {r: 1, g: 1, b: 1, a: 1}
        - {r: 1, g: 1, b: 1, a: 1}
  - Layers:
    - Variants:
      - vertices:
        - {x: -8.3999939, y: -6.00000048, z: 0}
        - {x: 5.6000061, y: -6.00000048, z: 0}
        - {x: -8.3999939, y: 5.99999952, z: 0}
        - {x: 5.6000061, y: 5.99999952, z: 0}
        triangles: 000000000300000001000000020000000300000000000000
        uv:
        - {x: .210938483, y: .453125983}
        - {x: .210938483, y: .466795892}
        - {x: .222655267, y: .453125983}
        - {x: .222655267, y: .466795892}
        colors:
        - {r: 1, g: 1, b: 1, a: 1}
        - {r: 1, g: 1, b: 1, a: 1}
        - {r: 1, g: 1, b: 1, a: 1}
        - {r: 1, g: 1, b: 1, a: 1}
  - Layers:
    - Variants:
      - vertices:
        - {x: -8.19998169, y: -6.00000048, z: 0}
        - {x: 5.80001831, y: -6.00000048, z: 0}
        - {x: -8.19998169, y: 5.99999952, z: 0}
        - {x: 5.80001831, y: 5.99999952, z: 0}
        triangles: 000000000300000001000000020000000300000000000000
        uv:
        - {x: .210938483, y: .453125983}
        - {x: .210938483, y: .466795892}
        - {x: .222655267, y: .453125983}
        - {x: .222655267, y: .466795892}
        colors:
        - {r: 1, g: 1, b: 1, a: 1}
        - {r: 1, g: 1, b: 1, a: 1}
        - {r: 1, g: 1, b: 1, a: 1}
        - {r: 1, g: 1, b: 1, a: 1}
  - Layers:
    - Variants:
      - vertices:
        - {x: -8.04998779, y: -6.00000048, z: 0}
        - {x: 5.95001221, y: -6.00000048, z: 0}
        - {x: -8.04998779, y: 5.99999952, z: 0}
        - {x: 5.95001221, y: 5.99999952, z: 0}
        triangles: 000000000300000001000000020000000300000000000000
        uv:
        - {x: .210938483, y: .453125983}
        - {x: .210938483, y: .466795892}
        - {x: .222655267, y: .453125983}
        - {x: .222655267, y: .466795892}
        colors:
        - {r: 1, g: 1, b: 1, a: 1}
        - {r: 1, g: 1, b: 1, a: 1}
        - {r: 1, g: 1, b: 1, a: 1}
        - {r: 1, g: 1, b: 1, a: 1}
  - Layers:
    - Variants:
      - vertices:
        - {x: -7.84997559, y: -6.00000048, z: 0}
        - {x: 6.15002441, y: -6.00000048, z: 0}
        - {x: -7.84997559, y: 5.99999952, z: 0}
        - {x: 6.15002441, y: 5.99999952, z: 0}
        triangles: 000000000300000001000000020000000300000000000000
        uv:
        - {x: .210938483, y: .453125983}
        - {x: .210938483, y: .466795892}
        - {x: .222655267, y: .453125983}
        - {x: .222655267, y: .466795892}
        colors:
        - {r: 1, g: 1, b: 1, a: 1}
        - {r: 1, g: 1, b: 1, a: 1}
        - {r: 1, g: 1, b: 1, a: 1}
        - {r: 1, g: 1, b: 1, a: 1}
  - Layers:
    - Variants:
      - vertices:
        - {x: -7.69998169, y: -6.00000048, z: 0}
        - {x: 6.30001831, y: -6.00000048, z: 0}
        - {x: -7.69998169, y: 5.99999952, z: 0}
        - {x: 6.30001831, y: 5.99999952, z: 0}
        triangles: 000000000300000001000000020000000300000000000000
        uv:
        - {x: .210938483, y: .453125983}
        - {x: .210938483, y: .466795892}
        - {x: .222655267, y: .453125983}
        - {x: .222655267, y: .466795892}
        colors:
        - {r: 1, g: 1, b: 1, a: 1}
        - {r: 1, g: 1, b: 1, a: 1}
        - {r: 1, g: 1, b: 1, a: 1}
        - {r: 1, g: 1, b: 1, a: 1}
  - Layers:
    - Variants:
      - vertices:
        - {x: -7.5, y: -6.00000048, z: 0}
        - {x: 6.5, y: -6.00000048, z: 0}
        - {x: -7.5, y: 5.99999952, z: 0}
        - {x: 6.5, y: 5.99999952, z: 0}
        triangles: 000000000300000001000000020000000300000000000000
        uv:
        - {x: .210938483, y: .453125983}
        - {x: .210938483, y: .466795892}
        - {x: .222655267, y: .453125983}
        - {x: .222655267, y: .466795892}
        colors:
        - {r: 1, g: 1, b: 1, a: 1}
        - {r: 1, g: 1, b: 1, a: 1}
        - {r: 1, g: 1, b: 1, a: 1}
        - {r: 1, g: 1, b: 1, a: 1}
  - Layers:
    - Variants:
      - vertices:
        - {x: -7.34997559, y: -6.00000048, z: 0}
        - {x: 6.65002441, y: -6.00000048, z: 0}
        - {x: -7.34997559, y: 5.99999952, z: 0}
        - {x: 6.65002441, y: 5.99999952, z: 0}
        triangles: 000000000300000001000000020000000300000000000000
        uv:
        - {x: .210938483, y: .453125983}
        - {x: .210938483, y: .466795892}
        - {x: .222655267, y: .453125983}
        - {x: .222655267, y: .466795892}
        colors:
        - {r: 1, g: 1, b: 1, a: 1}
        - {r: 1, g: 1, b: 1, a: 1}
        - {r: 1, g: 1, b: 1, a: 1}
        - {r: 1, g: 1, b: 1, a: 1}
  - Layers:
    - Variants:
      - vertices:
        - {x: -7.1499939, y: -6.00000048, z: 0}
        - {x: 6.8500061, y: -6.00000048, z: 0}
        - {x: -7.1499939, y: 5.99999952, z: 0}
        - {x: 6.8500061, y: 5.99999952, z: 0}
        triangles: 000000000300000001000000020000000300000000000000
        uv:
        - {x: .210938483, y: .453125983}
        - {x: .210938483, y: .466795892}
        - {x: .222655267, y: .453125983}
        - {x: .222655267, y: .466795892}
        colors:
        - {r: 1, g: 1, b: 1, a: 1}
        - {r: 1, g: 1, b: 1, a: 1}
        - {r: 1, g: 1, b: 1, a: 1}
        - {r: 1, g: 1, b: 1, a: 1}
  - Layers:
    - Variants:
      - vertices:
        - {x: -7, y: -6.00000048, z: 0}
        - {x: 7, y: -6.00000048, z: 0}
        - {x: -7, y: 5.99999952, z: 0}
        - {x: 7, y: 5.99999952, z: 0}
        triangles: 000000000300000001000000020000000300000000000000
        uv:
        - {x: .210938483, y: .453125983}
        - {x: .210938483, y: .466795892}
        - {x: .222655267, y: .453125983}
        - {x: .222655267, y: .466795892}
        colors:
        - {r: 1, g: 1, b: 1, a: 1}
        - {r: 1, g: 1, b: 1, a: 1}
        - {r: 1, g: 1, b: 1, a: 1}
        - {r: 1, g: 1, b: 1, a: 1}
  _layerNames:
  - arrow
  _maxTriangles: 6
  _maxVertices: 4
--- !u!1001 &100100000
Prefab:
  m_ObjectHideFlags: 1
  serializedVersion: 2
  m_Modification:
    m_TransformParent: {fileID: 0}
    m_Modifications: []
    m_RemovedComponents: []
  m_ParentPrefab: {fileID: 0}
  m_RootGameObject: {fileID: 100000}
  m_IsPrefabParent: 1
