%YAML 1.1
%TAG !u! tag:unity3d.com,2011:
--- !u!1 &100000
GameObject:
  m_ObjectHideFlags: 0
  m_PrefabParentObject: {fileID: 0}
  m_PrefabInternal: {fileID: 100100000}
  serializedVersion: 4
  m_Component:
  - 4: {fileID: 400000}
  - 114: {fileID: 11400000}
  m_Layer: 0
  m_Name: Enemy7
  m_TagString: Untagged
  m_Icon: {fileID: 0}
  m_NavMeshLayer: 0
  m_StaticEditorFlags: 0
  m_IsActive: 1
--- !u!4 &400000
Transform:
  m_ObjectHideFlags: 1
  m_PrefabParentObject: {fileID: 0}
  m_PrefabInternal: {fileID: 100100000}
  m_GameObject: {fileID: 100000}
  m_LocalRotation: {x: 0, y: 0, z: 0, w: 1}
  m_LocalPosition: {x: -17.5731621, y: 33.6811867, z: 0}
  m_LocalScale: {x: 1, y: 1, z: 1}
  m_Children: []
  m_Father: {fileID: 0}
  m_RootOrder: 0
--- !u!114 &11400000
MonoBehaviour:
  m_ObjectHideFlags: 1
  m_PrefabParentObject: {fileID: 0}
  m_PrefabInternal: {fileID: 100100000}
  m_GameObject: {fileID: 100000}
  m_Enabled: 1
  m_EditorHideFlags: 0
  m_Script: {fileID: 11500000, guid: 642bdf68095743e4698ab210b1fddfce, type: 3}
  m_Name: 
  m_EditorClassIdentifier: 
  AnimationXML: {fileID: 4900000, guid: 75306b5882b715f4bbf91b48a4019d3a, type: 3}
  FPS: 60
  TargetHeight: 480
  AnimationHeight: 480
  SpriteCollection: {fileID: 11400000, guid: 4b69f70c52200fc41bb0dde46ce7c0d5, type: 2}
  VariantAliases: []
  _frameCount: 60
  _frameList:
  - Layers:
    - Variants:
      - vertices:
        - {x: -33.9989967, y: -8, z: 0}
        - {x: 34.0010033, y: -8, z: 0}
        - {x: -33.9989967, y: 0, z: 0}
        - {x: 34.0010033, y: 0, z: 0}
        triangles: 000000000300000001000000020000000300000000000000
        uv:
        - {x: .976564467, y: .294922858}
        - {x: .976564467, y: .361327142}
        - {x: .992185533, y: .294922858}
        - {x: .992185533, y: .361327142}
        colors:
        - {r: 1, g: 1, b: 1, a: 1}
        - {r: 1, g: 1, b: 1, a: 1}
        - {r: 1, g: 1, b: 1, a: 1}
        - {r: 1, g: 1, b: 1, a: 1}
    - Variants:
      - vertices:
        - {x: -33.9989967, y: -8, z: -.00100000005}
        - {x: 34.0010033, y: -8, z: -.00100000005}
        - {x: -33.9989967, y: 8, z: -.00100000005}
        - {x: 34.0010033, y: 8, z: -.00100000005}
        triangles: 000000000300000001000000020000000300000000000000
        uv:
        - {x: .937501967, y: .384766608}
        - {x: .937501967, y: .451170892}
        - {x: .968748033, y: .384766608}
        - {x: .968748033, y: .451170892}
        colors:
        - {r: 1, g: 1, b: 1, a: 1}
        - {r: 1, g: 1, b: 1, a: 1}
        - {r: 1, g: 1, b: 1, a: 1}
        - {r: 1, g: 1, b: 1, a: 1}
  - Layers:
    - Variants:
      - vertices:
        - {x: -33.9989967, y: -8, z: 0}
        - {x: 34.0010033, y: -8, z: 0}
        - {x: -33.9989967, y: 0, z: 0}
        - {x: 34.0010033, y: 0, z: 0}
        triangles: 000000000300000001000000020000000300000000000000
        uv:
        - {x: .976564467, y: .294922858}
        - {x: .976564467, y: .361327142}
        - {x: .992185533, y: .294922858}
        - {x: .992185533, y: .361327142}
        colors:
        - {r: 1, g: 1, b: 1, a: 1}
        - {r: 1, g: 1, b: 1, a: 1}
        - {r: 1, g: 1, b: 1, a: 1}
        - {r: 1, g: 1, b: 1, a: 1}
    - Variants:
      - vertices:
        - {x: -33.9989967, y: -7.99824238, z: -.00100000005}
        - {x: 34.0010033, y: -7.99824238, z: -.00100000005}
        - {x: -33.9989967, y: 7.94999981, z: -.00100000005}
        - {x: 34.0010033, y: 7.94999981, z: -.00100000005}
        triangles: 000000000300000001000000020000000300000000000000
        uv:
        - {x: .937501967, y: .384766608}
        - {x: .937501967, y: .451170892}
        - {x: .968748033, y: .384766608}
        - {x: .968748033, y: .451170892}
        colors:
        - {r: 1, g: 1, b: 1, a: 1}
        - {r: 1, g: 1, b: 1, a: 1}
        - {r: 1, g: 1, b: 1, a: 1}
        - {r: 1, g: 1, b: 1, a: 1}
  - Layers:
    - Variants:
      - vertices:
        - {x: -33.9989967, y: -8, z: 0}
        - {x: 34.0010033, y: -8, z: 0}
        - {x: -33.9989967, y: 0, z: 0}
        - {x: 34.0010033, y: 0, z: 0}
        triangles: 000000000300000001000000020000000300000000000000
        uv:
        - {x: .976564467, y: .294922858}
        - {x: .976564467, y: .361327142}
        - {x: .992185533, y: .294922858}
        - {x: .992185533, y: .361327142}
        colors:
        - {r: 1, g: 1, b: 1, a: 1}
        - {r: 1, g: 1, b: 1, a: 1}
        - {r: 1, g: 1, b: 1, a: 1}
        - {r: 1, g: 1, b: 1, a: 1}
    - Variants:
      - vertices:
        - {x: -33.9989967, y: -7.94648457, z: -.00100000005}
        - {x: 34.0010033, y: -7.94648457, z: -.00100000005}
        - {x: -33.9989967, y: 7.94999981, z: -.00100000005}
        - {x: 34.0010033, y: 7.94999981, z: -.00100000005}
        triangles: 000000000300000001000000020000000300000000000000
        uv:
        - {x: .937501967, y: .384766608}
        - {x: .937501967, y: .451170892}
        - {x: .968748033, y: .384766608}
        - {x: .968748033, y: .451170892}
        colors:
        - {r: 1, g: 1, b: 1, a: 1}
        - {r: 1, g: 1, b: 1, a: 1}
        - {r: 1, g: 1, b: 1, a: 1}
        - {r: 1, g: 1, b: 1, a: 1}
  - Layers:
    - Variants:
      - vertices:
        - {x: -33.9989967, y: -8, z: 0}
        - {x: 34.0010033, y: -8, z: 0}
        - {x: -33.9989967, y: 0, z: 0}
        - {x: 34.0010033, y: 0, z: 0}
        triangles: 000000000300000001000000020000000300000000000000
        uv:
        - {x: .976564467, y: .294922858}
        - {x: .976564467, y: .361327142}
        - {x: .992185533, y: .294922858}
        - {x: .992185533, y: .361327142}
        colors:
        - {r: 1, g: 1, b: 1, a: 1}
        - {r: 1, g: 1, b: 1, a: 1}
        - {r: 1, g: 1, b: 1, a: 1}
        - {r: 1, g: 1, b: 1, a: 1}
    - Variants:
      - vertices:
        - {x: -33.9989967, y: -7.94472694, z: -.00100000005}
        - {x: 34.0010033, y: -7.94472694, z: -.00100000005}
        - {x: -33.9989967, y: 7.89999962, z: -.00100000005}
        - {x: 34.0010033, y: 7.89999962, z: -.00100000005}
        triangles: 000000000300000001000000020000000300000000000000
        uv:
        - {x: .937501967, y: .384766608}
        - {x: .937501967, y: .451170892}
        - {x: .968748033, y: .384766608}
        - {x: .968748033, y: .451170892}
        colors:
        - {r: 1, g: 1, b: 1, a: 1}
        - {r: 1, g: 1, b: 1, a: 1}
        - {r: 1, g: 1, b: 1, a: 1}
        - {r: 1, g: 1, b: 1, a: 1}
  - Layers:
    - Variants:
      - vertices:
        - {x: -33.9989967, y: -8, z: 0}
        - {x: 34.0010033, y: -8, z: 0}
        - {x: -33.9989967, y: 0, z: 0}
        - {x: 34.0010033, y: 0, z: 0}
        triangles: 000000000300000001000000020000000300000000000000
        uv:
        - {x: .976564467, y: .294922858}
        - {x: .976564467, y: .361327142}
        - {x: .992185533, y: .294922858}
        - {x: .992185533, y: .361327142}
        colors:
        - {r: 1, g: 1, b: 1, a: 1}
        - {r: 1, g: 1, b: 1, a: 1}
        - {r: 1, g: 1, b: 1, a: 1}
        - {r: 1, g: 1, b: 1, a: 1}
    - Variants:
      - vertices:
        - {x: -33.9989967, y: -7.89296913, z: -.00100000005}
        - {x: 34.0010033, y: -7.89296913, z: -.00100000005}
        - {x: -33.9989967, y: 7.89999962, z: -.00100000005}
        - {x: 34.0010033, y: 7.89999962, z: -.00100000005}
        triangles: 000000000300000001000000020000000300000000000000
        uv:
        - {x: .937501967, y: .384766608}
        - {x: .937501967, y: .451170892}
        - {x: .968748033, y: .384766608}
        - {x: .968748033, y: .451170892}
        colors:
        - {r: 1, g: 1, b: 1, a: 1}
        - {r: 1, g: 1, b: 1, a: 1}
        - {r: 1, g: 1, b: 1, a: 1}
        - {r: 1, g: 1, b: 1, a: 1}
  - Layers:
    - Variants:
      - vertices:
        - {x: -33.9989967, y: -8, z: 0}
        - {x: 34.0010033, y: -8, z: 0}
        - {x: -33.9989967, y: 0, z: 0}
        - {x: 34.0010033, y: 0, z: 0}
        triangles: 000000000300000001000000020000000300000000000000
        uv:
        - {x: .976564467, y: .294922858}
        - {x: .976564467, y: .361327142}
        - {x: .992185533, y: .294922858}
        - {x: .992185533, y: .361327142}
        colors:
        - {r: 1, g: 1, b: 1, a: 1}
        - {r: 1, g: 1, b: 1, a: 1}
        - {r: 1, g: 1, b: 1, a: 1}
        - {r: 1, g: 1, b: 1, a: 1}
    - Variants:
      - vertices:
        - {x: -33.9989967, y: -7.89121103, z: -.00100000005}
        - {x: 34.0010033, y: -7.89121103, z: -.00100000005}
        - {x: -33.9989967, y: 7.8499999, z: -.00100000005}
        - {x: 34.0010033, y: 7.8499999, z: -.00100000005}
        triangles: 000000000300000001000000020000000300000000000000
        uv:
        - {x: .937501967, y: .384766608}
        - {x: .937501967, y: .451170892}
        - {x: .968748033, y: .384766608}
        - {x: .968748033, y: .451170892}
        colors:
        - {r: 1, g: 1, b: 1, a: 1}
        - {r: 1, g: 1, b: 1, a: 1}
        - {r: 1, g: 1, b: 1, a: 1}
        - {r: 1, g: 1, b: 1, a: 1}
  - Layers:
    - Variants:
      - vertices:
        - {x: -33.9989967, y: -8.05000019, z: 0}
        - {x: 34.0010033, y: -8.05000019, z: 0}
        - {x: -33.9989967, y: -.0500000045, z: 0}
        - {x: 34.0010033, y: -.0500000045, z: 0}
        triangles: 000000000300000001000000020000000300000000000000
        uv:
        - {x: .976564467, y: .294922858}
        - {x: .976564467, y: .361327142}
        - {x: .992185533, y: .294922858}
        - {x: .992185533, y: .361327142}
        colors:
        - {r: 1, g: 1, b: 1, a: 1}
        - {r: 1, g: 1, b: 1, a: 1}
        - {r: 1, g: 1, b: 1, a: 1}
        - {r: 1, g: 1, b: 1, a: 1}
    - Variants:
      - vertices:
        - {x: -33.9989967, y: -7.88945341, z: -.00100000005}
        - {x: 34.0010033, y: -7.88945341, z: -.00100000005}
        - {x: -33.9989967, y: 7.79999971, z: -.00100000005}
        - {x: 34.0010033, y: 7.79999971, z: -.00100000005}
        triangles: 000000000300000001000000020000000300000000000000
        uv:
        - {x: .937501967, y: .384766608}
        - {x: .937501967, y: .451170892}
        - {x: .968748033, y: .384766608}
        - {x: .968748033, y: .451170892}
        colors:
        - {r: 1, g: 1, b: 1, a: 1}
        - {r: 1, g: 1, b: 1, a: 1}
        - {r: 1, g: 1, b: 1, a: 1}
        - {r: 1, g: 1, b: 1, a: 1}
  - Layers:
    - Variants:
      - vertices:
        - {x: -33.9989967, y: -8.05000019, z: 0}
        - {x: 34.0010033, y: -8.05000019, z: 0}
        - {x: -33.9989967, y: -.0500000045, z: 0}
        - {x: 34.0010033, y: -.0500000045, z: 0}
        triangles: 000000000300000001000000020000000300000000000000
        uv:
        - {x: .976564467, y: .294922858}
        - {x: .976564467, y: .361327142}
        - {x: .992185533, y: .294922858}
        - {x: .992185533, y: .361327142}
        colors:
        - {r: 1, g: 1, b: 1, a: 1}
        - {r: 1, g: 1, b: 1, a: 1}
        - {r: 1, g: 1, b: 1, a: 1}
        - {r: 1, g: 1, b: 1, a: 1}
    - Variants:
      - vertices:
        - {x: -33.9989967, y: -7.88769531, z: -.00100000005}
        - {x: 34.0010033, y: -7.88769531, z: -.00100000005}
        - {x: -33.9989967, y: 7.75, z: -.00100000005}
        - {x: 34.0010033, y: 7.75, z: -.00100000005}
        triangles: 000000000300000001000000020000000300000000000000
        uv:
        - {x: .937501967, y: .384766608}
        - {x: .937501967, y: .451170892}
        - {x: .968748033, y: .384766608}
        - {x: .968748033, y: .451170892}
        colors:
        - {r: 1, g: 1, b: 1, a: 1}
        - {r: 1, g: 1, b: 1, a: 1}
        - {r: 1, g: 1, b: 1, a: 1}
        - {r: 1, g: 1, b: 1, a: 1}
  - Layers:
    - Variants:
      - vertices:
        - {x: -33.9989967, y: -8.10000038, z: 0}
        - {x: 34.0010033, y: -8.10000038, z: 0}
        - {x: -33.9989967, y: -.100000009, z: 0}
        - {x: 34.0010033, y: -.100000009, z: 0}
        triangles: 000000000300000001000000020000000300000000000000
        uv:
        - {x: .976564467, y: .294922858}
        - {x: .976564467, y: .361327142}
        - {x: .992185533, y: .294922858}
        - {x: .992185533, y: .361327142}
        colors:
        - {r: 1, g: 1, b: 1, a: 1}
        - {r: 1, g: 1, b: 1, a: 1}
        - {r: 1, g: 1, b: 1, a: 1}
        - {r: 1, g: 1, b: 1, a: 1}
    - Variants:
      - vertices:
        - {x: -33.9989967, y: -7.88618183, z: -.00100000005}
        - {x: 34.0010033, y: -7.88618183, z: -.00100000005}
        - {x: -33.9989967, y: 7.69999981, z: -.00100000005}
        - {x: 34.0010033, y: 7.69999981, z: -.00100000005}
        triangles: 000000000300000001000000020000000300000000000000
        uv:
        - {x: .937501967, y: .384766608}
        - {x: .937501967, y: .451170892}
        - {x: .968748033, y: .384766608}
        - {x: .968748033, y: .451170892}
        colors:
        - {r: 1, g: 1, b: 1, a: 1}
        - {r: 1, g: 1, b: 1, a: 1}
        - {r: 1, g: 1, b: 1, a: 1}
        - {r: 1, g: 1, b: 1, a: 1}
  - Layers:
    - Variants:
      - vertices:
        - {x: -33.9989967, y: -8.14900017, z: 0}
        - {x: 34.0010033, y: -8.14900017, z: 0}
        - {x: -33.9989967, y: -.149000004, z: 0}
        - {x: 34.0010033, y: -.149000004, z: 0}
        triangles: 000000000300000001000000020000000300000000000000
        uv:
        - {x: .976564467, y: .294922858}
        - {x: .976564467, y: .361327142}
        - {x: .992185533, y: .294922858}
        - {x: .992185533, y: .361327142}
        colors:
        - {r: 1, g: 1, b: 1, a: 1}
        - {r: 1, g: 1, b: 1, a: 1}
        - {r: 1, g: 1, b: 1, a: 1}
        - {r: 1, g: 1, b: 1, a: 1}
    - Variants:
      - vertices:
        - {x: -33.9989967, y: -7.88442421, z: -.00100000005}
        - {x: 34.0010033, y: -7.88442421, z: -.00100000005}
        - {x: -33.9989967, y: 7.64999962, z: -.00100000005}
        - {x: 34.0010033, y: 7.64999962, z: -.00100000005}
        triangles: 000000000300000001000000020000000300000000000000
        uv:
        - {x: .937501967, y: .384766608}
        - {x: .937501967, y: .451170892}
        - {x: .968748033, y: .384766608}
        - {x: .968748033, y: .451170892}
        colors:
        - {r: 1, g: 1, b: 1, a: 1}
        - {r: 1, g: 1, b: 1, a: 1}
        - {r: 1, g: 1, b: 1, a: 1}
        - {r: 1, g: 1, b: 1, a: 1}
  - Layers:
    - Variants:
      - vertices:
        - {x: -33.9989967, y: -8.19900036, z: 0}
        - {x: 34.0010033, y: -8.19900036, z: 0}
        - {x: -33.9989967, y: -.199000001, z: 0}
        - {x: 34.0010033, y: -.199000001, z: 0}
        triangles: 000000000300000001000000020000000300000000000000
        uv:
        - {x: .976564467, y: .294922858}
        - {x: .976564467, y: .361327142}
        - {x: .992185533, y: .294922858}
        - {x: .992185533, y: .361327142}
        colors:
        - {r: 1, g: 1, b: 1, a: 1}
        - {r: 1, g: 1, b: 1, a: 1}
        - {r: 1, g: 1, b: 1, a: 1}
        - {r: 1, g: 1, b: 1, a: 1}
    - Variants:
      - vertices:
        - {x: -33.9989967, y: -7.88266611, z: -.00100000005}
        - {x: 34.0010033, y: -7.88266611, z: -.00100000005}
        - {x: -33.9989967, y: 7.5999999, z: -.00100000005}
        - {x: 34.0010033, y: 7.5999999, z: -.00100000005}
        triangles: 000000000300000001000000020000000300000000000000
        uv:
        - {x: .937501967, y: .384766608}
        - {x: .937501967, y: .451170892}
        - {x: .968748033, y: .384766608}
        - {x: .968748033, y: .451170892}
        colors:
        - {r: 1, g: 1, b: 1, a: 1}
        - {r: 1, g: 1, b: 1, a: 1}
        - {r: 1, g: 1, b: 1, a: 1}
        - {r: 1, g: 1, b: 1, a: 1}
  - Layers:
    - Variants:
      - vertices:
        - {x: -33.9989967, y: -8.24900055, z: 0}
        - {x: 34.0010033, y: -8.24900055, z: 0}
        - {x: -33.9989967, y: -.249000013, z: 0}
        - {x: 34.0010033, y: -.249000013, z: 0}
        triangles: 000000000300000001000000020000000300000000000000
        uv:
        - {x: .976564467, y: .294922858}
        - {x: .976564467, y: .361327142}
        - {x: .992185533, y: .294922858}
        - {x: .992185533, y: .361327142}
        colors:
        - {r: 1, g: 1, b: 1, a: 1}
        - {r: 1, g: 1, b: 1, a: 1}
        - {r: 1, g: 1, b: 1, a: 1}
        - {r: 1, g: 1, b: 1, a: 1}
    - Variants:
      - vertices:
        - {x: -33.9989967, y: -7.9309082, z: -.00100000005}
        - {x: 34.0010033, y: -7.9309082, z: -.00100000005}
        - {x: -33.9989967, y: 7.5, z: -.00100000005}
        - {x: 34.0010033, y: 7.5, z: -.00100000005}
        triangles: 000000000300000001000000020000000300000000000000
        uv:
        - {x: .937501967, y: .384766608}
        - {x: .937501967, y: .451170892}
        - {x: .968748033, y: .384766608}
        - {x: .968748033, y: .451170892}
        colors:
        - {r: 1, g: 1, b: 1, a: 1}
        - {r: 1, g: 1, b: 1, a: 1}
        - {r: 1, g: 1, b: 1, a: 1}
        - {r: 1, g: 1, b: 1, a: 1}
  - Layers:
    - Variants:
      - vertices:
        - {x: -33.9989967, y: -8.29899979, z: 0}
        - {x: 34.0010033, y: -8.29899979, z: 0}
        - {x: -33.9989967, y: -.299000025, z: 0}
        - {x: 34.0010033, y: -.299000025, z: 0}
        triangles: 000000000300000001000000020000000300000000000000
        uv:
        - {x: .976564467, y: .294922858}
        - {x: .976564467, y: .361327142}
        - {x: .992185533, y: .294922858}
        - {x: .992185533, y: .361327142}
        colors:
        - {r: 1, g: 1, b: 1, a: 1}
        - {r: 1, g: 1, b: 1, a: 1}
        - {r: 1, g: 1, b: 1, a: 1}
        - {r: 1, g: 1, b: 1, a: 1}
    - Variants:
      - vertices:
        - {x: -33.9989967, y: -7.92915058, z: -.00100000005}
        - {x: 34.0010033, y: -7.92915058, z: -.00100000005}
        - {x: -33.9989967, y: 7.44999981, z: -.00100000005}
        - {x: 34.0010033, y: 7.44999981, z: -.00100000005}
        triangles: 000000000300000001000000020000000300000000000000
        uv:
        - {x: .937501967, y: .384766608}
        - {x: .937501967, y: .451170892}
        - {x: .968748033, y: .384766608}
        - {x: .968748033, y: .451170892}
        colors:
        - {r: 1, g: 1, b: 1, a: 1}
        - {r: 1, g: 1, b: 1, a: 1}
        - {r: 1, g: 1, b: 1, a: 1}
        - {r: 1, g: 1, b: 1, a: 1}
  - Layers:
    - Variants:
      - vertices:
        - {x: -33.9989967, y: -8.39900017, z: 0}
        - {x: 34.0010033, y: -8.39900017, z: 0}
        - {x: -33.9989967, y: -.398999989, z: 0}
        - {x: 34.0010033, y: -.398999989, z: 0}
        triangles: 000000000300000001000000020000000300000000000000
        uv:
        - {x: .976564467, y: .294922858}
        - {x: .976564467, y: .361327142}
        - {x: .992185533, y: .294922858}
        - {x: .992185533, y: .361327142}
        colors:
        - {r: 1, g: 1, b: 1, a: 1}
        - {r: 1, g: 1, b: 1, a: 1}
        - {r: 1, g: 1, b: 1, a: 1}
        - {r: 1, g: 1, b: 1, a: 1}
    - Variants:
      - vertices:
        - {x: -33.9989967, y: -7.97739267, z: -.00100000005}
        - {x: 34.0010033, y: -7.97739267, z: -.00100000005}
        - {x: -33.9989967, y: 7.3499999, z: -.00100000005}
        - {x: 34.0010033, y: 7.3499999, z: -.00100000005}
        triangles: 000000000300000001000000020000000300000000000000
        uv:
        - {x: .937501967, y: .384766608}
        - {x: .937501967, y: .451170892}
        - {x: .968748033, y: .384766608}
        - {x: .968748033, y: .451170892}
        colors:
        - {r: 1, g: 1, b: 1, a: 1}
        - {r: 1, g: 1, b: 1, a: 1}
        - {r: 1, g: 1, b: 1, a: 1}
        - {r: 1, g: 1, b: 1, a: 1}
  - Layers:
    - Variants:
      - vertices:
        - {x: -33.9989967, y: -8.44900036, z: 0}
        - {x: 34.0010033, y: -8.44900036, z: 0}
        - {x: -33.9989967, y: -.449000001, z: 0}
        - {x: 34.0010033, y: -.449000001, z: 0}
        triangles: 000000000300000001000000020000000300000000000000
        uv:
        - {x: .976564467, y: .294922858}
        - {x: .976564467, y: .361327142}
        - {x: .992185533, y: .294922858}
        - {x: .992185533, y: .361327142}
        colors:
        - {r: 1, g: 1, b: 1, a: 1}
        - {r: 1, g: 1, b: 1, a: 1}
        - {r: 1, g: 1, b: 1, a: 1}
        - {r: 1, g: 1, b: 1, a: 1}
    - Variants:
      - vertices:
        - {x: -33.9989967, y: -7.97563505, z: -.00100000005}
        - {x: 34.0010033, y: -7.97563505, z: -.00100000005}
        - {x: -33.9989967, y: 7.29999971, z: -.00100000005}
        - {x: 34.0010033, y: 7.29999971, z: -.00100000005}
        triangles: 000000000300000001000000020000000300000000000000
        uv:
        - {x: .937501967, y: .384766608}
        - {x: .937501967, y: .451170892}
        - {x: .968748033, y: .384766608}
        - {x: .968748033, y: .451170892}
        colors:
        - {r: 1, g: 1, b: 1, a: 1}
        - {r: 1, g: 1, b: 1, a: 1}
        - {r: 1, g: 1, b: 1, a: 1}
        - {r: 1, g: 1, b: 1, a: 1}
  - Layers:
    - Variants:
      - vertices:
        - {x: -33.9989967, y: -8.54899979, z: 0}
        - {x: 34.0010033, y: -8.54899979, z: 0}
        - {x: -33.9989967, y: -.549000025, z: 0}
        - {x: 34.0010033, y: -.549000025, z: 0}
        triangles: 000000000300000001000000020000000300000000000000
        uv:
        - {x: .976564467, y: .294922858}
        - {x: .976564467, y: .361327142}
        - {x: .992185533, y: .294922858}
        - {x: .992185533, y: .361327142}
        colors:
        - {r: 1, g: 1, b: 1, a: 1}
        - {r: 1, g: 1, b: 1, a: 1}
        - {r: 1, g: 1, b: 1, a: 1}
        - {r: 1, g: 1, b: 1, a: 1}
    - Variants:
      - vertices:
        - {x: -33.9989967, y: -8.02412128, z: -.00100000005}
        - {x: 34.0010033, y: -8.02412128, z: -.00100000005}
        - {x: -33.9989967, y: 7.19999981, z: -.00100000005}
        - {x: 34.0010033, y: 7.19999981, z: -.00100000005}
        triangles: 000000000300000001000000020000000300000000000000
        uv:
        - {x: .937501967, y: .384766608}
        - {x: .937501967, y: .451170892}
        - {x: .968748033, y: .384766608}
        - {x: .968748033, y: .451170892}
        colors:
        - {r: 1, g: 1, b: 1, a: 1}
        - {r: 1, g: 1, b: 1, a: 1}
        - {r: 1, g: 1, b: 1, a: 1}
        - {r: 1, g: 1, b: 1, a: 1}
  - Layers:
    - Variants:
      - vertices:
        - {x: -33.9989967, y: -8.64900017, z: 0}
        - {x: 34.0010033, y: -8.64900017, z: 0}
        - {x: -33.9989967, y: -.648999989, z: 0}
        - {x: 34.0010033, y: -.648999989, z: 0}
        triangles: 000000000300000001000000020000000300000000000000
        uv:
        - {x: .976564467, y: .294922858}
        - {x: .976564467, y: .361327142}
        - {x: .992185533, y: .294922858}
        - {x: .992185533, y: .361327142}
        colors:
        - {r: 1, g: 1, b: 1, a: 1}
        - {r: 1, g: 1, b: 1, a: 1}
        - {r: 1, g: 1, b: 1, a: 1}
        - {r: 1, g: 1, b: 1, a: 1}
    - Variants:
      - vertices:
        - {x: -33.9989967, y: -8.0723629, z: -.00100000005}
        - {x: 34.0010033, y: -8.0723629, z: -.00100000005}
        - {x: -33.9989967, y: 7.0999999, z: -.00100000005}
        - {x: 34.0010033, y: 7.0999999, z: -.00100000005}
        triangles: 000000000300000001000000020000000300000000000000
        uv:
        - {x: .937501967, y: .384766608}
        - {x: .937501967, y: .451170892}
        - {x: .968748033, y: .384766608}
        - {x: .968748033, y: .451170892}
        colors:
        - {r: 1, g: 1, b: 1, a: 1}
        - {r: 1, g: 1, b: 1, a: 1}
        - {r: 1, g: 1, b: 1, a: 1}
        - {r: 1, g: 1, b: 1, a: 1}
  - Layers:
    - Variants:
      - vertices:
        - {x: -33.9989967, y: -8.74900055, z: 0}
        - {x: 34.0010033, y: -8.74900055, z: 0}
        - {x: -33.9989967, y: -.749000013, z: 0}
        - {x: 34.0010033, y: -.749000013, z: 0}
        triangles: 000000000300000001000000020000000300000000000000
        uv:
        - {x: .976564467, y: .294922858}
        - {x: .976564467, y: .361327142}
        - {x: .992185533, y: .294922858}
        - {x: .992185533, y: .361327142}
        colors:
        - {r: 1, g: 1, b: 1, a: 1}
        - {r: 1, g: 1, b: 1, a: 1}
        - {r: 1, g: 1, b: 1, a: 1}
        - {r: 1, g: 1, b: 1, a: 1}
    - Variants:
      - vertices:
        - {x: -33.9989967, y: -8.12060547, z: -.00100000005}
        - {x: 34.0010033, y: -8.12060547, z: -.00100000005}
        - {x: -33.9989967, y: 7, z: -.00100000005}
        - {x: 34.0010033, y: 7, z: -.00100000005}
        triangles: 000000000300000001000000020000000300000000000000
        uv:
        - {x: .937501967, y: .384766608}
        - {x: .937501967, y: .451170892}
        - {x: .968748033, y: .384766608}
        - {x: .968748033, y: .451170892}
        colors:
        - {r: 1, g: 1, b: 1, a: 1}
        - {r: 1, g: 1, b: 1, a: 1}
        - {r: 1, g: 1, b: 1, a: 1}
        - {r: 1, g: 1, b: 1, a: 1}
  - Layers:
    - Variants:
      - vertices:
        - {x: -33.9989967, y: -8.84899998, z: 0}
        - {x: 34.0010033, y: -8.84899998, z: 0}
        - {x: -33.9989967, y: -.848999977, z: 0}
        - {x: 34.0010033, y: -.848999977, z: 0}
        triangles: 000000000300000001000000020000000300000000000000
        uv:
        - {x: .976564467, y: .294922858}
        - {x: .976564467, y: .361327142}
        - {x: .992185533, y: .294922858}
        - {x: .992185533, y: .361327142}
        colors:
        - {r: 1, g: 1, b: 1, a: 1}
        - {r: 1, g: 1, b: 1, a: 1}
        - {r: 1, g: 1, b: 1, a: 1}
        - {r: 1, g: 1, b: 1, a: 1}
    - Variants:
      - vertices:
        - {x: -33.9989967, y: -8.16884804, z: -.00100000005}
        - {x: 34.0010033, y: -8.16884804, z: -.00100000005}
        - {x: -33.9989967, y: 6.89999962, z: -.00100000005}
        - {x: 34.0010033, y: 6.89999962, z: -.00100000005}
        triangles: 000000000300000001000000020000000300000000000000
        uv:
        - {x: .937501967, y: .384766608}
        - {x: .937501967, y: .451170892}
        - {x: .968748033, y: .384766608}
        - {x: .968748033, y: .451170892}
        colors:
        - {r: 1, g: 1, b: 1, a: 1}
        - {r: 1, g: 1, b: 1, a: 1}
        - {r: 1, g: 1, b: 1, a: 1}
        - {r: 1, g: 1, b: 1, a: 1}
  - Layers:
    - Variants:
      - vertices:
        - {x: -33.9989967, y: -8.94900036, z: 0}
        - {x: 34.0010033, y: -8.94900036, z: 0}
        - {x: -33.9989967, y: -.949000001, z: 0}
        - {x: 34.0010033, y: -.949000001, z: 0}
        triangles: 000000000300000001000000020000000300000000000000
        uv:
        - {x: .976564467, y: .294922858}
        - {x: .976564467, y: .361327142}
        - {x: .992185533, y: .294922858}
        - {x: .992185533, y: .361327142}
        colors:
        - {r: 1, g: 1, b: 1, a: 1}
        - {r: 1, g: 1, b: 1, a: 1}
        - {r: 1, g: 1, b: 1, a: 1}
        - {r: 1, g: 1, b: 1, a: 1}
    - Variants:
      - vertices:
        - {x: -33.9989967, y: -8.21709061, z: -.00100000005}
        - {x: 34.0010033, y: -8.21709061, z: -.00100000005}
        - {x: -33.9989967, y: 6.79999971, z: -.00100000005}
        - {x: 34.0010033, y: 6.79999971, z: -.00100000005}
        triangles: 000000000300000001000000020000000300000000000000
        uv:
        - {x: .937501967, y: .384766608}
        - {x: .937501967, y: .451170892}
        - {x: .968748033, y: .384766608}
        - {x: .968748033, y: .451170892}
        colors:
        - {r: 1, g: 1, b: 1, a: 1}
        - {r: 1, g: 1, b: 1, a: 1}
        - {r: 1, g: 1, b: 1, a: 1}
        - {r: 1, g: 1, b: 1, a: 1}
  - Layers:
    - Variants:
      - vertices:
        - {x: -33.9989967, y: -9.09899998, z: 0}
        - {x: 34.0010033, y: -9.09899998, z: 0}
        - {x: -33.9989967, y: -1.09899998, z: 0}
        - {x: 34.0010033, y: -1.09899998, z: 0}
        triangles: 000000000300000001000000020000000300000000000000
        uv:
        - {x: .976564467, y: .294922858}
        - {x: .976564467, y: .361327142}
        - {x: .992185533, y: .294922858}
        - {x: .992185533, y: .361327142}
        colors:
        - {r: 1, g: 1, b: 1, a: 1}
        - {r: 1, g: 1, b: 1, a: 1}
        - {r: 1, g: 1, b: 1, a: 1}
        - {r: 1, g: 1, b: 1, a: 1}
    - Variants:
      - vertices:
        - {x: -33.9989967, y: -8.31533241, z: -.00100000005}
        - {x: 34.0010033, y: -8.31533241, z: -.00100000005}
        - {x: -33.9989967, y: 6.64999962, z: -.00100000005}
        - {x: 34.0010033, y: 6.64999962, z: -.00100000005}
        triangles: 000000000300000001000000020000000300000000000000
        uv:
        - {x: .937501967, y: .384766608}
        - {x: .937501967, y: .451170892}
        - {x: .968748033, y: .384766608}
        - {x: .968748033, y: .451170892}
        colors:
        - {r: 1, g: 1, b: 1, a: 1}
        - {r: 1, g: 1, b: 1, a: 1}
        - {r: 1, g: 1, b: 1, a: 1}
        - {r: 1, g: 1, b: 1, a: 1}
  - Layers:
    - Variants:
      - vertices:
        - {x: -33.9989967, y: -9.24900055, z: 0}
        - {x: 34.0010033, y: -9.24900055, z: 0}
        - {x: -33.9989967, y: -1.24900007, z: 0}
        - {x: 34.0010033, y: -1.24900007, z: 0}
        triangles: 000000000300000001000000020000000300000000000000
        uv:
        - {x: .976564467, y: .294922858}
        - {x: .976564467, y: .361327142}
        - {x: .992185533, y: .294922858}
        - {x: .992185533, y: .361327142}
        colors:
        - {r: 1, g: 1, b: 1, a: 1}
        - {r: 1, g: 1, b: 1, a: 1}
        - {r: 1, g: 1, b: 1, a: 1}
        - {r: 1, g: 1, b: 1, a: 1}
    - Variants:
      - vertices:
        - {x: -33.9989967, y: -8.36357498, z: -.00100000005}
        - {x: 34.0010033, y: -8.36357498, z: -.00100000005}
        - {x: -33.9989967, y: 6.54999971, z: -.00100000005}
        - {x: 34.0010033, y: 6.54999971, z: -.00100000005}
        triangles: 000000000300000001000000020000000300000000000000
        uv:
        - {x: .937501967, y: .384766608}
        - {x: .937501967, y: .451170892}
        - {x: .968748033, y: .384766608}
        - {x: .968748033, y: .451170892}
        colors:
        - {r: 1, g: 1, b: 1, a: 1}
        - {r: 1, g: 1, b: 1, a: 1}
        - {r: 1, g: 1, b: 1, a: 1}
        - {r: 1, g: 1, b: 1, a: 1}
  - Layers:
    - Variants:
      - vertices:
        - {x: -33.9989967, y: -9.34899998, z: 0}
        - {x: 34.0010033, y: -9.34899998, z: 0}
        - {x: -33.9989967, y: -1.3490001, z: 0}
        - {x: 34.0010033, y: -1.3490001, z: 0}
        triangles: 000000000300000001000000020000000300000000000000
        uv:
        - {x: .976564467, y: .294922858}
        - {x: .976564467, y: .361327142}
        - {x: .992185533, y: .294922858}
        - {x: .992185533, y: .361327142}
        colors:
        - {r: 1, g: 1, b: 1, a: 1}
        - {r: 1, g: 1, b: 1, a: 1}
        - {r: 1, g: 1, b: 1, a: 1}
        - {r: 1, g: 1, b: 1, a: 1}
    - Variants:
      - vertices:
        - {x: -33.9989967, y: -8.46206093, z: -.00100000005}
        - {x: 34.0010033, y: -8.46206093, z: -.00100000005}
        - {x: -33.9989967, y: 6.39999962, z: -.00100000005}
        - {x: 34.0010033, y: 6.39999962, z: -.00100000005}
        triangles: 000000000300000001000000020000000300000000000000
        uv:
        - {x: .937501967, y: .384766608}
        - {x: .937501967, y: .451170892}
        - {x: .968748033, y: .384766608}
        - {x: .968748033, y: .451170892}
        colors:
        - {r: 1, g: 1, b: 1, a: 1}
        - {r: 1, g: 1, b: 1, a: 1}
        - {r: 1, g: 1, b: 1, a: 1}
        - {r: 1, g: 1, b: 1, a: 1}
  - Layers:
    - Variants:
      - vertices:
        - {x: -33.9989967, y: -9.49900055, z: 0}
        - {x: 34.0010033, y: -9.49900055, z: 0}
        - {x: -33.9989967, y: -1.49900007, z: 0}
        - {x: 34.0010033, y: -1.49900007, z: 0}
        triangles: 000000000300000001000000020000000300000000000000
        uv:
        - {x: .976564467, y: .294922858}
        - {x: .976564467, y: .361327142}
        - {x: .992185533, y: .294922858}
        - {x: .992185533, y: .361327142}
        colors:
        - {r: 1, g: 1, b: 1, a: 1}
        - {r: 1, g: 1, b: 1, a: 1}
        - {r: 1, g: 1, b: 1, a: 1}
        - {r: 1, g: 1, b: 1, a: 1}
    - Variants:
      - vertices:
        - {x: -33.9989967, y: -8.56030273, z: -.00100000005}
        - {x: 34.0010033, y: -8.56030273, z: -.00100000005}
        - {x: -33.9989967, y: 6.25, z: -.00100000005}
        - {x: 34.0010033, y: 6.25, z: -.00100000005}
        triangles: 000000000300000001000000020000000300000000000000
        uv:
        - {x: .937501967, y: .384766608}
        - {x: .937501967, y: .451170892}
        - {x: .968748033, y: .384766608}
        - {x: .968748033, y: .451170892}
        colors:
        - {r: 1, g: 1, b: 1, a: 1}
        - {r: 1, g: 1, b: 1, a: 1}
        - {r: 1, g: 1, b: 1, a: 1}
        - {r: 1, g: 1, b: 1, a: 1}
  - Layers:
    - Variants:
      - vertices:
        - {x: -33.9989967, y: -9.69900036, z: 0}
        - {x: 34.0010033, y: -9.69900036, z: 0}
        - {x: -33.9989967, y: -1.699, z: 0}
        - {x: 34.0010033, y: -1.699, z: 0}
        triangles: 000000000300000001000000020000000300000000000000
        uv:
        - {x: .976564467, y: .294922858}
        - {x: .976564467, y: .361327142}
        - {x: .992185533, y: .294922858}
        - {x: .992185533, y: .361327142}
        colors:
        - {r: 1, g: 1, b: 1, a: 1}
        - {r: 1, g: 1, b: 1, a: 1}
        - {r: 1, g: 1, b: 1, a: 1}
        - {r: 1, g: 1, b: 1, a: 1}
    - Variants:
      - vertices:
        - {x: -33.9989967, y: -8.65854454, z: -.00100000005}
        - {x: 34.0010033, y: -8.65854454, z: -.00100000005}
        - {x: -33.9989967, y: 6.0999999, z: -.00100000005}
        - {x: 34.0010033, y: 6.0999999, z: -.00100000005}
        triangles: 000000000300000001000000020000000300000000000000
        uv:
        - {x: .937501967, y: .384766608}
        - {x: .937501967, y: .451170892}
        - {x: .968748033, y: .384766608}
        - {x: .968748033, y: .451170892}
        colors:
        - {r: 1, g: 1, b: 1, a: 1}
        - {r: 1, g: 1, b: 1, a: 1}
        - {r: 1, g: 1, b: 1, a: 1}
        - {r: 1, g: 1, b: 1, a: 1}
  - Layers:
    - Variants:
      - vertices:
        - {x: -33.9989967, y: -9.84899998, z: 0}
        - {x: 34.0010033, y: -9.84899998, z: 0}
        - {x: -33.9989967, y: -1.8490001, z: 0}
        - {x: 34.0010033, y: -1.8490001, z: 0}
        triangles: 000000000300000001000000020000000300000000000000
        uv:
        - {x: .976564467, y: .294922858}
        - {x: .976564467, y: .361327142}
        - {x: .992185533, y: .294922858}
        - {x: .992185533, y: .361327142}
        colors:
        - {r: 1, g: 1, b: 1, a: 1}
        - {r: 1, g: 1, b: 1, a: 1}
        - {r: 1, g: 1, b: 1, a: 1}
        - {r: 1, g: 1, b: 1, a: 1}
    - Variants:
      - vertices:
        - {x: -33.9989967, y: -8.70678711, z: -.00100000005}
        - {x: 34.0010033, y: -8.70678711, z: -.00100000005}
        - {x: -33.9989967, y: 6, z: -.00100000005}
        - {x: 34.0010033, y: 6, z: -.00100000005}
        triangles: 000000000300000001000000020000000300000000000000
        uv:
        - {x: .937501967, y: .384766608}
        - {x: .937501967, y: .451170892}
        - {x: .968748033, y: .384766608}
        - {x: .968748033, y: .451170892}
        colors:
        - {r: 1, g: 1, b: 1, a: 1}
        - {r: 1, g: 1, b: 1, a: 1}
        - {r: 1, g: 1, b: 1, a: 1}
        - {r: 1, g: 1, b: 1, a: 1}
  - Layers:
    - Variants:
      - vertices:
        - {x: -33.9989967, y: -10.0489998, z: 0}
        - {x: 34.0010033, y: -10.0489998, z: 0}
        - {x: -33.9989967, y: -2.04900002, z: 0}
        - {x: 34.0010033, y: -2.04900002, z: 0}
        triangles: 000000000300000001000000020000000300000000000000
        uv:
        - {x: .976564467, y: .294922858}
        - {x: .976564467, y: .361327142}
        - {x: .992185533, y: .294922858}
        - {x: .992185533, y: .361327142}
        colors:
        - {r: 1, g: 1, b: 1, a: 1}
        - {r: 1, g: 1, b: 1, a: 1}
        - {r: 1, g: 1, b: 1, a: 1}
        - {r: 1, g: 1, b: 1, a: 1}
    - Variants:
      - vertices:
        - {x: -33.9989967, y: -8.85503006, z: -.00100000005}
        - {x: 34.0010033, y: -8.85503006, z: -.00100000005}
        - {x: -33.9989967, y: 5.79999971, z: -.00100000005}
        - {x: 34.0010033, y: 5.79999971, z: -.00100000005}
        triangles: 000000000300000001000000020000000300000000000000
        uv:
        - {x: .937501967, y: .384766608}
        - {x: .937501967, y: .451170892}
        - {x: .968748033, y: .384766608}
        - {x: .968748033, y: .451170892}
        colors:
        - {r: 1, g: 1, b: 1, a: 1}
        - {r: 1, g: 1, b: 1, a: 1}
        - {r: 1, g: 1, b: 1, a: 1}
        - {r: 1, g: 1, b: 1, a: 1}
  - Layers:
    - Variants:
      - vertices:
        - {x: -33.9989967, y: -10.1990004, z: 0}
        - {x: 34.0010033, y: -10.1990004, z: 0}
        - {x: -33.9989967, y: -2.19899988, z: 0}
        - {x: 34.0010033, y: -2.19899988, z: 0}
        triangles: 000000000300000001000000020000000300000000000000
        uv:
        - {x: .976564467, y: .294922858}
        - {x: .976564467, y: .361327142}
        - {x: .992185533, y: .294922858}
        - {x: .992185533, y: .361327142}
        colors:
        - {r: 1, g: 1, b: 1, a: 1}
        - {r: 1, g: 1, b: 1, a: 1}
        - {r: 1, g: 1, b: 1, a: 1}
        - {r: 1, g: 1, b: 1, a: 1}
    - Variants:
      - vertices:
        - {x: -33.9989967, y: -8.90327168, z: -.00100000005}
        - {x: 34.0010033, y: -8.90327168, z: -.00100000005}
        - {x: -33.9989967, y: 5.69999981, z: -.00100000005}
        - {x: 34.0010033, y: 5.69999981, z: -.00100000005}
        triangles: 000000000300000001000000020000000300000000000000
        uv:
        - {x: .937501967, y: .384766608}
        - {x: .937501967, y: .451170892}
        - {x: .968748033, y: .384766608}
        - {x: .968748033, y: .451170892}
        colors:
        - {r: 1, g: 1, b: 1, a: 1}
        - {r: 1, g: 1, b: 1, a: 1}
        - {r: 1, g: 1, b: 1, a: 1}
        - {r: 1, g: 1, b: 1, a: 1}
  - Layers:
    - Variants:
      - vertices:
        - {x: -33.9989967, y: -10.3990002, z: 0}
        - {x: 34.0010033, y: -10.3990002, z: 0}
        - {x: -33.9989967, y: -2.39899993, z: 0}
        - {x: 34.0010033, y: -2.39899993, z: 0}
        triangles: 000000000300000001000000020000000300000000000000
        uv:
        - {x: .976564467, y: .294922858}
        - {x: .976564467, y: .361327142}
        - {x: .992185533, y: .294922858}
        - {x: .992185533, y: .361327142}
        colors:
        - {r: 1, g: 1, b: 1, a: 1}
        - {r: 1, g: 1, b: 1, a: 1}
        - {r: 1, g: 1, b: 1, a: 1}
        - {r: 1, g: 1, b: 1, a: 1}
    - Variants:
      - vertices:
        - {x: -33.9989967, y: -9.05151367, z: -.00100000005}
        - {x: 34.0010033, y: -9.05151367, z: -.00100000005}
        - {x: -33.9989967, y: 5.5, z: -.00100000005}
        - {x: 34.0010033, y: 5.5, z: -.00100000005}
        triangles: 000000000300000001000000020000000300000000000000
        uv:
        - {x: .937501967, y: .384766608}
        - {x: .937501967, y: .451170892}
        - {x: .968748033, y: .384766608}
        - {x: .968748033, y: .451170892}
        colors:
        - {r: 1, g: 1, b: 1, a: 1}
        - {r: 1, g: 1, b: 1, a: 1}
        - {r: 1, g: 1, b: 1, a: 1}
        - {r: 1, g: 1, b: 1, a: 1}
  - Layers:
    - Variants:
      - vertices:
        - {x: -33.9989967, y: -10.599, z: 0}
        - {x: 34.0010033, y: -10.599, z: 0}
        - {x: -33.9989967, y: -2.59899998, z: 0}
        - {x: 34.0010033, y: -2.59899998, z: 0}
        triangles: 000000000300000001000000020000000300000000000000
        uv:
        - {x: .976564467, y: .294922858}
        - {x: .976564467, y: .361327142}
        - {x: .992185533, y: .294922858}
        - {x: .992185533, y: .361327142}
        colors:
        - {r: 1, g: 1, b: 1, a: 1}
        - {r: 1, g: 1, b: 1, a: 1}
        - {r: 1, g: 1, b: 1, a: 1}
        - {r: 1, g: 1, b: 1, a: 1}
    - Variants:
      - vertices:
        - {x: -33.9989967, y: -9.10000038, z: -.00100000005}
        - {x: 34.0010033, y: -9.10000038, z: -.00100000005}
        - {x: -33.9989967, y: 5.39999962, z: -.00100000005}
        - {x: 34.0010033, y: 5.39999962, z: -.00100000005}
        triangles: 000000000300000001000000020000000300000000000000
        uv:
        - {x: .937501967, y: .384766608}
        - {x: .937501967, y: .451170892}
        - {x: .968748033, y: .384766608}
        - {x: .968748033, y: .451170892}
        colors:
        - {r: 1, g: 1, b: 1, a: 1}
        - {r: 1, g: 1, b: 1, a: 1}
        - {r: 1, g: 1, b: 1, a: 1}
        - {r: 1, g: 1, b: 1, a: 1}
  - Layers:
    - Variants:
      - vertices:
        - {x: -33.9989967, y: -10.7989998, z: 0}
        - {x: 34.0010033, y: -10.7989998, z: 0}
        - {x: -33.9989967, y: -2.79900002, z: 0}
        - {x: 34.0010033, y: -2.79900002, z: 0}
        triangles: 000000000300000001000000020000000300000000000000
        uv:
        - {x: .976564467, y: .294922858}
        - {x: .976564467, y: .361327142}
        - {x: .992185533, y: .294922858}
        - {x: .992185533, y: .361327142}
        colors:
        - {r: 1, g: 1, b: 1, a: 1}
        - {r: 1, g: 1, b: 1, a: 1}
        - {r: 1, g: 1, b: 1, a: 1}
        - {r: 1, g: 1, b: 1, a: 1}
    - Variants:
      - vertices:
        - {x: -33.9989967, y: -9.24980545, z: -.00100000005}
        - {x: 34.0010033, y: -9.24980545, z: -.00100000005}
        - {x: -33.9989967, y: 5.29999971, z: -.00100000005}
        - {x: 34.0010033, y: 5.29999971, z: -.00100000005}
        triangles: 000000000300000001000000020000000300000000000000
        uv:
        - {x: .937501967, y: .384766608}
        - {x: .937501967, y: .451170892}
        - {x: .968748033, y: .384766608}
        - {x: .968748033, y: .451170892}
        colors:
        - {r: 1, g: 1, b: 1, a: 1}
        - {r: 1, g: 1, b: 1, a: 1}
        - {r: 1, g: 1, b: 1, a: 1}
        - {r: 1, g: 1, b: 1, a: 1}
  - Layers:
    - Variants:
      - vertices:
        - {x: -33.9989967, y: -10.9490004, z: 0}
        - {x: 34.0010033, y: -10.9490004, z: 0}
        - {x: -33.9989967, y: -2.94899988, z: 0}
        - {x: 34.0010033, y: -2.94899988, z: 0}
        triangles: 000000000300000001000000020000000300000000000000
        uv:
        - {x: .976564467, y: .294922858}
        - {x: .976564467, y: .361327142}
        - {x: .992185533, y: .294922858}
        - {x: .992185533, y: .361327142}
        colors:
        - {r: 1, g: 1, b: 1, a: 1}
        - {r: 1, g: 1, b: 1, a: 1}
        - {r: 1, g: 1, b: 1, a: 1}
        - {r: 1, g: 1, b: 1, a: 1}
    - Variants:
      - vertices:
        - {x: -33.9989967, y: -9.14985371, z: -.00100000005}
        - {x: 34.0010033, y: -9.14985371, z: -.00100000005}
        - {x: -33.9989967, y: 5.44999981, z: -.00100000005}
        - {x: 34.0010033, y: 5.44999981, z: -.00100000005}
        triangles: 000000000300000001000000020000000300000000000000
        uv:
        - {x: .937501967, y: .384766608}
        - {x: .937501967, y: .451170892}
        - {x: .968748033, y: .384766608}
        - {x: .968748033, y: .451170892}
        colors:
        - {r: 1, g: 1, b: 1, a: 1}
        - {r: 1, g: 1, b: 1, a: 1}
        - {r: 1, g: 1, b: 1, a: 1}
        - {r: 1, g: 1, b: 1, a: 1}
  - Layers:
    - Variants:
      - vertices:
        - {x: -33.9989967, y: -10.7989998, z: 0}
        - {x: 34.0010033, y: -10.7989998, z: 0}
        - {x: -33.9989967, y: -2.79900002, z: 0}
        - {x: 34.0010033, y: -2.79900002, z: 0}
        triangles: 000000000300000001000000020000000300000000000000
        uv:
        - {x: .976564467, y: .294922858}
        - {x: .976564467, y: .361327142}
        - {x: .992185533, y: .294922858}
        - {x: .992185533, y: .361327142}
        colors:
        - {r: 1, g: 1, b: 1, a: 1}
        - {r: 1, g: 1, b: 1, a: 1}
        - {r: 1, g: 1, b: 1, a: 1}
        - {r: 1, g: 1, b: 1, a: 1}
    - Variants:
      - vertices:
        - {x: -33.9989967, y: -9.04990196, z: -.00100000005}
        - {x: 34.0010033, y: -9.04990196, z: -.00100000005}
        - {x: -33.9989967, y: 5.5999999, z: -.00100000005}
        - {x: 34.0010033, y: 5.5999999, z: -.00100000005}
        triangles: 000000000300000001000000020000000300000000000000
        uv:
        - {x: .937501967, y: .384766608}
        - {x: .937501967, y: .451170892}
        - {x: .968748033, y: .384766608}
        - {x: .968748033, y: .451170892}
        colors:
        - {r: 1, g: 1, b: 1, a: 1}
        - {r: 1, g: 1, b: 1, a: 1}
        - {r: 1, g: 1, b: 1, a: 1}
        - {r: 1, g: 1, b: 1, a: 1}
  - Layers:
    - Variants:
      - vertices:
        - {x: -33.9989967, y: -10.599, z: 0}
        - {x: 34.0010033, y: -10.599, z: 0}
        - {x: -33.9989967, y: -2.59899998, z: 0}
        - {x: 34.0010033, y: -2.59899998, z: 0}
        triangles: 000000000300000001000000020000000300000000000000
        uv:
        - {x: .976564467, y: .294922858}
        - {x: .976564467, y: .361327142}
        - {x: .992185533, y: .294922858}
        - {x: .992185533, y: .361327142}
        colors:
        - {r: 1, g: 1, b: 1, a: 1}
        - {r: 1, g: 1, b: 1, a: 1}
        - {r: 1, g: 1, b: 1, a: 1}
        - {r: 1, g: 1, b: 1, a: 1}
    - Variants:
      - vertices:
        - {x: -33.9989967, y: -8.94995117, z: -.00100000005}
        - {x: 34.0010033, y: -8.94995117, z: -.00100000005}
        - {x: -33.9989967, y: 5.75, z: -.00100000005}
        - {x: 34.0010033, y: 5.75, z: -.00100000005}
        triangles: 000000000300000001000000020000000300000000000000
        uv:
        - {x: .937501967, y: .384766608}
        - {x: .937501967, y: .451170892}
        - {x: .968748033, y: .384766608}
        - {x: .968748033, y: .451170892}
        colors:
        - {r: 1, g: 1, b: 1, a: 1}
        - {r: 1, g: 1, b: 1, a: 1}
        - {r: 1, g: 1, b: 1, a: 1}
        - {r: 1, g: 1, b: 1, a: 1}
  - Layers:
    - Variants:
      - vertices:
        - {x: -33.9989967, y: -10.3990002, z: 0}
        - {x: 34.0010033, y: -10.3990002, z: 0}
        - {x: -33.9989967, y: -2.39899993, z: 0}
        - {x: 34.0010033, y: -2.39899993, z: 0}
        triangles: 000000000300000001000000020000000300000000000000
        uv:
        - {x: .976564467, y: .294922858}
        - {x: .976564467, y: .361327142}
        - {x: .992185533, y: .294922858}
        - {x: .992185533, y: .361327142}
        colors:
        - {r: 1, g: 1, b: 1, a: 1}
        - {r: 1, g: 1, b: 1, a: 1}
        - {r: 1, g: 1, b: 1, a: 1}
        - {r: 1, g: 1, b: 1, a: 1}
    - Variants:
      - vertices:
        - {x: -33.9989967, y: -8.85000038, z: -.00100000005}
        - {x: 34.0010033, y: -8.85000038, z: -.00100000005}
        - {x: -33.9989967, y: 5.89999962, z: -.00100000005}
        - {x: 34.0010033, y: 5.89999962, z: -.00100000005}
        triangles: 000000000300000001000000020000000300000000000000
        uv:
        - {x: .937501967, y: .384766608}
        - {x: .937501967, y: .451170892}
        - {x: .968748033, y: .384766608}
        - {x: .968748033, y: .451170892}
        colors:
        - {r: 1, g: 1, b: 1, a: 1}
        - {r: 1, g: 1, b: 1, a: 1}
        - {r: 1, g: 1, b: 1, a: 1}
        - {r: 1, g: 1, b: 1, a: 1}
  - Layers:
    - Variants:
      - vertices:
        - {x: -33.9989967, y: -10.1990004, z: 0}
        - {x: 34.0010033, y: -10.1990004, z: 0}
        - {x: -33.9989967, y: -2.19899988, z: 0}
        - {x: 34.0010033, y: -2.19899988, z: 0}
        triangles: 000000000300000001000000020000000300000000000000
        uv:
        - {x: .976564467, y: .294922858}
        - {x: .976564467, y: .361327142}
        - {x: .992185533, y: .294922858}
        - {x: .992185533, y: .361327142}
        colors:
        - {r: 1, g: 1, b: 1, a: 1}
        - {r: 1, g: 1, b: 1, a: 1}
        - {r: 1, g: 1, b: 1, a: 1}
        - {r: 1, g: 1, b: 1, a: 1}
    - Variants:
      - vertices:
        - {x: -33.9989967, y: -8.74980545, z: -.00100000005}
        - {x: 34.0010033, y: -8.74980545, z: -.00100000005}
        - {x: -33.9989967, y: 6.04999971, z: -.00100000005}
        - {x: 34.0010033, y: 6.04999971, z: -.00100000005}
        triangles: 000000000300000001000000020000000300000000000000
        uv:
        - {x: .937501967, y: .384766608}
        - {x: .937501967, y: .451170892}
        - {x: .968748033, y: .384766608}
        - {x: .968748033, y: .451170892}
        colors:
        - {r: 1, g: 1, b: 1, a: 1}
        - {r: 1, g: 1, b: 1, a: 1}
        - {r: 1, g: 1, b: 1, a: 1}
        - {r: 1, g: 1, b: 1, a: 1}
  - Layers:
    - Variants:
      - vertices:
        - {x: -33.9989967, y: -10.0489998, z: 0}
        - {x: 34.0010033, y: -10.0489998, z: 0}
        - {x: -33.9989967, y: -2.04900002, z: 0}
        - {x: 34.0010033, y: -2.04900002, z: 0}
        triangles: 000000000300000001000000020000000300000000000000
        uv:
        - {x: .976564467, y: .294922858}
        - {x: .976564467, y: .361327142}
        - {x: .992185533, y: .294922858}
        - {x: .992185533, y: .361327142}
        colors:
        - {r: 1, g: 1, b: 1, a: 1}
        - {r: 1, g: 1, b: 1, a: 1}
        - {r: 1, g: 1, b: 1, a: 1}
        - {r: 1, g: 1, b: 1, a: 1}
    - Variants:
      - vertices:
        - {x: -33.9989967, y: -8.6998539, z: -.00100000005}
        - {x: 34.0010033, y: -8.6998539, z: -.00100000005}
        - {x: -33.9989967, y: 6.14999962, z: -.00100000005}
        - {x: 34.0010033, y: 6.14999962, z: -.00100000005}
        triangles: 000000000300000001000000020000000300000000000000
        uv:
        - {x: .937501967, y: .384766608}
        - {x: .937501967, y: .451170892}
        - {x: .968748033, y: .384766608}
        - {x: .968748033, y: .451170892}
        colors:
        - {r: 1, g: 1, b: 1, a: 1}
        - {r: 1, g: 1, b: 1, a: 1}
        - {r: 1, g: 1, b: 1, a: 1}
        - {r: 1, g: 1, b: 1, a: 1}
  - Layers:
    - Variants:
      - vertices:
        - {x: -33.9989967, y: -9.84899998, z: 0}
        - {x: 34.0010033, y: -9.84899998, z: 0}
        - {x: -33.9989967, y: -1.8490001, z: 0}
        - {x: 34.0010033, y: -1.8490001, z: 0}
        triangles: 000000000300000001000000020000000300000000000000
        uv:
        - {x: .976564467, y: .294922858}
        - {x: .976564467, y: .361327142}
        - {x: .992185533, y: .294922858}
        - {x: .992185533, y: .361327142}
        colors:
        - {r: 1, g: 1, b: 1, a: 1}
        - {r: 1, g: 1, b: 1, a: 1}
        - {r: 1, g: 1, b: 1, a: 1}
        - {r: 1, g: 1, b: 1, a: 1}
    - Variants:
      - vertices:
        - {x: -33.9989967, y: -8.54990196, z: -.00100000005}
        - {x: 34.0010033, y: -8.54990196, z: -.00100000005}
        - {x: -33.9989967, y: 6.3499999, z: -.00100000005}
        - {x: 34.0010033, y: 6.3499999, z: -.00100000005}
        triangles: 000000000300000001000000020000000300000000000000
        uv:
        - {x: .937501967, y: .384766608}
        - {x: .937501967, y: .451170892}
        - {x: .968748033, y: .384766608}
        - {x: .968748033, y: .451170892}
        colors:
        - {r: 1, g: 1, b: 1, a: 1}
        - {r: 1, g: 1, b: 1, a: 1}
        - {r: 1, g: 1, b: 1, a: 1}
        - {r: 1, g: 1, b: 1, a: 1}
  - Layers:
    - Variants:
      - vertices:
        - {x: -33.9989967, y: -9.69900036, z: 0}
        - {x: 34.0010033, y: -9.69900036, z: 0}
        - {x: -33.9989967, y: -1.699, z: 0}
        - {x: 34.0010033, y: -1.699, z: 0}
        triangles: 000000000300000001000000020000000300000000000000
        uv:
        - {x: .976564467, y: .294922858}
        - {x: .976564467, y: .361327142}
        - {x: .992185533, y: .294922858}
        - {x: .992185533, y: .361327142}
        colors:
        - {r: 1, g: 1, b: 1, a: 1}
        - {r: 1, g: 1, b: 1, a: 1}
        - {r: 1, g: 1, b: 1, a: 1}
        - {r: 1, g: 1, b: 1, a: 1}
    - Variants:
      - vertices:
        - {x: -33.9989967, y: -8.49995136, z: -.00100000005}
        - {x: 34.0010033, y: -8.49995136, z: -.00100000005}
        - {x: -33.9989967, y: 6.44999981, z: -.00100000005}
        - {x: 34.0010033, y: 6.44999981, z: -.00100000005}
        triangles: 000000000300000001000000020000000300000000000000
        uv:
        - {x: .937501967, y: .384766608}
        - {x: .937501967, y: .451170892}
        - {x: .968748033, y: .384766608}
        - {x: .968748033, y: .451170892}
        colors:
        - {r: 1, g: 1, b: 1, a: 1}
        - {r: 1, g: 1, b: 1, a: 1}
        - {r: 1, g: 1, b: 1, a: 1}
        - {r: 1, g: 1, b: 1, a: 1}
  - Layers:
    - Variants:
      - vertices:
        - {x: -33.9989967, y: -9.54899979, z: 0}
        - {x: 34.0010033, y: -9.54899979, z: 0}
        - {x: -33.9989967, y: -1.54900002, z: 0}
        - {x: 34.0010033, y: -1.54900002, z: 0}
        triangles: 000000000300000001000000020000000300000000000000
        uv:
        - {x: .976564467, y: .294922858}
        - {x: .976564467, y: .361327142}
        - {x: .992185533, y: .294922858}
        - {x: .992185533, y: .361327142}
        colors:
        - {r: 1, g: 1, b: 1, a: 1}
        - {r: 1, g: 1, b: 1, a: 1}
        - {r: 1, g: 1, b: 1, a: 1}
        - {r: 1, g: 1, b: 1, a: 1}
    - Variants:
      - vertices:
        - {x: -33.9989967, y: -8.39999962, z: -.00100000005}
        - {x: 34.0010033, y: -8.39999962, z: -.00100000005}
        - {x: -33.9989967, y: 6.5999999, z: -.00100000005}
        - {x: 34.0010033, y: 6.5999999, z: -.00100000005}
        triangles: 000000000300000001000000020000000300000000000000
        uv:
        - {x: .937501967, y: .384766608}
        - {x: .937501967, y: .451170892}
        - {x: .968748033, y: .384766608}
        - {x: .968748033, y: .451170892}
        colors:
        - {r: 1, g: 1, b: 1, a: 1}
        - {r: 1, g: 1, b: 1, a: 1}
        - {r: 1, g: 1, b: 1, a: 1}
        - {r: 1, g: 1, b: 1, a: 1}
  - Layers:
    - Variants:
      - vertices:
        - {x: -33.9989967, y: -9.34899998, z: 0}
        - {x: 34.0010033, y: -9.34899998, z: 0}
        - {x: -33.9989967, y: -1.3490001, z: 0}
        - {x: 34.0010033, y: -1.3490001, z: 0}
        triangles: 000000000300000001000000020000000300000000000000
        uv:
        - {x: .976564467, y: .294922858}
        - {x: .976564467, y: .361327142}
        - {x: .992185533, y: .294922858}
        - {x: .992185533, y: .361327142}
        colors:
        - {r: 1, g: 1, b: 1, a: 1}
        - {r: 1, g: 1, b: 1, a: 1}
        - {r: 1, g: 1, b: 1, a: 1}
        - {r: 1, g: 1, b: 1, a: 1}
    - Variants:
      - vertices:
        - {x: -33.9989967, y: -8.34980488, z: -.00100000005}
        - {x: 34.0010033, y: -8.34980488, z: -.00100000005}
        - {x: -33.9989967, y: 6.69999981, z: -.00100000005}
        - {x: 34.0010033, y: 6.69999981, z: -.00100000005}
        triangles: 000000000300000001000000020000000300000000000000
        uv:
        - {x: .937501967, y: .384766608}
        - {x: .937501967, y: .451170892}
        - {x: .968748033, y: .384766608}
        - {x: .968748033, y: .451170892}
        colors:
        - {r: 1, g: 1, b: 1, a: 1}
        - {r: 1, g: 1, b: 1, a: 1}
        - {r: 1, g: 1, b: 1, a: 1}
        - {r: 1, g: 1, b: 1, a: 1}
  - Layers:
    - Variants:
      - vertices:
        - {x: -33.9989967, y: -9.24900055, z: 0}
        - {x: 34.0010033, y: -9.24900055, z: 0}
        - {x: -33.9989967, y: -1.24900007, z: 0}
        - {x: 34.0010033, y: -1.24900007, z: 0}
        triangles: 000000000300000001000000020000000300000000000000
        uv:
        - {x: .976564467, y: .294922858}
        - {x: .976564467, y: .361327142}
        - {x: .992185533, y: .294922858}
        - {x: .992185533, y: .361327142}
        colors:
        - {r: 1, g: 1, b: 1, a: 1}
        - {r: 1, g: 1, b: 1, a: 1}
        - {r: 1, g: 1, b: 1, a: 1}
        - {r: 1, g: 1, b: 1, a: 1}
    - Variants:
      - vertices:
        - {x: -33.9989967, y: -8.29985428, z: -.00100000005}
        - {x: 34.0010033, y: -8.29985428, z: -.00100000005}
        - {x: -33.9989967, y: 6.79999971, z: -.00100000005}
        - {x: 34.0010033, y: 6.79999971, z: -.00100000005}
        triangles: 000000000300000001000000020000000300000000000000
        uv:
        - {x: .937501967, y: .384766608}
        - {x: .937501967, y: .451170892}
        - {x: .968748033, y: .384766608}
        - {x: .968748033, y: .451170892}
        colors:
        - {r: 1, g: 1, b: 1, a: 1}
        - {r: 1, g: 1, b: 1, a: 1}
        - {r: 1, g: 1, b: 1, a: 1}
        - {r: 1, g: 1, b: 1, a: 1}
  - Layers:
    - Variants:
      - vertices:
        - {x: -33.9989967, y: -9.09899998, z: 0}
        - {x: 34.0010033, y: -9.09899998, z: 0}
        - {x: -33.9989967, y: -1.09899998, z: 0}
        - {x: 34.0010033, y: -1.09899998, z: 0}
        triangles: 000000000300000001000000020000000300000000000000
        uv:
        - {x: .976564467, y: .294922858}
        - {x: .976564467, y: .361327142}
        - {x: .992185533, y: .294922858}
        - {x: .992185533, y: .361327142}
        colors:
        - {r: 1, g: 1, b: 1, a: 1}
        - {r: 1, g: 1, b: 1, a: 1}
        - {r: 1, g: 1, b: 1, a: 1}
        - {r: 1, g: 1, b: 1, a: 1}
    - Variants:
      - vertices:
        - {x: -33.9989967, y: -8.24990273, z: -.00100000005}
        - {x: 34.0010033, y: -8.24990273, z: -.00100000005}
        - {x: -33.9989967, y: 6.89999962, z: -.00100000005}
        - {x: 34.0010033, y: 6.89999962, z: -.00100000005}
        triangles: 000000000300000001000000020000000300000000000000
        uv:
        - {x: .937501967, y: .384766608}
        - {x: .937501967, y: .451170892}
        - {x: .968748033, y: .384766608}
        - {x: .968748033, y: .451170892}
        colors:
        - {r: 1, g: 1, b: 1, a: 1}
        - {r: 1, g: 1, b: 1, a: 1}
        - {r: 1, g: 1, b: 1, a: 1}
        - {r: 1, g: 1, b: 1, a: 1}
  - Layers:
    - Variants:
      - vertices:
        - {x: -33.9989967, y: -8.94900036, z: 0}
        - {x: 34.0010033, y: -8.94900036, z: 0}
        - {x: -33.9989967, y: -.949000001, z: 0}
        - {x: 34.0010033, y: -.949000001, z: 0}
        triangles: 000000000300000001000000020000000300000000000000
        uv:
        - {x: .976564467, y: .294922858}
        - {x: .976564467, y: .361327142}
        - {x: .992185533, y: .294922858}
        - {x: .992185533, y: .361327142}
        colors:
        - {r: 1, g: 1, b: 1, a: 1}
        - {r: 1, g: 1, b: 1, a: 1}
        - {r: 1, g: 1, b: 1, a: 1}
        - {r: 1, g: 1, b: 1, a: 1}
    - Variants:
      - vertices:
        - {x: -33.9989967, y: -8.14995193, z: -.00100000005}
        - {x: 34.0010033, y: -8.14995193, z: -.00100000005}
        - {x: -33.9989967, y: 7.04999971, z: -.00100000005}
        - {x: 34.0010033, y: 7.04999971, z: -.00100000005}
        triangles: 000000000300000001000000020000000300000000000000
        uv:
        - {x: .937501967, y: .384766608}
        - {x: .937501967, y: .451170892}
        - {x: .968748033, y: .384766608}
        - {x: .968748033, y: .451170892}
        colors:
        - {r: 1, g: 1, b: 1, a: 1}
        - {r: 1, g: 1, b: 1, a: 1}
        - {r: 1, g: 1, b: 1, a: 1}
        - {r: 1, g: 1, b: 1, a: 1}
  - Layers:
    - Variants:
      - vertices:
        - {x: -33.9989967, y: -8.84899998, z: 0}
        - {x: 34.0010033, y: -8.84899998, z: 0}
        - {x: -33.9989967, y: -.848999977, z: 0}
        - {x: 34.0010033, y: -.848999977, z: 0}
        triangles: 000000000300000001000000020000000300000000000000
        uv:
        - {x: .976564467, y: .294922858}
        - {x: .976564467, y: .361327142}
        - {x: .992185533, y: .294922858}
        - {x: .992185533, y: .361327142}
        colors:
        - {r: 1, g: 1, b: 1, a: 1}
        - {r: 1, g: 1, b: 1, a: 1}
        - {r: 1, g: 1, b: 1, a: 1}
        - {r: 1, g: 1, b: 1, a: 1}
    - Variants:
      - vertices:
        - {x: -33.9989967, y: -8.14999962, z: -.00100000005}
        - {x: 34.0010033, y: -8.14999962, z: -.00100000005}
        - {x: -33.9989967, y: 7.0999999, z: -.00100000005}
        - {x: 34.0010033, y: 7.0999999, z: -.00100000005}
        triangles: 000000000300000001000000020000000300000000000000
        uv:
        - {x: .937501967, y: .384766608}
        - {x: .937501967, y: .451170892}
        - {x: .968748033, y: .384766608}
        - {x: .968748033, y: .451170892}
        colors:
        - {r: 1, g: 1, b: 1, a: 1}
        - {r: 1, g: 1, b: 1, a: 1}
        - {r: 1, g: 1, b: 1, a: 1}
        - {r: 1, g: 1, b: 1, a: 1}
  - Layers:
    - Variants:
      - vertices:
        - {x: -33.9989967, y: -8.74900055, z: 0}
        - {x: 34.0010033, y: -8.74900055, z: 0}
        - {x: -33.9989967, y: -.749000013, z: 0}
        - {x: 34.0010033, y: -.749000013, z: 0}
        triangles: 000000000300000001000000020000000300000000000000
        uv:
        - {x: .976564467, y: .294922858}
        - {x: .976564467, y: .361327142}
        - {x: .992185533, y: .294922858}
        - {x: .992185533, y: .361327142}
        colors:
        - {r: 1, g: 1, b: 1, a: 1}
        - {r: 1, g: 1, b: 1, a: 1}
        - {r: 1, g: 1, b: 1, a: 1}
        - {r: 1, g: 1, b: 1, a: 1}
    - Variants:
      - vertices:
        - {x: -33.9989967, y: -8.04980469, z: -.00100000005}
        - {x: 34.0010033, y: -8.04980469, z: -.00100000005}
        - {x: -33.9989967, y: 7.25, z: -.00100000005}
        - {x: 34.0010033, y: 7.25, z: -.00100000005}
        triangles: 000000000300000001000000020000000300000000000000
        uv:
        - {x: .937501967, y: .384766608}
        - {x: .937501967, y: .451170892}
        - {x: .968748033, y: .384766608}
        - {x: .968748033, y: .451170892}
        colors:
        - {r: 1, g: 1, b: 1, a: 1}
        - {r: 1, g: 1, b: 1, a: 1}
        - {r: 1, g: 1, b: 1, a: 1}
        - {r: 1, g: 1, b: 1, a: 1}
  - Layers:
    - Variants:
      - vertices:
        - {x: -33.9989967, y: -8.64900017, z: 0}
        - {x: 34.0010033, y: -8.64900017, z: 0}
        - {x: -33.9989967, y: -.648999989, z: 0}
        - {x: 34.0010033, y: -.648999989, z: 0}
        triangles: 000000000300000001000000020000000300000000000000
        uv:
        - {x: .976564467, y: .294922858}
        - {x: .976564467, y: .361327142}
        - {x: .992185533, y: .294922858}
        - {x: .992185533, y: .361327142}
        colors:
        - {r: 1, g: 1, b: 1, a: 1}
        - {r: 1, g: 1, b: 1, a: 1}
        - {r: 1, g: 1, b: 1, a: 1}
        - {r: 1, g: 1, b: 1, a: 1}
    - Variants:
      - vertices:
        - {x: -33.9989967, y: -8.04985332, z: -.00100000005}
        - {x: 34.0010033, y: -8.04985332, z: -.00100000005}
        - {x: -33.9989967, y: 7.29999971, z: -.00100000005}
        - {x: 34.0010033, y: 7.29999971, z: -.00100000005}
        triangles: 000000000300000001000000020000000300000000000000
        uv:
        - {x: .937501967, y: .384766608}
        - {x: .937501967, y: .451170892}
        - {x: .968748033, y: .384766608}
        - {x: .968748033, y: .451170892}
        colors:
        - {r: 1, g: 1, b: 1, a: 1}
        - {r: 1, g: 1, b: 1, a: 1}
        - {r: 1, g: 1, b: 1, a: 1}
        - {r: 1, g: 1, b: 1, a: 1}
  - Layers:
    - Variants:
      - vertices:
        - {x: -33.9989967, y: -8.54899979, z: 0}
        - {x: 34.0010033, y: -8.54899979, z: 0}
        - {x: -33.9989967, y: -.549000025, z: 0}
        - {x: 34.0010033, y: -.549000025, z: 0}
        triangles: 000000000300000001000000020000000300000000000000
        uv:
        - {x: .976564467, y: .294922858}
        - {x: .976564467, y: .361327142}
        - {x: .992185533, y: .294922858}
        - {x: .992185533, y: .361327142}
        colors:
        - {r: 1, g: 1, b: 1, a: 1}
        - {r: 1, g: 1, b: 1, a: 1}
        - {r: 1, g: 1, b: 1, a: 1}
        - {r: 1, g: 1, b: 1, a: 1}
    - Variants:
      - vertices:
        - {x: -33.9989967, y: -7.99990273, z: -.00100000005}
        - {x: 34.0010033, y: -7.99990273, z: -.00100000005}
        - {x: -33.9989967, y: 7.39999962, z: -.00100000005}
        - {x: 34.0010033, y: 7.39999962, z: -.00100000005}
        triangles: 000000000300000001000000020000000300000000000000
        uv:
        - {x: .937501967, y: .384766608}
        - {x: .937501967, y: .451170892}
        - {x: .968748033, y: .384766608}
        - {x: .968748033, y: .451170892}
        colors:
        - {r: 1, g: 1, b: 1, a: 1}
        - {r: 1, g: 1, b: 1, a: 1}
        - {r: 1, g: 1, b: 1, a: 1}
        - {r: 1, g: 1, b: 1, a: 1}
  - Layers:
    - Variants:
      - vertices:
        - {x: -33.9989967, y: -8.44900036, z: 0}
        - {x: 34.0010033, y: -8.44900036, z: 0}
        - {x: -33.9989967, y: -.449000001, z: 0}
        - {x: 34.0010033, y: -.449000001, z: 0}
        triangles: 000000000300000001000000020000000300000000000000
        uv:
        - {x: .976564467, y: .294922858}
        - {x: .976564467, y: .361327142}
        - {x: .992185533, y: .294922858}
        - {x: .992185533, y: .361327142}
        colors:
        - {r: 1, g: 1, b: 1, a: 1}
        - {r: 1, g: 1, b: 1, a: 1}
        - {r: 1, g: 1, b: 1, a: 1}
        - {r: 1, g: 1, b: 1, a: 1}
    - Variants:
      - vertices:
        - {x: -33.9989967, y: -7.99995136, z: -.00100000005}
        - {x: 34.0010033, y: -7.99995136, z: -.00100000005}
        - {x: -33.9989967, y: 7.44999981, z: -.00100000005}
        - {x: 34.0010033, y: 7.44999981, z: -.00100000005}
        triangles: 000000000300000001000000020000000300000000000000
        uv:
        - {x: .937501967, y: .384766608}
        - {x: .937501967, y: .451170892}
        - {x: .968748033, y: .384766608}
        - {x: .968748033, y: .451170892}
        colors:
        - {r: 1, g: 1, b: 1, a: 1}
        - {r: 1, g: 1, b: 1, a: 1}
        - {r: 1, g: 1, b: 1, a: 1}
        - {r: 1, g: 1, b: 1, a: 1}
  - Layers:
    - Variants:
      - vertices:
        - {x: -33.9989967, y: -8.34899998, z: 0}
        - {x: 34.0010033, y: -8.34899998, z: 0}
        - {x: -33.9989967, y: -.349000007, z: 0}
        - {x: 34.0010033, y: -.349000007, z: 0}
        triangles: 000000000300000001000000020000000300000000000000
        uv:
        - {x: .976564467, y: .294922858}
        - {x: .976564467, y: .361327142}
        - {x: .992185533, y: .294922858}
        - {x: .992185533, y: .361327142}
        colors:
        - {r: 1, g: 1, b: 1, a: 1}
        - {r: 1, g: 1, b: 1, a: 1}
        - {r: 1, g: 1, b: 1, a: 1}
        - {r: 1, g: 1, b: 1, a: 1}
    - Variants:
      - vertices:
        - {x: -33.9989967, y: -7.95000029, z: -.00100000005}
        - {x: 34.0010033, y: -7.95000029, z: -.00100000005}
        - {x: -33.9989967, y: 7.54999971, z: -.00100000005}
        - {x: 34.0010033, y: 7.54999971, z: -.00100000005}
        triangles: 000000000300000001000000020000000300000000000000
        uv:
        - {x: .937501967, y: .384766608}
        - {x: .937501967, y: .451170892}
        - {x: .968748033, y: .384766608}
        - {x: .968748033, y: .451170892}
        colors:
        - {r: 1, g: 1, b: 1, a: 1}
        - {r: 1, g: 1, b: 1, a: 1}
        - {r: 1, g: 1, b: 1, a: 1}
        - {r: 1, g: 1, b: 1, a: 1}
  - Layers:
    - Variants:
      - vertices:
        - {x: -33.9989967, y: -8.29899979, z: 0}
        - {x: 34.0010033, y: -8.29899979, z: 0}
        - {x: -33.9989967, y: -.299000025, z: 0}
        - {x: 34.0010033, y: -.299000025, z: 0}
        triangles: 000000000300000001000000020000000300000000000000
        uv:
        - {x: .976564467, y: .294922858}
        - {x: .976564467, y: .361327142}
        - {x: .992185533, y: .294922858}
        - {x: .992185533, y: .361327142}
        colors:
        - {r: 1, g: 1, b: 1, a: 1}
        - {r: 1, g: 1, b: 1, a: 1}
        - {r: 1, g: 1, b: 1, a: 1}
        - {r: 1, g: 1, b: 1, a: 1}
    - Variants:
      - vertices:
        - {x: -33.9989967, y: -7.94980478, z: -.00100000005}
        - {x: 34.0010033, y: -7.94980478, z: -.00100000005}
        - {x: -33.9989967, y: 7.5999999, z: -.00100000005}
        - {x: 34.0010033, y: 7.5999999, z: -.00100000005}
        triangles: 000000000300000001000000020000000300000000000000
        uv:
        - {x: .937501967, y: .384766608}
        - {x: .937501967, y: .451170892}
        - {x: .968748033, y: .384766608}
        - {x: .968748033, y: .451170892}
        colors:
        - {r: 1, g: 1, b: 1, a: 1}
        - {r: 1, g: 1, b: 1, a: 1}
        - {r: 1, g: 1, b: 1, a: 1}
        - {r: 1, g: 1, b: 1, a: 1}
  - Layers:
    - Variants:
      - vertices:
        - {x: -33.9989967, y: -8.24900055, z: 0}
        - {x: 34.0010033, y: -8.24900055, z: 0}
        - {x: -33.9989967, y: -.249000013, z: 0}
        - {x: 34.0010033, y: -.249000013, z: 0}
        triangles: 000000000300000001000000020000000300000000000000
        uv:
        - {x: .976564467, y: .294922858}
        - {x: .976564467, y: .361327142}
        - {x: .992185533, y: .294922858}
        - {x: .992185533, y: .361327142}
        colors:
        - {r: 1, g: 1, b: 1, a: 1}
        - {r: 1, g: 1, b: 1, a: 1}
        - {r: 1, g: 1, b: 1, a: 1}
        - {r: 1, g: 1, b: 1, a: 1}
    - Variants:
      - vertices:
        - {x: -33.9989967, y: -7.89985371, z: -.00100000005}
        - {x: 34.0010033, y: -7.89985371, z: -.00100000005}
        - {x: -33.9989967, y: 7.69999981, z: -.00100000005}
        - {x: 34.0010033, y: 7.69999981, z: -.00100000005}
        triangles: 000000000300000001000000020000000300000000000000
        uv:
        - {x: .937501967, y: .384766608}
        - {x: .937501967, y: .451170892}
        - {x: .968748033, y: .384766608}
        - {x: .968748033, y: .451170892}
        colors:
        - {r: 1, g: 1, b: 1, a: 1}
        - {r: 1, g: 1, b: 1, a: 1}
        - {r: 1, g: 1, b: 1, a: 1}
        - {r: 1, g: 1, b: 1, a: 1}
  - Layers:
    - Variants:
      - vertices:
        - {x: -33.9989967, y: -8.19900036, z: 0}
        - {x: 34.0010033, y: -8.19900036, z: 0}
        - {x: -33.9989967, y: -.199000001, z: 0}
        - {x: 34.0010033, y: -.199000001, z: 0}
        triangles: 000000000300000001000000020000000300000000000000
        uv:
        - {x: .976564467, y: .294922858}
        - {x: .976564467, y: .361327142}
        - {x: .992185533, y: .294922858}
        - {x: .992185533, y: .361327142}
        colors:
        - {r: 1, g: 1, b: 1, a: 1}
        - {r: 1, g: 1, b: 1, a: 1}
        - {r: 1, g: 1, b: 1, a: 1}
        - {r: 1, g: 1, b: 1, a: 1}
    - Variants:
      - vertices:
        - {x: -33.9989967, y: -7.94990253, z: -.00100000005}
        - {x: 34.0010033, y: -7.94990253, z: -.00100000005}
        - {x: -33.9989967, y: 7.69999981, z: -.00100000005}
        - {x: 34.0010033, y: 7.69999981, z: -.00100000005}
        triangles: 000000000300000001000000020000000300000000000000
        uv:
        - {x: .937501967, y: .384766608}
        - {x: .937501967, y: .451170892}
        - {x: .968748033, y: .384766608}
        - {x: .968748033, y: .451170892}
        colors:
        - {r: 1, g: 1, b: 1, a: 1}
        - {r: 1, g: 1, b: 1, a: 1}
        - {r: 1, g: 1, b: 1, a: 1}
        - {r: 1, g: 1, b: 1, a: 1}
  - Layers:
    - Variants:
      - vertices:
        - {x: -33.9989967, y: -8.14900017, z: 0}
        - {x: 34.0010033, y: -8.14900017, z: 0}
        - {x: -33.9989967, y: -.149000004, z: 0}
        - {x: 34.0010033, y: -.149000004, z: 0}
        triangles: 000000000300000001000000020000000300000000000000
        uv:
        - {x: .976564467, y: .294922858}
        - {x: .976564467, y: .361327142}
        - {x: .992185533, y: .294922858}
        - {x: .992185533, y: .361327142}
        colors:
        - {r: 1, g: 1, b: 1, a: 1}
        - {r: 1, g: 1, b: 1, a: 1}
        - {r: 1, g: 1, b: 1, a: 1}
        - {r: 1, g: 1, b: 1, a: 1}
    - Variants:
      - vertices:
        - {x: -33.9989967, y: -7.89995146, z: -.00100000005}
        - {x: 34.0010033, y: -7.89995146, z: -.00100000005}
        - {x: -33.9989967, y: 7.79999971, z: -.00100000005}
        - {x: 34.0010033, y: 7.79999971, z: -.00100000005}
        triangles: 000000000300000001000000020000000300000000000000
        uv:
        - {x: .937501967, y: .384766608}
        - {x: .937501967, y: .451170892}
        - {x: .968748033, y: .384766608}
        - {x: .968748033, y: .451170892}
        colors:
        - {r: 1, g: 1, b: 1, a: 1}
        - {r: 1, g: 1, b: 1, a: 1}
        - {r: 1, g: 1, b: 1, a: 1}
        - {r: 1, g: 1, b: 1, a: 1}
  - Layers:
    - Variants:
      - vertices:
        - {x: -33.9989967, y: -8.10000038, z: 0}
        - {x: 34.0010033, y: -8.10000038, z: 0}
        - {x: -33.9989967, y: -.100000009, z: 0}
        - {x: 34.0010033, y: -.100000009, z: 0}
        triangles: 000000000300000001000000020000000300000000000000
        uv:
        - {x: .976564467, y: .294922858}
        - {x: .976564467, y: .361327142}
        - {x: .992185533, y: .294922858}
        - {x: .992185533, y: .361327142}
        colors:
        - {r: 1, g: 1, b: 1, a: 1}
        - {r: 1, g: 1, b: 1, a: 1}
        - {r: 1, g: 1, b: 1, a: 1}
        - {r: 1, g: 1, b: 1, a: 1}
    - Variants:
      - vertices:
        - {x: -33.9989967, y: -7.95000029, z: -.00100000005}
        - {x: 34.0010033, y: -7.95000029, z: -.00100000005}
        - {x: -33.9989967, y: 7.79999971, z: -.00100000005}
        - {x: 34.0010033, y: 7.79999971, z: -.00100000005}
        triangles: 000000000300000001000000020000000300000000000000
        uv:
        - {x: .937501967, y: .384766608}
        - {x: .937501967, y: .451170892}
        - {x: .968748033, y: .384766608}
        - {x: .968748033, y: .451170892}
        colors:
        - {r: 1, g: 1, b: 1, a: 1}
        - {r: 1, g: 1, b: 1, a: 1}
        - {r: 1, g: 1, b: 1, a: 1}
        - {r: 1, g: 1, b: 1, a: 1}
  - Layers:
    - Variants:
      - vertices:
        - {x: -33.9989967, y: -8.05000019, z: 0}
        - {x: 34.0010033, y: -8.05000019, z: 0}
        - {x: -33.9989967, y: -.0500000045, z: 0}
        - {x: 34.0010033, y: -.0500000045, z: 0}
        triangles: 000000000300000001000000020000000300000000000000
        uv:
        - {x: .976564467, y: .294922858}
        - {x: .976564467, y: .361327142}
        - {x: .992185533, y: .294922858}
        - {x: .992185533, y: .361327142}
        colors:
        - {r: 1, g: 1, b: 1, a: 1}
        - {r: 1, g: 1, b: 1, a: 1}
        - {r: 1, g: 1, b: 1, a: 1}
        - {r: 1, g: 1, b: 1, a: 1}
    - Variants:
      - vertices:
        - {x: -33.9989967, y: -7.89980507, z: -.00100000005}
        - {x: 34.0010033, y: -7.89980507, z: -.00100000005}
        - {x: -33.9989967, y: 7.89999962, z: -.00100000005}
        - {x: 34.0010033, y: 7.89999962, z: -.00100000005}
        triangles: 000000000300000001000000020000000300000000000000
        uv:
        - {x: .937501967, y: .384766608}
        - {x: .937501967, y: .451170892}
        - {x: .968748033, y: .384766608}
        - {x: .968748033, y: .451170892}
        colors:
        - {r: 1, g: 1, b: 1, a: 1}
        - {r: 1, g: 1, b: 1, a: 1}
        - {r: 1, g: 1, b: 1, a: 1}
        - {r: 1, g: 1, b: 1, a: 1}
  - Layers:
    - Variants:
      - vertices:
        - {x: -33.9989967, y: -8.05000019, z: 0}
        - {x: 34.0010033, y: -8.05000019, z: 0}
        - {x: -33.9989967, y: -.0500000045, z: 0}
        - {x: 34.0010033, y: -.0500000045, z: 0}
        triangles: 000000000300000001000000020000000300000000000000
        uv:
        - {x: .976564467, y: .294922858}
        - {x: .976564467, y: .361327142}
        - {x: .992185533, y: .294922858}
        - {x: .992185533, y: .361327142}
        colors:
        - {r: 1, g: 1, b: 1, a: 1}
        - {r: 1, g: 1, b: 1, a: 1}
        - {r: 1, g: 1, b: 1, a: 1}
        - {r: 1, g: 1, b: 1, a: 1}
    - Variants:
      - vertices:
        - {x: -33.9989967, y: -7.9498539, z: -.00100000005}
        - {x: 34.0010033, y: -7.9498539, z: -.00100000005}
        - {x: -33.9989967, y: 7.89999962, z: -.00100000005}
        - {x: 34.0010033, y: 7.89999962, z: -.00100000005}
        triangles: 000000000300000001000000020000000300000000000000
        uv:
        - {x: .937501967, y: .384766608}
        - {x: .937501967, y: .451170892}
        - {x: .968748033, y: .384766608}
        - {x: .968748033, y: .451170892}
        colors:
        - {r: 1, g: 1, b: 1, a: 1}
        - {r: 1, g: 1, b: 1, a: 1}
        - {r: 1, g: 1, b: 1, a: 1}
        - {r: 1, g: 1, b: 1, a: 1}
  - Layers:
    - Variants:
      - vertices:
        - {x: -33.9989967, y: -8, z: 0}
        - {x: 34.0010033, y: -8, z: 0}
        - {x: -33.9989967, y: 0, z: 0}
        - {x: 34.0010033, y: 0, z: 0}
        triangles: 000000000300000001000000020000000300000000000000
        uv:
        - {x: .976564467, y: .294922858}
        - {x: .976564467, y: .361327142}
        - {x: .992185533, y: .294922858}
        - {x: .992185533, y: .361327142}
        colors:
        - {r: 1, g: 1, b: 1, a: 1}
        - {r: 1, g: 1, b: 1, a: 1}
        - {r: 1, g: 1, b: 1, a: 1}
        - {r: 1, g: 1, b: 1, a: 1}
    - Variants:
      - vertices:
        - {x: -33.9989967, y: -7.94990253, z: -.00100000005}
        - {x: 34.0010033, y: -7.94990253, z: -.00100000005}
        - {x: -33.9989967, y: 7.94999981, z: -.00100000005}
        - {x: 34.0010033, y: 7.94999981, z: -.00100000005}
        triangles: 000000000300000001000000020000000300000000000000
        uv:
        - {x: .937501967, y: .384766608}
        - {x: .937501967, y: .451170892}
        - {x: .968748033, y: .384766608}
        - {x: .968748033, y: .451170892}
        colors:
        - {r: 1, g: 1, b: 1, a: 1}
        - {r: 1, g: 1, b: 1, a: 1}
        - {r: 1, g: 1, b: 1, a: 1}
        - {r: 1, g: 1, b: 1, a: 1}
  - Layers:
    - Variants:
      - vertices:
        - {x: -33.9989967, y: -8, z: 0}
        - {x: 34.0010033, y: -8, z: 0}
        - {x: -33.9989967, y: 0, z: 0}
        - {x: 34.0010033, y: 0, z: 0}
        triangles: 000000000300000001000000020000000300000000000000
        uv:
        - {x: .976564467, y: .294922858}
        - {x: .976564467, y: .361327142}
        - {x: .992185533, y: .294922858}
        - {x: .992185533, y: .361327142}
        colors:
        - {r: 1, g: 1, b: 1, a: 1}
        - {r: 1, g: 1, b: 1, a: 1}
        - {r: 1, g: 1, b: 1, a: 1}
        - {r: 1, g: 1, b: 1, a: 1}
    - Variants:
      - vertices:
        - {x: -33.9989967, y: -7.99995136, z: -.00100000005}
        - {x: 34.0010033, y: -7.99995136, z: -.00100000005}
        - {x: -33.9989967, y: 7.94999981, z: -.00100000005}
        - {x: 34.0010033, y: 7.94999981, z: -.00100000005}
        triangles: 000000000300000001000000020000000300000000000000
        uv:
        - {x: .937501967, y: .384766608}
        - {x: .937501967, y: .451170892}
        - {x: .968748033, y: .384766608}
        - {x: .968748033, y: .451170892}
        colors:
        - {r: 1, g: 1, b: 1, a: 1}
        - {r: 1, g: 1, b: 1, a: 1}
        - {r: 1, g: 1, b: 1, a: 1}
        - {r: 1, g: 1, b: 1, a: 1}
  - Layers:
    - Variants:
      - vertices:
        - {x: -33.9989967, y: -8, z: 0}
        - {x: 34.0010033, y: -8, z: 0}
        - {x: -33.9989967, y: 0, z: 0}
        - {x: 34.0010033, y: 0, z: 0}
        triangles: 000000000300000001000000020000000300000000000000
        uv:
        - {x: .976564467, y: .294922858}
        - {x: .976564467, y: .361327142}
        - {x: .992185533, y: .294922858}
        - {x: .992185533, y: .361327142}
        colors:
        - {r: 1, g: 1, b: 1, a: 1}
        - {r: 1, g: 1, b: 1, a: 1}
        - {r: 1, g: 1, b: 1, a: 1}
        - {r: 1, g: 1, b: 1, a: 1}
    - Variants:
      - vertices:
        - {x: -33.9989967, y: -8, z: -.00100000005}
        - {x: 34.0010033, y: -8, z: -.00100000005}
        - {x: -33.9989967, y: 8, z: -.00100000005}
        - {x: 34.0010033, y: 8, z: -.00100000005}
        triangles: 000000000300000001000000020000000300000000000000
        uv:
        - {x: .937501967, y: .384766608}
        - {x: .937501967, y: .451170892}
        - {x: .968748033, y: .384766608}
        - {x: .968748033, y: .451170892}
        colors:
        - {r: 1, g: 1, b: 1, a: 1}
        - {r: 1, g: 1, b: 1, a: 1}
        - {r: 1, g: 1, b: 1, a: 1}
        - {r: 1, g: 1, b: 1, a: 1}
  _layerNames:
  - Enemy7_bodypart
  - Enemy7_body
  _maxTriangles: 12
  _maxVertices: 8
--- !u!1001 &100100000
Prefab:
  m_ObjectHideFlags: 1
  serializedVersion: 2
  m_Modification:
    m_TransformParent: {fileID: 0}
    m_Modifications: []
    m_RemovedComponents: []
  m_ParentPrefab: {fileID: 0}
  m_RootGameObject: {fileID: 100000}
  m_IsPrefabParent: 1
