info face="/Users/yuriyvot/Downloads\TYPE_golden_numbers-export" size=32 bold=0 italic=0 charset="" unicode=0 stretchH=100 smooth=1 aa=1 padding=0,0,0,0 spacing=1,1
common lineHeight=18 base=26 scaleW=64 scaleH=32 pages=1 packed=0 alphaChnl=1 redChnl=0 greenChnl=0 blueChnl=0
page id=0 file="/Users/yuriyvot/Downloads\TYPE_golden_numbers-export.png"
chars count=12
char id=48 x=14 y=0 width=6 height=12 xoffset=0 yoffset=6 xadvance=7 page=0 chnl=0 letter="0"
char id=49 x=28 y=13 width=2 height=12 xoffset=0 yoffset=6 xadvance=3 page=0 chnl=0 letter="1"
char id=50 x=21 y=13 width=6 height=12 xoffset=0 yoffset=6 xadvance=7 page=0 chnl=0 letter="2"
char id=51 x=21 y=0 width=6 height=12 xoffset=0 yoffset=6 xadvance=7 page=0 chnl=0 letter="3"
char id=52 x=14 y=13 width=6 height=12 xoffset=0 yoffset=6 xadvance=7 page=0 chnl=0 letter="4"
char id=53 x=28 y=0 width=6 height=12 xoffset=0 yoffset=6 xadvance=7 page=0 chnl=0 letter="5"
char id=54 x=7 y=13 width=6 height=12 xoffset=0 yoffset=6 xadvance=7 page=0 chnl=0 letter="6"
char id=55 x=7 y=0 width=6 height=12 xoffset=0 yoffset=6 xadvance=7 page=0 chnl=0 letter="7"
char id=56 x=0 y=13 width=6 height=12 xoffset=0 yoffset=6 xadvance=7 page=0 chnl=0 letter="8"
char id=57 x=0 y=0 width=6 height=12 xoffset=0 yoffset=6 xadvance=7 page=0 chnl=0 letter="9"
char id=32 x=0 y=0 width=0 height=0 xoffset=0 yoffset=0 xadvance=3 page=0 chnl=0 letter=" "
char id=9 x=0 y=0 width=0 height=0 xoffset=0 yoffset=0 xadvance=24 page=0 chnl=0 letter="	"

kernings count=0
