%YAML 1.1
%TAG !u! tag:unity3d.com,2011:
--- !u!114 &11400000
MonoBehaviour:
  m_ObjectHideFlags: 0
  m_CorrespondingSourceObject: {fileID: 0}
  m_PrefabInstance: {fileID: 0}
  m_PrefabAsset: {fileID: 0}
  m_GameObject: {fileID: 0}
  m_Enabled: 1
  m_EditorHideFlags: 0
  m_Script: {fileID: 11500000, guid: f6cc72005a430c744ab2779159322bf5, type: 3}
  m_Name: RootInstaller
  m_EditorClassIdentifier: 
  _nelliFader: {fileID: 11400002, guid: c6aca7f20a1fe3a428a5fcabbbc19ef1, type: 3}
  _advertisingManager: {fileID: 11420014, guid: a8c34168970e34631a9b12e0fb5d2623,
    type: 3}
  _myCursor: {fileID: 11400000, guid: a13c7a4e56f51544c83bfcad70fbf834, type: 3}
